<?xml version="1.0" encoding="utf-8"?>
<!-- Generator: Adobe Illustrator 19.0.0, SVG Export Plug-In . SVG Version: 6.00 Build 0)  -->
<svg version="1.1" id="Layer_1" xmlns="http://www.w3.org/2000/svg" xmlns:xlink="http://www.w3.org/1999/xlink" x="0px" y="0px"
	 viewBox="0 0 426.5 400.3" style="enable-background:new 0 0 426.5 400.3;" xml:space="preserve">
<style type="text/css">
	.st0{fill:none;stroke:#000000;stroke-width:2;stroke-miterlimit:10;}
</style>
<g>
	<path class="st0" d="M28,147.5c-0.7-0.8-1-1.9-0.9-3c0.1-0.3,0.2-0.7,0.6-0.7c0.2,0,0.4,0.1,0.5,0.3c1.6,1.7,0.5,5-1.8,5.6
		c1.3-0.2,2.7-0.7,3.5-1.8c0.8-1.1,0.8-2.8-0.3-3.6c-0.3-0.2-0.6-0.4-0.6-0.8c0-0.2,0.3-0.4,0.5-0.5c2-1,4.5-0.5,6.1,1
		c-0.9,1.4-1.9,2.6-3.1,3.7c1.9,0.4,3.9,0.3,5.9-0.1c0.5-0.1,1.1-0.3,1.3-0.7c0.6-0.9-0.5-2.1-1.5-2.5c-1-0.3-2.1-0.4-3.1-0.1
		c0.6,1,2.1,1,3.1,0.4c1-0.6,1.6-1.6,2.4-2.5c0.8-0.9,1.8-1.7,2.9-1.6c1.3,1.9,0.5,5-1.7,5.8c2.2-0.5,4.9-1.5,5.1-3.8
		c0-0.3,0-0.5,0.1-0.8c0.3-0.7,1.6-0.5,1.8,0.3c0.2,0.8-0.6,1.6-1.4,1.5s-1.4-0.7-1.6-1.5c1.3-0.6,2.8-0.6,4.1-0.1
		c0.2-1,1.4-1.6,2.4-1.3c-0.2,1.6-1.1,3-2,4.4c5.5-0.1,10.9-2,15.2-5.4c-2-1.2-4.6-0.5-6.7,0.5c-2.1,1-4.3,2.3-6.6,2.2
		c-0.5-0.7-0.3-1.7,0.2-2.4c0.5-0.7,1.3-1.1,2.1-1.5c9.7-4.9,20.7-6.2,31.5-7.4c0.5,2.6,1,5.2,1.5,7.8c-6.8,1.4-13.7,2.7-20.5,4.1
		c-0.3-0.6-0.5-1.1-0.8-1.7"/>
	<path class="st0" d="M91.7,131.4c12.1-2,24.1-4.1,36.2-6.1c33-5.6,66.1-11.2,98.8-18.5c0,1.3-1,2.4-1.4,3.7
		c-0.4,1.3,0.3,3.2,1.6,2.8c0.7-0.2,1-0.9,1.2-1.6c0.6-2.3-0.1-4.8-1.6-6.6c-0.4,0.7-1.5,0.6-1.8,0"/>
	<path class="st0" d="M86.9,137.8c16.3-6,34.1-6.2,51.4-8.4c13.6-1.7,27.1-4.6,40.4-8.1c15.6-4.1,32.3-6.2,48.3-8.4
		c0-0.5-0.1-1-0.4-1.4"/>
	<path class="st0" d="M113,145c-0.3-0.6-1.1-0.9-1.8-1s-1.4,0-2.1-0.1c-1.3-0.2-2.6-1-3.9-0.7c-1,0.2-1.8,0.9-2.8,0.8
		c-1-0.1-1.8-1.2-2.8-1c-0.6,0.1-1.3,0.7-1.8,0.4c-0.3-0.2-0.4-0.6-0.4-0.9c0-1.4,1.3-2.5,2.5-3.1c1.3-0.6,2.7-1.2,3.4-2.4"/>
	<path class="st0" d="M119.1,125.6c4-4.7,6.9-10.3,10.5-15.3c3.6-5,8.2-9.7,14.1-11.6c4.1-1.3,8.7-1.2,12.3-3.3
		c1.6-0.9,3.5-2.4,5.1-1.4c0.4,0.3,0.8,0.7,1.1,1.1c2,2.8,2.6,6.7,5.4,8.7c-4.3,1.8-8.9,3-13.5,3.5c-1,0.1-2,0.2-2.8,0.8
		c-0.7,0.5-1,1.4-1.4,2.1c-1.5,2.8-4.1,4.8-6.6,6.8c-2.9,2.3-5.9,4.6-8.8,6.9c-0.2,0.2-0.5,0.3-0.7,0.2c-0.2-0.2,0.3-0.5,0.3-0.2"/>
	<path class="st0" d="M180.7,86c-1.8-0.3-3.6,0.2-5.3,0.7c-2.4,0.7-4.7,1.3-7.1,2c-1.8,0.5-3.6,1-5.1,2c-0.8,0-1.9,1.1-2.4,1.7
		c-0.3,0.4-0.2,1.1,0.2,1"/>
	<path class="st0" d="M168,102.3c-0.1,2.9,2.1,5.6,4.7,6.8s5.7,1.1,8.6,0.7c2.9-0.5,5.7-1.3,8.6-1.6c2.8-0.3,5.7-0.1,8.5-0.7
		c2.1-0.4,4.2-1.3,6.4-1.1c0.6,0.1,1.4,0.2,1.9-0.2c0.9-0.7,0.5-2.4,1.5-2.8c0.1,1.6,0.2,3.3,0.2,4.9c-0.3-0.4-0.6-0.8-0.9-1.2"/>
	<path class="st0" d="M179.4,85.5c5.7-0.8,11-3.4,16.6-5c3.4-0.9,6.8-1.5,10.3-2.1c3-0.5,6-1,9.1-1.4c5.3-0.7,10.7-1.1,16.1-1.2
		c0.6,0,1.2,0,1.8,0.3c0.6,0.3,1,0.9,1.4,1.5c2.3,3.6,4.7,7.2,7,10.8c0.6,1,1.3,2.1,1.3,3.2c0,1.3-0.7,2.4-1.5,3.5
		c-1.1,1.6-2.2,3.2-3.3,4.8c-0.9,1.4-1.9,2.7-3.2,3.7c-2.8,2-7.1,1.6-9.4-0.9"/>
	<path class="st0" d="M207.6,115.9c1.4,0.5,1.4,2.6,0.5,3.8s-2.3,2-3.2,3.1c-0.9,1.2-1.2,3.2,0.2,3.9c0.6,0.3,1.3,0.3,1.7,0.7
		c0.8,0.7,0.3,2.1-0.6,2.7c-0.9,0.6-2,0.8-2.9,1.4c-0.2,0.1-0.4,0.3-0.5,0.6c-0.1,0.3,0.1,0.6,0.3,0.9c0.6,1.5-0.8,3-2.2,3.8
		c-1.4,0.8-3.1,1.5-3.6,2.9c-0.5,1.2,0,2.6,0.8,3.6s2,1.7,3.1,2.3c2,1.2,4.4,2.3,6.4,1.2c0.5-0.3,1-0.8,1.3-1.3
		c0.3-0.6,0.3-1.2,0.4-1.9c0.6-2.4,3.2-3.8,5.5-4.8c1.3-0.6,2.7-1.3,4-1.9c1.1-0.5,2.3-1.1,3.1-2.1c0.5-0.6,0.8-1.3,1.3-1.8
		c1.1-1.1,3-0.9,4.3-0.2c1.4,0.7,2.4,1.9,3.6,2.9c0.5,0.4,1,0.7,1.6,0.9c1.6,0.3,3-1.1,4-2.4c5.6,1.3,11.2,2.6,16.7,3.9
		c7,1.6,14.1,3.2,21.3,3.1c-0.3,1.2,0.6,2.5,0.3,3.7c-0.3,1-1.2,1.6-2.1,2c-4.3,1.8-9.2,0.4-13.9,0.2c-2-0.1-4.1,0-6-0.4
		c-1.9-0.4-3.6-1.4-5.4-2.1c-2.5-1.1-5.1-1.9-7.8-2.4c-0.9-0.2-1.8-0.3-2.6-0.7c-1.9-1-2.9-3.3-4.9-4.2"/>
	<path class="st0" d="M219,116.4c-3.9,0.8-7,4.3-7.8,8.3s0.6,8.1,3.1,11.3c0.2-3,0.3-6,0.5-9c0-0.9,0.1-1.8,0.6-2.6
		c0.3-0.6,0.9-1,1.4-1.4c3.5-2.6,7.3-4.7,11.3-6.4c1.7-0.7,3.4-1.3,5.2-1.7c4.9-1.1,9.9-0.6,14.9-0.1c7.8,0.8,15.7,1.6,23.3,3.8
		c4,1.2,7.8,2.8,11.5,4.7c0.7,0.4,1.4,0.8,1.9,1.3c1.2,1.3,1.2,3.2,1.6,4.9c0.5,2,1.5,3.9,3,5.3c0.5-3.4,1-7.1-0.6-10.1
		c-1.4-2.7-4.2-4.4-6.9-6c-2.9-1.7-6-3.5-9.4-3.9c-3.9-0.5-7.9,0.7-11.8,0.6c-5.2-0.1-10.2-2.6-15.4-2.9c-5.2-0.3-10.5,1.6-15.5,0.2
		c0-0.4,0.1-0.8,0.1-1.2c-0.6,0.2-1.4,0.1-1.9-0.4"/>
	<path class="st0" d="M278.7,115.1c-0.4-1.3-0.5-2.6-0.3-3.9c0.1-0.8,0.4-1.6,1.2-1.8c0.6-0.1,1.3,0.3,1.5,0.9
		c0.3,0.6,0.2,1.3,0.2,1.9c-0.1,1-0.1,2.1-0.2,3.1c-0.1-0.1-0.1-0.3-0.2-0.4"/>
	<path class="st0" d="M239.9,106c2.2-2.1,3.7-4.8,5.1-7.5c2.9-5.4,6-10.8,9.9-15.6c3.9-4.8,8.6-9,14.2-11.6
		c-1.9-0.1-3.8-0.3-5.7-0.5c-3.2,1.7-4.8,5.2-7.5,7.6c-1.2,1.1-2.7,2-4,3c-2.9,2.2-5.1,5.2-7.3,8.1c-0.1,0.2-0.3,0.4-0.1,0.6
		c0.1,0.2,0.4-0.2,0.2-0.2"/>
	<path class="st0" d="M244.7,104.8c7.7-1.7,15.9-0.9,23,2.2c-0.1-8.9-1.5-17.9-3.9-26.5"/>
	<path class="st0" d="M266.2,76.1c2.2,2,3.7,4.7,4.6,7.5c1,2.8,1.5,5.7,2,8.6c-0.3-2-0.1-4.1,0.4-6.1c1.1-4,3.8-7.3,6.9-10.1
		c-1.6-0.4-3.1-0.8-4.7-1.2c-1-0.3-2.1-0.5-2.9,0.2c-1.1,0.9-0.9,3.1-2.2,3.5"/>
	<path class="st0" d="M234,76.9c3.1-1.5,6.3-2.7,9.6-3.8c0.7-0.2,1.4-0.4,2.2-0.4c3.5,0.2,4.6,5.6,8,6.1c0.2-4.3-4-8.3-8.3-7.9
		c-3,0.3-5.7,2.3-8.7,2.1c-0.3-2.6-0.6-5.1-0.9-7.7c0.3-0.3,0.8-0.3,1.2,0c-2.5-1.3-3.8-4.2-3.6-7c0.2-2.8,1.7-5.4,3.7-7.3
		c1.3-1.3,3-2.4,4.8-2.8c0.9-0.2,1.8-0.2,2.7-0.4c1.1-0.4,2-1.2,3-1.7c1.1-0.6,2.3-0.8,3.6-1.1c2.7-0.5,5.5-1.1,8.3-0.9
		c2.8,0.2,5.6,1.2,7.4,3.4c1.1,1.3,1.8,2.8,3.1,3.9c1.2,0.9,2.7,1.3,3.9,2.1c1.6,1.2,2.4,3.2,2.5,5.2s-0.6,4-1.3,5.8
		c-0.5,1.1-1,2.6-0.1,3.4c0.5-0.6,0.8-1.4,0.9-2.1c-2.1-0.8-4.4,0.1-6.6,0.3c-1.6,0.1-3.3-0.2-4.9-0.4c-7.7-1.1-15.6,0.4-23.3,1.8
		c0-0.8-0.1-1.5-0.1-2.3"/>
	<path class="st0" d="M280.2,76.8c-0.5,0.1-0.1-0.8,0.4-0.9c3.8-0.9,8.2-1.7,11.4,0.5c0.9,0.6,1.6,1.4,2.5,2
		c1.7,1.1,3.8,1.3,5.7,1.6c7.4,1.1,14.6,3,21.5,5.9c0.8,0.3,1.7,0.7,2.5,0.8c0.9,0.1,1.9,0,2.8-0.1c1.6-0.2,3.3-0.4,4.9-0.6
		c3.6-0.5,7.4-0.9,10.7,0.7c1.9,0.9,3.8,2.5,5.7,1.9c0.9-0.3,1.6-1,2.5-1.2c1.6-0.2,2.9,1.5,2.9,3c0,1.6-1,3-1.9,4.3
		c3.1,1.9,7,0.2,10.6-0.1c5-0.3,9.7,2.5,14.7,3.3c2.4,0.4,4.8,0.3,7.1,0.9c2.4,0.7,4.5,2.2,6.9,2.9c2.2,0.7,4.5,0.7,6.8,0.9
		c2.3,0.2,4.5,0.5,6.7,1c0.9,0.2,1.8,0.4,2.5,1c0.8,0.6,1.2,1.6,1.5,2.5c1,2.4,1.9,4.8,2.9,7.1c-2.1-0.3-4.2,0.5-5.7,1.9
		c-2,0.3-4.8,0.7-6.8,0.4c-2.1-0.4-4.3-2.2-6.4-3c-4.7-1.8-9.8-2.5-14.8-2.2c-2.8,0.2-5.7,0.8-8.4,0.1c-1.3-0.3-2.5-0.8-3.8-1.2
		c-2.1-0.6-4.1-0.5-6.1-1.4c-1.1-0.5-5.9-2.5-6.9-1.1c1-1.3,1.9-2.6,2.9-3.9c0.3-0.4,0.6-0.9,0.7-1.4c0.2-1.8-2.7-2.3-3.6-3.9"/>
	<path class="st0" d="M284.8,112.5c0.9,1.5,2.9,1.8,4.6,2.3c2,0.6,3.8,1.6,5.3,3.1c0.4,0.4,0.8,0.9,0.9,1.5c0.1,0.6-0.2,1.2-0.4,1.7
		c-0.8,1.9-1.1,4-1,6c-2.5-4-6.1-7.6-10.7-8.8c0.8,0.1,1.7,0.1,2.5,0.2"/>
	<path class="st0" d="M301.8,108.7c0.2-0.1,0.2-0.4,0.1-0.5c-1.5,1.2-2.5,3-2.8,4.9c-0.1,0.4-0.1,0.7,0,1.1c0.1,0.3,0.5,0.6,0.9,0.5
		"/>
	<path class="st0" d="M295.6,118.6c-0.2,0.2-0.4,0.4-0.5,0.5c1-0.9,2.4-1.4,3.5-2.2s2-2.2,1.5-3.5c-0.6-1.7-0.1-2.9,1.1-4.3
		c0.6-0.7,1.3-1.2,2.1-1.7c1-0.7,2-1.4,3.2-1.8c3.8-1.2,7.8,1.6,11.8,1.1c2.2-0.3,4.6-1.6,6.6-0.5c0.3,0.2,0.6,0.5,1,0.6
		c1,0.3,1.9-0.6,2.5-1.4c2.9,2.5,7,3.5,10.7,2.6c1.3-0.3,3-0.7,3.8,0.4c0.8,1,0.2,2.8,1.3,3.5c0.3,0.2,0.7,0.2,1.1,0.2
		c2.8-0.1,5.2-1.9,7.3-3.7"/>
	<path class="st0" d="M207.3,145.1c-1.1,1.6-0.6,4,1.1,5c0.3,0.2,0.7,0.4,0.9,0.7c0.2,0.5-0.2,1-0.5,1.4c-4.5,5.1-9.7,9.9-11.7,16.4
		c-0.1,0.4-0.2,0.8-0.5,1.1c-0.4,0.5-0.9,0.7-1.4,1c-1.6,0.9-2.7,2.6-2.8,4.5c0.6,0,1.3,0,1.9,0.1c-1.5,2.4-3.8,4.1-5.4,6.3
		c-1.1,1.5-1.9,3.1-2.6,4.8c-3.7,7.8-7.3,15.6-8.9,24.1c-0.4,1.9-0.6,3.9-1.2,5.8c-0.3,0.8-0.6,1.7-0.9,2.5
		c-1.6,3.8-3.7,7.4-6.1,10.7c-1.4,2-3.6,4-5.9,3.3c-3.5,1.4-6,5.5-7.7,8.8c-6.4,12.3-11.7,25.2-15.8,38.4c-0.4,1.1-0.7,2.3-1.5,3.2
		c-1.1,1.3-2.8,1.9-4.1,2.9c-2.6,2.1-3.5,5.6-3.9,8.9c-0.1,0.8-0.2,1.7,0.3,2.4c0.4,0.6,1.1,1,1.7,1.2c3.6,1.2,7.9-0.6,9.6-3.9
		c0.6-1.1,0.9-2.4,1.8-3.3c0.6-0.5,1.4-0.8,2.2-1c1.6-0.5,3.3-1,5-0.8s3.3,1.4,3.5,3.1c0.1,0.8-0.1,1.8,0.5,2.4c0.8,0.9,2.3,0,3.5,0
		c2.9,0,4.3,5,7.1,4.5c1.5-0.3,2.2-2.1,2.1-3.7s-0.9-2.9-1.3-4.5c-1-4.4,1.9-8.7,4.6-12.3c4.1-5.5,8.2-11.1,13.9-14.9
		c1-0.7,2.1-1.3,2.5-2.5c0.3-0.8,0.1-1.7,0.4-2.6c0.2-0.9,0.8-1.6,1.4-2.3c13.6-15.8,31.3-28.5,40.5-47.2c1.5-3.1,2.9-6.4,5.7-8.4
		c-2.8,6.5-4.9,13.2-6.5,20.1c-0.9,3.9-1.5,7.8-3.3,11.4c-1.6,3.4-4.1,6.3-6.2,9.4c-3.6,5.3-6.1,11.6-5.3,18
		c0.2,1.6,0.6,3.2,0.4,4.8c-0.5,4.1-4.5,6.8-6.7,10.3c-2,3.2-2.2,7.4-0.8,10.9c0.7,1.6,1.7,3,2.2,4.7c0.7,2.1,0.5,4.3,0.5,6.5
		c0,5.3,1.3,10.5,3.7,15.2c3.4-2.9,6.5-6.1,9.2-9.6c2.3,0.2,4.6-0.8,7-1.1c5.8-0.7,11.6,3.9,12.4,9.6c0.3,2.1-0.2,4.5-1.8,5.9
		c-2.1,1.8-5.3,1.2-8.1,1c-4.6-0.4-9.4,0.6-13.5,2.6c0.9,0.8,2.4,0.8,3.4,0c-1.9-1.1-1.7-4.2-0.1-5.7c1.7-1.5,4.1-1.6,6.3-1.4
		c3,0.3,6,1.2,8.7,2.7c0.3,0.2,0.7,0.4,0.8,0.7c0.2,0.4,0.1,0.8,0,1.2c-1.1,3.6-6,3.9-9.7,3.6c4-0.5,8-0.9,12-1.4
		c1.9-0.2,4.2-0.8,4.6-2.7c0.2-0.9-0.2-1.8-0.5-2.7c-1.7-4.3-3.2-9-2.3-13.5c0.4-2.2,1.5-4.3,2.3-6.4c2-4.9,3.4-10,4.7-15.2
		c1.8-6.9,3.6-13.8,4.8-20.9c1.1-7,1.6-14.3,4.4-20.9c1.2-2.9,1.9-5.2,2.7-8.1c0.6-2.2,0.7-1.4,2.5-1.8c1.6-0.4,2.8-1.4,3.4-2.9
		c0.7-1.7,0.7-3.5,0.7-5.3c0.1-1.8,0.3-3.7,1.4-5.1c0.5-0.7,1.1-1.2,1.7-1.8c2.3-2.4,3.4-5.7,4.4-8.9c1.3-4,2.5-8.1,3.8-12.1
		c0.4-1.3,0.8-2.7,1.6-3.8c0.7-1,1.6-1.8,2.3-2.7c1.2-1.7,1.9-3.8,1.7-5.8c0.4,1.8,1.2,3.4,2.5,4.7c0.3,0.3,0.7,0.7,1.1,0.7
		c0.4,0,0.7-0.1,1.1-0.3c2.6-1.2,5.3-2.4,7.9-3.6c-1.4-1.7-3.3-3.1-5.4-3.8c-0.6-0.2-1.3-0.5-1.4-1.2c-0.1-0.4,0.1-0.7,0.1-1.1
		c-0.1-0.6-0.7-1-1.3-1c-0.6,0-1.1,0.4-1.6,0.8c-1.4,1.2-2.3,2.7-2.8,4.5c1.5-3.9,3.3-7.6,5.5-11.1c1,1.1,2,2.2,3.1,3.3
		c-4.1-2.3-6.5-7.2-5.8-11.8c0.3-2,1.1-4,0.5-6c-0.3-1-1-1.9-1.7-2.7c-0.6-0.7-1.2-1.4-2-1.8c-0.8-0.4-1.8-0.5-2.5,0.1
		c-0.4,0.3-0.6,0.8-1,1.1c-1.1,1-2.9,0.3-3.6-1c-0.7-1.3-0.4-2.8-0.1-4.2c0.1,0.6,1.2,0.7,1.5,0.1"/>
	<path class="st0" d="M131.2,301.1c0.2,0,0.3,0,0.5-0.1c-0.6,1.7-1.6,3.3-2.9,4.6c-0.4,0.4-0.8,0.8-1.1,1.2
		c-0.2,0.2-0.3,0.5-0.5,0.7c-0.2,0.2-0.4,0.3-0.7,0.4c-5,2.1-10.8,1.6-15.7,4c0.9,1.4,2.7,2.2,4.3,1.9c8.5-1.2,16.1-2.1,24.7-1.1
		c1.1,0.1,2.5,0.5,2.7,1.7c0.1,0.5-0.1,1,0.1,1.4c0.3,0.6,1,0.6,1.7,0.6c6.8-0.2,14.2-0.6,19.2-5.2c-1.7-0.8-3.8,0-5.6,0.6
		c-3,1-6.2,1.6-9.4,1.8c-1,0.1-2.3,0.2-2.7,1.1c0.3,0.6,1.1,0.5,1.7,0.3c4.5-1.2,8.9-2.7,13.1-4.6c0.7-0.3,1.5-0.8,1.6-1.6
		c0.1-0.5-0.2-0.9-0.4-1.3c-0.7-1-1.8-1.8-2.4-2.8c-0.6-1.1-0.6-2.7,0.5-3.3"/>
	<path class="st0" d="M398.1,103.2c7.1-7.1,11.3-16.5,17.1-24.7c0.8-1.2,2.3-2.4,3.4-1.5c0.3,1.2-0.4,2.3-1.1,3.3
		c-5,7.6-10,15.2-15.1,22.7"/>
	<path class="st0" d="M391.2,111.8c-0.8,1.8-2.1,3.3-3.3,4.9c-5.7,7.1-10.9,14.6-15.6,22.5c0.7,0.8,1.8,1.3,2.8,1.4
		c2.4-4.5,5.9-8.3,8.4-12.7c1.8-3,3.2-6.3,5.3-9.1c1.1-1.5,2.4-2.9,3.9-4"/>
	<path class="st0" d="M18.1,371.2c-1.7-37.6-3.4-75.3-2.6-113c1-48.8,6-97.3,11.1-145.9C30.2,77.6,27,44.9,26.8,10"/>
	<path class="st0" d="M363.3,378.9c-11.5-30.7-18.5-62.8-25.5-94.8c-6.3-29-12.6-58-18.9-87c-1.2-5.5-2.4-11.1-2.9-16.7
		c-0.4-4.4-0.4-8.8-1.3-13.1c-0.8-4.1-2.4-7.9-3.8-11.8c-5.1-14-8.2-28.7-9.3-43.6"/>
	<path class="st0" d="M291.3,74.4c-0.3-0.4-0.5,0.7,0,0.6c0.5-0.1,0.6-0.7,0.6-1.2c-0.1-4.8-1.2-9.6-2.5-14.2
		c-3.5-13.4-7.7-26.6-12.6-39.6"/>
	<path class="st0" d="M28.8,308.9c-0.8-9.6-1.6-19.2-2.5-28.9c-0.1-1.4-0.1-3.1,1-3.9c0.6-0.4,1.5-0.5,2.2-0.4
		c3.6,0.2,6.8,2,10.3,2.8c5.7,1.4,11.8,0.4,17.7,0c17.2-1.3,34.3,2.5,51.5,3.2c7.6,0.3,15.2,0.1,22.8-0.7c2.4-0.3,5.3-1.1,5.6-3.4"
		/>
	<path class="st0" d="M188.7,285.2c0.8,0.1,1.6,0.2,2.4,0.3c-7.3,3.4-16.5,2.4-22.9-2.6c0.3-0.4,1.1-0.3,1.3,0.2
		c11.2,2.5,22.5,2.9,34,2.5c0.6,0,1.5-0.3,1.4-0.9"/>
	<path class="st0" d="M245.9,288.2c-0.5,1.2,1.3,1.9,2.5,1.9c22.6,0.4,45.2,0.7,67.8,1c0.9,0,2.2,0.6,1.8,1.4"/>
	<path class="st0" d="M29,311c26.2,1.8,52.5,2.8,78.7,3.2c1,0,2.3-0.2,2.5-1.2"/>
	<path class="st0" d="M162.8,315.1c0.5,2.1,3.3,2.6,5.5,2.5c7.8-0.3,15.6-2.3,23.2-0.5c3.1,0.7,6.1,2.1,9.2,2.6
		c5.7,0.8,11.4-1.3,17.1-1.3"/>
	<path class="st0" d="M245.2,320.8c14.9,2.5,30,3.8,45.1,3.9c9.5,0.1,19.2-0.3,28.4,2.3c-2.7-11-5.8-21.9-9.3-32.6"/>
	<path class="st0" d="M43.2,179.2c-0.5,1.1-0.9,2.2-1.4,3.4c7.3,2.4,15.2-0.5,22.8-1.6c6.6-1,13.4-0.5,20.1,0
		c10.9,0.8,21.7,1.9,32.6,2.9c12.6,1.2,25.3,2.4,37.9,3.7c4.2,0.4,8.4,0.8,12.6,0.7c3-0.1,6-0.4,8.9,0.4c2.9,0.8,5.6,3.1,5.8,6.1
		c-8.1-2.6-16.9-1.1-25.5-1.3c-8.1-0.2-16.1-1.9-24.1-3.2c-16.8-2.6-33.9-3.1-50.9-3.6c-6-0.2-12.1-0.3-18,0.6
		c-6,0.9-12.3,3-17.9,0.7c-3.6-1.4-6.4-6.1-3.9-9c-1.6,1.2-2.4,3.2-3.9,4.4s-4.4,1.3-5-0.5c1.3-2.1,2.7-4.2,4-6.3
		c-3.1,0-4.4,4-4.7,7.1c-2.3,26.7,0.8,53.6-0.6,80.4c0.5,0.7,1.8,0.4,2-0.4c-1,1-2.3,1.6-2,3c14.6-1.7,29.2,2.1,43.8,1.9
		c9.9-0.1,19.9-2.1,29.8-1.3c11.4,1,22.3,5.7,33.8,5.9c-6.2-3.9-13.9-4.7-21.2-4.2c-7.3,0.5-14.5,2.1-21.9,2.5
		c-12.2,0.6-24.3-2.4-36.5-3.5c-7-0.6-14.1-0.6-21.2,0"/>
	<path class="st0" d="M176.2,276.8c9.6,0,19.2,0,28.8,0.1c-5.1-1.7-10.4-3.4-15.7-3.2c-5,0.2-9.9,2.1-15,1.9
		c0.6,0.3,1.3,0.5,1.9,0.8"/>
	<path class="st0" d="M249.8,277.7c1.4,0.1,2.9,0.1,4.3,0.2c-1.4,1.5-3.5,2.4-5.6,2.2c21.4,2.6,42.8,5.3,64.3,4.6
		c-0.1-2.4-2.7-3.9-5.1-3.9c-2.4,0.1-4.5,1.2-6.8,2.1c-5.3,2-11.2,2.1-16.6,0.3c6.5-0.5,12.9-1,19.4-1.6c0.9-0.1,1.9-0.2,2.5-0.8
		c0.8-0.7,0.9-1.8,1-2.8c0.6-9.5-3.5-18.6-6.8-27.5c-5.4-15-8.5-30.9-8.9-46.9c-4.7-2.3-9.3-4.6-14-6.9c8.2,1.5,16.7,1.8,25,1.1
		c-0.2-1.1-0.1-2.3,0.4-3.3c-5.6-3.5-12.7-4.5-19-2.8c-0.3-1.9,2.2-2.8,4.1-2.9c1.9-0.1,4.3-0.7,4.4-2.6"/>
	<path class="st0" d="M307.7,202.9c-0.5,6.5,2.3,12.8,4.3,19c2.7,8.7,3.8,17.8,5.1,26.9c3.6,25,9,49.8,16.3,74.1"/>
	<path class="st0" d="M36.9,174.2c0.3,1.1-1.2,2.1-2.2,1.5c0.5-7.6,1-15.2,1.5-22.7"/>
	<path class="st0" d="M36.9,136.4c-0.1-21,0.8-42,2.6-62.9c9.9,0.9,19.9,1.7,29.8,1.3c5.6-0.2,11.2-0.8,16.8-0.6
		c5.2,0.1,10.3,0.9,15.5,1.7c21.5,3.3,43.1,6.7,64.6,10c4.7,0.7,9.6,1.5,14.3,0.6c-1-0.4-2-0.9-3-1.3"/>
	<path class="st0" d="M34,73.4c-0.9-2.2-1.1-4.7-0.7-7c26.1,0.3,52.2,2,78.1,5.1c11.4,1.4,22.7,3,34.1,4.1
		c9.4,0.9,18.9,1.5,28.3,2.1c7.2,0.4,14.5,0.9,21.7,1.3c-1.1-0.3-2.3-0.6-3.4-0.9"/>
	<path class="st0" d="M27,60.6c21.8,0.6,43.7,1.3,65.5,1.9c6.4,0.2,12.9,0.4,19.2,1.4c5.5,0.9,11,2.5,16.5,3.3
		c6.4,0.9,12.9,0.9,19.4,1.4c6.6,0.5,13.1,1.7,19.7,2.7c16.3,2.5,32.8,4.2,49.2,5.8"/>
	<path class="st0" d="M20.6,316.1c17.7,17.7,33.8,36.9,48.3,57.2c-0.1-1.1-0.2-2.2-0.3-3.4"/>
	<path class="st0" d="M73.6,315c-0.2,2,1,3.9,2.1,5.6c10.5,15.9,19.2,33.1,25.9,51c-0.2-0.7-0.4-1.4-0.7-2"/>
	<path class="st0" d="M119.3,318.8c-1.9,18.8-0.8,37.9,3.1,56.3c0.1-0.6,0.1-1.2,0.2-1.8"/>
	<path class="st0" d="M143.1,317.7c3.5,19.9,5.2,40.1,5,60.2c0-0.7-0.1-1.4-0.1-2.1"/>
	<path class="st0" d="M251.9,326.8c5.8,17.9-1.1,37.7,3.1,56c-0.1-1-0.2-1.9-0.3-2.9"/>
	<path class="st0" d="M322.3,331.8c-8.4,11.1-16.8,22.2-25.2,33.2c-1.9,2.6-3.9,5.3-4.5,8.4c-0.4,2.3-0.4,5.1-2.4,6.2
		c0.7-0.6,1.4-1.1,2-1.7"/>
	<path class="st0" d="M340,340.4c-0.9,6.5-5.5,11.8-9.5,17.2c-6,8.2-10.7,17.4-13.7,27.1c0.1-0.5,0.2-0.9,0.2-1.4"/>
	<path class="st0" d="M20.3,323.4c-0.2-0.4-0.8-0.6-1.2-0.4c-0.1,0.8,1.1,0.9,1.8,0.8c2.5-0.6,5.1-1.2,7.6-1.8"/>
	<path class="st0" d="M19.9,331.9c-0.2-0.1-0.4,0.3-0.2,0.5s0.5,0.2,0.7,0.2c3.9-0.2,7.8-0.4,11.6-0.5c0,0.7-0.4,1.3-0.9,1.8"/>
	<path class="st0" d="M19.5,340.8c4.3,0.6,8.6,0.6,12.9,0.1"/>
	<path class="st0" d="M21.1,350.2c4.7-0.3,9.4-0.3,14.1-0.2"/>
	<path class="st0" d="M22,360.5c4.6-1.8,9.6-2.5,14.5-2.1"/>
	<path class="st0" d="M22.1,372c7.1-2.4,14.1-4.9,21-7.6"/>
	<path class="st0" d="M31.4,315.8c0-0.5-0.9-0.3-1,0.1c-0.1,0.5,0.2,0.9,0.5,1.2c15.5,17.7,30.9,35.4,46.4,53.1
		c-0.5-0.8-0.9-1.6-1.4-2.4"/>
	<path class="st0" d="M42,318.2c1.3,2.6,3.4,4.6,5.5,6.6c10.7,10.5,20.1,22.4,27.8,35.2c0.2,0.4,0.5,0.8,0.9,0.9s1-0.2,0.9-0.6
		c-0.1-0.4-0.9-0.2-0.7,0.2"/>
	<path class="st0" d="M54.2,315.1c0.7,3.2,2.4,6.1,4.2,8.9c7.9,13,15.8,26,23.7,39"/>
	<path class="st0" d="M65.5,316.8c8.2,16.1,16.3,32.2,24.5,48.2"/>
	<path class="st0" d="M81.2,315.4c3.1,6.1,6.3,12.1,9.4,18.2c5.4,10.4,10.8,20.9,13.4,32.3"/>
	<path class="st0" d="M92.5,313c0.3,6.7,3.1,13,5.6,19.2c5.2,13.1,8.8,26.8,10.8,40.8c-0.3-1.3-0.6-2.5-0.9-3.8"/>
	<path class="st0" d="M100.1,317.6c0.2,1.7,0.6,3.4,0.9,5.1c3.4,15.2,6.8,30.4,10.2,45.6"/>
	<path class="st0" d="M109,328.4c2,11.2,4.2,22.4,6.6,33.6"/>
	<path class="st0" d="M259.3,326.7c1,14,1,28-0.1,42"/>
	<path class="st0" d="M269.5,329.2c-0.9,16.9-1.7,33.8-2.6,50.7"/>
	<path class="st0" d="M277.9,332.1c-2.1,15.4-4,30.8-5.8,46.2c0-0.5,0.1-1.1,0.1-1.6"/>
	<path class="st0" d="M286.2,334.2c-3.3,15.2-6.6,30.3-9.9,45.5c-0.1-1.1-0.2-2.3-0.3-3.4"/>
	<path class="st0" d="M295.2,336.9c-5.4,14.1-10.8,28.3-16.2,42.4c0.6-2,1.3-4,1.9-6"/>
	<path class="st0" d="M302.6,337.6c-4.7,13.4-10.5,26.4-17.4,38.8c0.9-1.4,1.8-2.9,2.7-4.3"/>
	<path class="st0" d="M329.2,332.5c-10.6,15.3-19.5,31.7-26.5,48.9"/>
	<path class="st0" d="M330.7,338.5c-5.4,15.8-12.9,31-22.3,44.8c0.1-0.4,0.3-0.9,0.4-1.3"/>
	<path class="st0" d="M340.8,349.2c0.8-0.4,1.7-0.8,2.5-1.2"/>
	<path class="st0" d="M335.8,358.4c3.4-1.9,7-3.5,10.7-4.8"/>
	<path class="st0" d="M335.3,364.9c2.5-1.1,5-2.3,7.4-3.4c0.7-0.3,1.9-0.2,1.7,0.5"/>
	<path class="st0" d="M332.1,372.6c3.8-1.5,7.9-2.3,12-2.2"/>
	<path class="st0" d="M106.4,62.8c-0.3,0.3-0.5,0.7-0.4,1.2c1-5.2,0-10.5-0.6-15.8c-0.6-5.3-0.7-10.6-0.8-15.9
		c-0.1-3.9-0.1-7.9-0.2-11.8"/>
	<path class="st0" d="M31.5,59.1C49.3,49.9,58.3,29.2,75,18.2"/>
	<path class="st0" d="M45.5,58.6c3.5-3.5,6.6-7.4,9.7-11.3c8.7-11.1,17.4-22.1,26.1-33.2c-0.2,1.3-0.4,2.5-0.7,3.8"/>
	<path class="st0" d="M55.2,59.5c0.7,0.9,2,0,2.7-0.8c10.2-12.8,16-29,27.9-40.1"/>
	<path class="st0" d="M68.9,62.1c7.6-15.2,15.3-30.4,23.2-45.5c0.4-0.8,1.8-1.5,1.9-0.6"/>
	<path class="st0" d="M83,59.4c4.2-12.1,7.6-24.6,9.9-37.2c-0.1,0.9-0.2,1.8-0.3,2.7"/>
	<path class="st0" d="M94.7,55.3c2-12.2,3.5-24.4,4.6-36.7c0.2-2,0.3-4.1-0.8-5.8c-0.9,1.1-1.4,2.4-1.6,3.8"/>
	<path class="st0" d="M30.7,48.5c2.6,0.2,5.3-0.1,7.9-0.8"/>
	<path class="st0" d="M30.3,41.9c3.5,0.4,7,0.2,10.4-0.7"/>
	<path class="st0" d="M33.2,36.9c5.2,1,10.8-0.7,14.6-4.3"/>
	<path class="st0" d="M31.1,28.2c5.2,0.2,10.5-0.6,15.4-2.2"/>
	<path class="st0" d="M32,19.2c5.9,0.2,11.8-0.7,17.5-2.5"/>
	<path class="st0" d="M34,14.1c8.3-1,16.6-1.9,24.9-2.9"/>
	<path class="st0" d="M209.2,73.1c-3.8-12.2-5.6-25-5.2-37.8c0.1-5,0.6-10.2-0.6-15c-0.3-1.1-0.6-2.3,0-3.2"/>
	<path class="st0" d="M209.8,36.2c-0.8-2.1-1.4-4.2-2-6.3c4.8,12.1,5.7,25.3,9.3,37.7c0.2,0.7,1,1.6,1.5,1.1"/>
	<path class="st0" d="M211.7,21.7c3.7,15.2,8.6,30.1,14.7,44.5c0-1,0-2,0-3"/>
	<path class="st0" d="M214.4,21.4c4.7,12.1,9.6,24.1,14.7,36.1c0.1-0.6,0.2-1.2,0.3-1.7"/>
	<path class="st0" d="M220.7,25.4c4.1,7.2,8.2,14.5,12.3,21.7"/>
	<path class="st0" d="M224.8,23.3c4.3,8.1,9.6,15.7,15.8,22.5"/>
	<path class="st0" d="M231.1,26.6c3.8,5.8,8.2,11.1,13.2,15.9"/>
	<path class="st0" d="M236.8,22.9c2.3,4.9,5.2,9.6,8.6,13.8c1.2,1.6,2.8,3.2,4.8,3.2"/>
	<path class="st0" d="M246.1,24.5c2.5,2.9,5.6,5.2,9,6.8"/>
	<path class="st0" d="M263.1,39.5c3.7-0.1,7.3-0.7,10.8-1.7"/>
	<path class="st0" d="M263.9,43.2c3,0.6,6.1,0.9,9.1,0.8"/>
	<path class="st0" d="M263.9,29.5c1.9-1.1,3.9-2.2,5.8-3.3"/>
</g>
<path class="st0" d="M291.7,170.7c-0.1-0.4-0.8-0.3-1,0.1c-0.2,0.4,0,0.9,0.2,1.3c1.2,0.6,2.6-0.2,3.3-1.4c0.6-1.1,0.6-2.5,0.6-3.8
	c-0.2-5.2-0.9-10.3-2.2-15.4c-0.3-1.1-0.6-2.3-0.6-3.5c0-0.9,0.2-1.8,0.3-2.7c1.3-6.1,3-12.5,1.4-18.5"/>
<path class="st0" d="M300.2,186c-0.7,0.1,0,1.1,0.7,1.3c1.4,0.3,2.8,0.6,4.2,1c-1-8.8-3.2-17.5-5.4-26.1c-1.4-5.5-2.8-11.1-4.2-16.6
	"/>
<path class="st0" d="M27.7,275.4c1.3-41.1,2.6-82.3,3.8-123.4"/>
<path class="st0" d="M31.2,137c-1.1-3.6,0.1-8.6-0.1-12.5c-0.2-4.4-0.2-8.4,0.2-12.8c1.1-12.1,2-24.1,2.8-36.2"/>
<path class="st0" d="M317.8,327c5.1,2.2,11.4-1.3,16.5,0.9c0.7-2.7-0.4-5.7-2.5-7.4"/>
<path class="st0" d="M411.3,171.8c0.6,0.5,1.4-0.9,0.7-1.2c-0.5,0.3-0.8,0.9-0.8,1.4"/>
<path class="st0" d="M442,173.5c-0.4,0.1-0.4,0.8,0,1c0.4-0.1,0.6-0.6,0.4-1"/>
<path class="st0" d="M461.1,232.8c0,0.9,0.5,1.9,1.3,2.4c0.7-1.5,0.1-3.5-1.3-4.5C460.4,231.1,460.4,232.3,461.1,232.8"/>
<path class="st0" d="M406.7,150c0.4-0.1,0.6-0.7,0.3-1c-0.3,0.3-0.6,0.6-0.9,0.9"/>
</svg>
