<?xml version="1.0" encoding="utf-8"?>
<!-- Generator: Adobe Illustrator 19.0.0, SVG Export Plug-In . SVG Version: 6.00 Build 0)  -->
<svg version="1.1" id="Layer_1" xmlns="http://www.w3.org/2000/svg" xmlns:xlink="http://www.w3.org/1999/xlink" x="0px" y="0px"
	 viewBox="0 0 328.5 439.3" style="enable-background:new 0 0 328.5 439.3;" xml:space="preserve">
<style type="text/css">
	.st0{fill:none;stroke:#070707;stroke-linecap:round;stroke-linejoin:round;stroke-miterlimit:10;}
</style>
<g id="XMLID_99_">
	<path id="XMLID_2_" class="st0" d="M115.8,257.2c-0.7-2.4-1.4-4.8-2.2-7.3c-0.1-0.2-0.1-0.4,0-0.6c0.1-0.2,0.2-0.3,0.3-0.4
		c0.5-0.4,1.1-0.8,1.6-1.2c3.4,2.1,7.1,3.9,11,5.2c0.1,1,0.4,2,0.7,2.9c-2,1-3.9,2-5.9,3c-0.4,0.2-0.7,0.4-1.1,0.3
		c-0.3,0-0.6-0.1-0.8-0.2c-1.1-0.5-2.3-1-3.4-1.5c-0.4-0.2-0.8-0.7-0.5-0.9"/>
	<path id="XMLID_3_" class="st0" d="M144.5,254.1c0.1,0.2-0.4,0.3-0.5,0.1c-0.1-0.2,0.1-0.5,0.2-0.7c1.7-2.4,3.3-4.7,5-7.1
		c0.3-0.4,0.6-0.8,1.1-0.8c0.7,0,1.4,0.9,2.1,0.6c0.7-0.4,0.1-1.5,0.2-2.3c0-0.4,0.3-0.8,0.6-1.2c1.1-1.4,2.2-2.9,3.3-4.3
		c0.6-0.8,1.3-1.7,2.3-1.7c-0.8-0.7-0.4-2.1,0.6-2.4c0.5-0.1,1,0,1.5,0c0.9,0,1.6-0.7,1.9-1.5c0.2-0.8-0.1-1.8-0.8-2.3
		c1.2-1.1,2.3-2.2,3.5-3.3c-0.1,1,0.9,1.9,1.8,1.8c1-0.2,1.5-1.5,1-2.3c-0.5-0.8-1.9-0.9-2.5-0.2c2.9-3.9,5.8-7.8,8.6-11.8
		c0.7-1,1.5-2,2.6-2.3c1.1-0.4,2.7,0.4,2.6,1.5c-0.9,0.9-2.7,0.5-3.2-0.7c0.1,1,1,1.9,2,2.1c-2.3,3.2-4.5,6.3-6.8,9.5
		c-1.1-0.6-2-1.7-2.4-3c0.9-0.2,1.8-0.3,2.5,0.3c0.9,0.8,0.4,2.2-0.2,3.3c-2.7,4.9-6.1,9.4-10.2,13.3c-0.5-0.9-0.3-2.2,0.5-2.9
		c0.5,0.1,0.4,0.9,0.1,1.3c-2.2,3.6-4.7,7.1-7.5,10.3c-0.8-0.5-0.7-1.9,0.2-2.2c0.2,1.7-1.5,2.9-2.6,4.2c-0.9,1.1-1.4,2.4-2.2,3.6
		c-0.8,1.2-2,2.2-3.4,2.3c-0.2-0.6-0.3-1.4,0.2-1.9s1.5,0,1.2,0.6c-0.1,0.2-0.3,0.3-0.5,0.3c-0.6,0.3-1.2,0.5-1.8,0.7
		c-0.3,0.1-0.7,0.2-1,0.1c-0.3-0.1-0.5-0.5-0.3-0.8"/>
	<path id="XMLID_4_" class="st0" d="M158.9,217.1c2.1-2.4,4-5,5.6-7.7c0.4-0.6,0.7-1.2,1.3-1.7c0.6-0.4,1.4-0.5,2,0
		c-3.5,5.2-7.5,10.1-11.9,14.6c0.1-0.9,0.1-1.8,0.2-2.7c0.8-0.2,1.5-1,1.7-1.8c-0.7-0.4-1.6-0.2-2.2,0.4c-0.6,0.5-1,1.3-1.3,2
		c-0.5,1.1-1.1,2.2-1.6,3.4c1.1,0.3,2.3-0.6,2.4-1.7c-1.2,0.1-2.8,0.6-2.7,1.8c0,0.4,0.3,0.7,0.3,1.1c0.1,1-0.9,1.7-1.8,2.2
		c-0.9,0.5-1.7,1.7-1,2.4c0.5-0.3,1.1-0.7,1.2-1.3s-0.2-1.3-0.8-1.3c-0.4,0-0.8,0.4-1.1,0.7c-1,1.3-2,2.6-3,3.8
		c-0.5,0.6-0.8,1.8,0,2c0.6-0.5,1.1-1.2,1.3-2c0.1-0.3,0.1-0.7,0-1c-0.3-0.6-1.2-0.5-1.7-0.1c-0.5,0.5-0.7,1.2-0.8,1.8
		c-0.7,2.5-1.9,4.8-3.5,6.8c0.7-0.3,1.4-0.8,1.6-1.6c0.2-0.8-0.4-1.7-1.2-1.6c-1,0.1-1.2,1.3-1.4,2.3c-0.4,2-1.4,3.8-2.8,5.1
		c0.4-1.5,1.3-2.9,2.6-3.8c0.1,1.7-0.8,3.4-2.2,4.3c-0.5,0.3-1.2,0.5-1.6,0.1c-0.2-0.2-0.2-0.5-0.2-0.8c0-2.4,2.3-4.1,4.1-5.7
		c2-1.7,3.6-3.9,5.1-6c6.6-8.8,13.1-17.6,20.3-25.9c0.4-0.5,0.8-1,1-1.5c0.2-0.6,0-1.3-0.6-1.6c-0.6-0.3-1.4,0.3-1.2,0.9
		c0.2,0.5,0.9,0.6,1.3,0.3c0.4-0.3,0.6-0.9,0.7-1.4c-0.6-0.6-1.6-0.6-2.4-0.2c-0.7,0.4-1.3,1.1-1.8,1.8c-1.9,2.6-3.9,5.2-5.8,7.8
		c-0.5,0.6-0.5,1.7,0.1,2.2c0.9,0.1,1.7-0.7,1.7-1.6c0-0.9-0.8-1.7-1.7-1.6c-1,0-1.7,1-2.3,1.8c-2.2,3.3-4.5,6.7-6.8,9.9
		c-1.4,2-3,4.1-5.3,5.1c-0.3,0.1-0.6,0.3-0.9,0.5c-0.3,0.3-0.4,0.8-0.5,1.2c-1.2,5.7-4,10.8-6.7,15.8c-1.4,2.6-2.8,5.2-4.1,7.9
		c-1,2.2-1.5,5.3-3.4,6.8c-1.4,1.1-3.3,1.5-5.1,1.5c-3,0-5.9-1.1-8.2-3c-3.4-2.9-2.9-6.7-1.1-10.3c3.3-6.5,7.5-12.8,11.5-19
		c2.8-4.4,5.5-8.8,8.3-13.2"/>
	<path id="XMLID_5_" class="st0" d="M134.2,229.1c-0.8,0-1.6,0.1-2.4,0.1c-0.5,0-1,0-1.5-0.2c-0.6-0.3-0.9-0.9-1.1-1.5
		c-0.5-1.7,0-3.6,0.9-5.2c0.9-1.6,2.1-2.9,3.3-4.3c2.2-2.6,4.1-5.4,6.4-7.9c2.3-2.5,5.2-4.6,8.5-5.3c0.4,1.2-0.5,2.4-1.4,3.4
		c-4.6,5-9.3,10.1-13.9,15.1c-1.3,1.4-2.6,2.9-2.6,4.8c0.7-0.3,1.2-0.9,1.7-1.5c5.2-6.2,10.3-12.3,15.5-18.5
		c0.2-0.2,0.4-0.5,0.7-0.6c0.5-0.1,1,0.4,1.1,0.9c0.1,0.5-0.1,1-0.1,1.6c-0.1,1.2,0.4,2.4,0.4,3.6s-1.2,2.6-2.3,2
		c-0.6,1.9-1.7,3.6-3.2,4.8c-0.2,0.2-0.5,0.4-0.7,0.3c-0.3,0-0.5-0.2-0.7-0.2c-0.5-0.1-0.9,0.4-0.9,0.9c0,0.5,0.2,0.9,0.5,1.4
		c-0.6,0.5-1.6,0.6-2.3,0.3c-0.6,0.8-0.5,2-0.6,3c-0.2,1-1.3,2.1-2.1,1.4c-0.2,0.6-0.1,1.3,0.2,1.8c-0.3,0.7-1.2,1-1.8,0.6
		c-0.6-0.4-0.8-1.3-0.4-1.9"/>
	<path id="XMLID_6_" class="st0" d="M118,199.5c-0.2,1.5-0.3,3.1-0.5,4.6c-0.2,1.6-0.3,3.1-0.2,4.7c0.2,1.5,0.7,3,1.2,4.5
		c2.7-1.3,4.4-4.1,6.9-5.7c1-0.6,2.2-1.2,2.7-2.2c-3.6-0.2-7-1.8-9.4-4.5c-0.3-0.4-0.7-0.8-1.1-0.9"/>
	<path id="XMLID_7_" class="st0" d="M119.5,183.9c-0.1-0.2-0.4-0.1-0.6,0.1c-2,2.1-3.4,4.7-3.9,7.5c-0.3,1.6-0.4,3.3,0.5,4.7
		c0.4,0.7,1,1.2,1.7,1.5c-1.6-3-2.1-6-2.2-9.4"/>
	<path id="XMLID_8_" class="st0" d="M117.9,199.8c-0.8-2.4-1.6-4.9-1.8-7.4c-0.1-2.6,0.5-5.2,2.1-7.2c1.1-1.3,2.7-2.2,4.3-2.8
		c2.3-0.9,4.8-1.2,7.3-1c2.6,0.2,5.1,1,7.5,1.8c4.3,1.4,8.6,2.8,12.5,5.1c0.3,0.6-0.3,1.3-0.9,1.4c-0.6,0.1-1.3-0.1-1.9-0.3
		c-1.8-0.4-3.7,0.3-5.4,1c-0.9,0.3-1.8,0.7-2.1,1.6c-3.7-0.7-7.4-1.4-11.2-2.2c-1.7-0.3-3.7-0.6-4.9,0.6c-1.1,1.1-1,3-0.2,4.3
		c0.8,1.3,2.2,2.1,3.6,2.8c3.1,1.6,6.4,2.8,9.7,3.9c-0.3-0.3-0.7-0.6-1-0.8"/>
	<path id="XMLID_9_" class="st0" d="M124.4,225.8c-4.1-0.3-7.6-3.4-9.5-7.2c-1.8-3.7-2.2-8-2.4-12.1c-0.1-1.4-0.1-2.9,0.3-4.3
		c0.4-1.5,1.1-2.9,1.9-4.2"/>
	<path id="XMLID_10_" class="st0" d="M121.2,213.3c1-0.9,2.1-1.6,3.3-2.1c0.2,1.2-0.8,2.5-2.1,2.6c-0.3-1.5,1-3.1,2.6-3.1
		c-0.2-1.1,0.6-2.3,1.7-2.5c0.6-0.1,1.4,0.1,1.5,0.7c0.1,0.8-1.1,1.1-1.9,1.1c0.6,0.2,1.3,0,1.7-0.5c0.4-0.5,0.4-1.2,0.7-1.8
		c0.2-0.6,0.7-1.2,1.4-1c0.6,0.1,0.5,1.4-0.1,1.1c0.5-0.5,0.6-1.3,0.9-2c0.3-0.7,1-1.3,1.7-1c0.7,0.4,0.1,1.8-0.7,1.5
		c0.7-1.1,1.4-2.2,2.1-3.2c0.3-0.4,0.6-0.8,1-1c0.4-0.2,1-0.1,1.3,0.3c0.2,0.4-0.2,1.1-0.6,0.9c-0.3-0.3,0-0.9,0.4-1.1
		c0.4-0.2,1-0.2,1.3-0.5c0.4-0.3,0.5-0.7,0.8-1.2c0.6-1.1,1.6-1.9,2.8-2.3c0.2-0.1,0.4-0.1,0.7,0c0.6,0.2,0.5,1.1,0,1.6
		c-0.4,0.4-1.1,0.7-1.4,1.2c-0.5-0.3-0.1-1.1,0.3-1.6c0.9-1,1.8-2.1,2.8-3.1c0.3-0.3,0.6-0.7,1-0.6c0.6,0,0.9,0.9,0.6,1.4
		c-0.3,0.5-0.9,0.8-1.5,1c1.5-1.1,2.6-2.6,3.2-4.4c0.2-0.5,0.4-1.2,0.9-1.4c0.3-0.1,0.6-0.1,0.9-0.1c0.4-0.1,0.7-0.2,1-0.4
		c2.6-1.6,5.1-3.5,7.4-5.6c0.6-0.5,1.1-1,1.6-1.7c0.5-0.7,0.8-1.4,1.1-2.1c2.2-4.6,6-8.4,10.2-11.3c4.3-2.9,9-4.9,13.8-6.7
		c-0.7-0.7-1.9-0.5-2.9-0.2c-8.8,2.9-16.9,8.1-23.2,14.8c-1.2,1.2-2.4,2.7-2.1,4.4c0,0.3,0.1,0.7,0,1c-0.1,0.3-0.4,0.5-0.6,0.6
		c-1.5,1-3,2-4.5,3.1"/>
	<path id="XMLID_11_" class="st0" d="M115.6,168.9c-1.1-0.5-1.5-2-1.1-3.1c0.4-1.1,1.5-1.9,2.7-2.3s2.4-0.5,3.6-0.6
		c6.7-0.7,13.3-3.3,19.9-2.2c1.1,0.2,2.2,0.5,3.3,0.4c0.8-0.1,1.5-0.3,2.3-0.5c2.7-0.7,5.5-0.9,8.2-1c-0.8-1-0.5-2.5,0.4-3.4
		s2.2-1.3,3.4-1.6c6-1.4,12.3-1.3,18.5-1.2c1.2,0,2.3,0,3.4,0.4c2.3,0.7,3.9,2.7,5.4,4.7c0.6,0.8,1.2,1.7,1.1,2.7
		c-0.1,1.3-1.5,2.1-2.7,2.7c-2.7-4.3-7.6-6.9-12.6-7.6c-5-0.7-10.2,0.3-14.9,2.1c-1.4,0.5-2.9,1.3-3.3,2.7c-0.6,1.8,0.7,3.5,2,4.9
		c2,2.2,4,4.5,5.9,6.7"/>
	<path id="XMLID_12_" class="st0" d="M177.4,164.4c-0.4-1.1-0.5-2.4-0.1-3.5c0.1-0.3,0.2-0.7,0.5-0.9c0.3-0.3,0.7-0.4,1.1-0.3
		c0.9,0.2,1.2,1.6,0.8,2.4c-0.4,0.9-1.3,1.4-2.2,1.9c0-0.6,0-1.3,0-1.9c-0.6-0.2-1.3,0.2-1.6,0.7c-0.1,0.2-0.1,0.3-0.3,0.5
		c-0.2,0.2-0.4,0.1-0.7,0.1c-2-0.2-4.2-0.3-6-1.3c-0.6-0.3-1.3-0.9-1.3-1.6c0-0.4,0.2-0.8,0.4-1.1c0.9-1.2,2.5-1.6,4-1.9
		c-0.5,0.9-1.1,2-0.5,2.9c0.5,0.7,1.5,0.9,2.3,1c0.9,0.1,1.9,0.2,2.8,0.3c-0.1,0.3-0.2,0.7-0.3,1"/>
	<path id="XMLID_13_" class="st0" d="M114.6,168.1c0.3,0.8,1.3,1.2,2.2,1.1s1.6-0.5,2.4-1c0.2,1,0.6,1.9,1.1,2.7
		c0.9-0.4,1.6-1,2-1.9c0.8,2.1,3.7,3.1,5.6,2c0.2-0.1,0.5-0.3,0.8-0.3c0.3,0,0.6,0.2,0.8,0.3c1.8,0.5,2.3-3.7,4-3.1
		c0.1,0.6,0.2,1.3,0.4,1.9c0.9-0.1,1.9-0.2,2.8-0.3c0.3,0,0.6-0.1,0.8,0c0.3,0.1,0.6,0.3,1,0.4c0.6,0.2,1.2,0.2,1.8,0.2
		c2.2,0,4.5-0.1,6.7-0.1c1,0,2.2-0.1,2.7-1c0.1,1-0.9,1.7-1.6,2.3s-1.2,1.9-0.4,2.5c2.1-1.4,4.6-1.9,7.1-2.4
		c0.4-0.1,0.9-0.2,1.3,0.1c0.3,0.2,0.5,0.5,0.7,0.7c1.1,1.5,3,2.2,4.8,1.7c-0.3,0.2-0.6,0.3-0.9,0.5"/>
	<path id="XMLID_14_" class="st0" d="M115.1,166.7c5.9,0.8,11.5-2.5,17.3-3.1c3.3-0.4,6.7,0.1,10-0.2c0,0.5,0.1,1.1,0.1,1.6"/>
	<path id="XMLID_15_" class="st0" d="M122,170.6c2.1-0.1,4.2-0.5,6.2-1.3c0.9-0.4,2-0.7,2.6-0.1"/>
	<path id="XMLID_16_" class="st0" d="M134.2,169.1c4.4-0.6,8.9-1.2,13.3-1.7c1.1-0.1,2.2-0.3,3-0.9"/>
	<path id="XMLID_17_" class="st0" d="M163.1,170.7c0.1-0.1-0.2,0-0.1,0.1c0.1,0.1,0.2,0.1,0.3,0c0.8-0.3,1.6-0.6,2.5-0.9
		c0.1,0,0.3-0.1,0.3,0s-0.2,0.2-0.1,0.1"/>
	<path id="XMLID_18_" class="st0" d="M209.6,215.4c0-0.1,0.2,0.1,0.1,0.2s-0.3,0-0.3-0.1c-0.5-0.6-0.5-1.6-0.2-2.3
		c0.3-0.8,0.8-1.4,1.3-2.1c1.2-2,1.5-4.3,1.6-6.6c0.1-2.3-0.2-4.6,0-6.9c-0.3-0.2-0.7-0.1-0.9,0.2c-0.2,0.3-0.3,0.6-0.3,0.9
		c-0.6,4.7-1.1,9.5-1.3,14.2c0,0.8-0.1,1.6,0.3,2.4s1.1,1.3,1.9,1.2c0.7-0.2,1.2-0.9,1.5-1.6c1.7-3.6,2.3-7.6,2.4-11.6
		c0.1-2.2-0.1-4.6-1.5-6.3c-0.5,5.4-1.1,10.8-1.6,16.2c0,0.3-0.1,0.7-0.4,0.9c-0.4,0.3-0.9-0.1-1.3-0.5c-0.8-0.8-1.7-1.7-2.5-2.5
		c-0.6,1.7-0.6,3.6,0.1,5.3c0.3,0.7,0.7,1.4,1.4,1.5c0.6,0.1,1.2-0.2,1.7-0.5c1.2-0.8,2.2-1.9,2.7-3.3"/>
	<path id="XMLID_19_" class="st0" d="M197.1,215.7c1.9-3.1,5.5-5.1,9.2-4.9c0-0.2,0-0.4,0-0.6c0.9,0.2,1.6,0.7,2.5,0.9"/>
	<path id="XMLID_20_" class="st0" d="M197.1,213.4c0,7.5,3.9,14.6,8.9,20.1c1,1.2,2.2,2.3,3.6,2.9c2.5,1,5.7,0.4,7.6,2.4
		c1.2,1.2,1.5,3.3,3,4.2c0.4,0.2,0.9,0.3,1.2,0.6c0.5,0.4,0.8,0.9,1.1,1.5c3.7,7,7.3,14.1,11,21.1c0.8,1.5,2,3.2,3.6,2.9
		c1.1-0.2,1.8-1.2,2.3-2.2c0.4-0.7,0.9-1.5,0.8-2.3c0-1.3-1.2-2.3-2.2-3.2s-2-2.2-1.6-3.4c0.1-0.3,0.3-0.7,0.3-1
		c0-0.4-0.3-0.6-0.6-0.9c-0.7-0.6-1.7-1-2.4-1.7c-0.7-0.7-1.3-1.7-0.8-2.6c0.2-0.3,0.4-0.6,0.5-1c0.2-0.9-0.9-1.4-1.6-1.9
		c-1.8-1.2-2.5-3.7-1.7-5.6c-1-1.7-1.8-3.5-2.5-5.3c-0.4-1-0.7-2.1-0.4-3.2c0.4-1,1.8-1.7,2.6-0.9c1.1-1.7,2.1-3.5,2-5.5
		c-0.1-1.2-0.6-2.4-1.1-3.5c-1.2-2.4-2.3-4.9-3.5-7.3c-1.2-2.4-2.3-4.9-4.1-6.9c-1.5-1.7-3.9-3.2-6-2.3c-1.1,0.5-2,1.6-3.3,1.7
		c1,1.4,1.9,2.9,2.4,4.5c0.4,1.6,0.2,3.6-0.9,4.8c-1.5,1.6-4.1,1.5-6,0.4c-1.9-1.1-3.1-3-4-5"/>
	<path id="XMLID_21_" class="st0" d="M212.8,230.9c-0.8-1.2-1.5-2.5-2-3.9c1.7-0.6,2.8-2.2,4.4-3.2c1.4-0.8,3.2-1,4.7-0.5
		c1.5,0.5,2.8,1.8,3.4,3.3c0.1,0.2,0.2,0.5,0.1,0.7c-0.1,0.2-0.2,0.3-0.4,0.4c-0.6,0.4-1.2,0.6-1.9,0.8c-1.2,0.4-2.5,0.7-3.7,1.1
		c-0.5,0.1-0.9,0.3-1.4,0.2c-0.4-0.1-0.7-0.3-1-0.6c-1-0.9-1.6-2.2-1.7-3.5c1.3,0,2.5,0.6,3.4,1.5c-0.2-0.9,0-2,0.5-2.8
		c1.1,0.5,1.9,1.5,2.1,2.7c-0.2,0-0.4,0.1-0.6,0.1"/>
	<path id="XMLID_22_" class="st0" d="M190.7,241.1c-0.7-3.8-1.4-7.7-0.7-11.5c0.2-1,0.5-2.1,1.1-2.9c0.6-0.8,1.7-1.4,2.7-1.2
		c-2.5,2-3.6,5.4-3.8,8.6c-0.1,1.1-0.1,2.1,0.3,3.1c0.5,1.4,1.7,2.4,2.9,3.3c0.1,0.1,0.3,0.2,0.4,0.2c0.3,0,0.4-0.4,0.4-0.6
		c0.1-1.4-0.5-3-1.7-3.8c-1.2-0.8-3-0.7-4,0.4c-1.1,1.2-0.9,3.1,0.1,4.4c1,1.2,2.6,1.8,4.2,1.9c1,0.1,2.1-0.1,2.8-0.9
		c0.7-0.8,0.4-2.3-0.6-2.4"/>
	<path id="XMLID_23_" class="st0" d="M202.9,247.2c-1.6,1-3.5,1.5-5.4,1.3c-0.8-0.1-1.7-0.1-2,0.6c-0.2,0.5,0.1,1.2,0.7,1.4
		c0.5,0.2,1.2,0.2,1.7,0.1c1.7-0.3,3.2-1,4.6-2.1c-1.7,0.4-3.4,0.7-5,1.1c-0.6,0.1-1.3,0.3-1.7,0.8c-0.3,0.4-0.4,1-0.6,1.5
		c-0.6,2.2-3.2,3.6-5.4,3c-0.5-0.1-1-0.4-1.5-0.3c-1.7,0.3-1.5,3.4-3.2,3.8c0.4,0.7,0.8,1.5,1.2,2.2c-2.1,0.4-3.1,3.6-1.5,5.1
		c-1,1-2.2,1.8-3.6,2.2c1.1,0.6,1.6,2.1,1.2,3.3c-1.4,0.1-2.8,0-4.2-0.3c-0.5,0.5-0.2,1.2,0.4,1.7c-2.2-1.5-2.8-4.7-2-7.2
		c0.9-3.1,3.1-6.1,4.6-9c1.8-3.6,3.6-7.3,5.5-10.9c0.1-0.3,0.3-0.5,0.2-0.8c0-0.5-0.5-0.9-0.9-1.2c-1.5-1.4-1.8-4-0.6-5.7
		c0.2,0.5,0.3,1,0.2,1.5"/>
	<path id="XMLID_24_" class="st0" d="M195.5,219.1c-0.5,2.4,0.4,4.9,1.6,7s2.8,4,4.1,6.2c1,1.7,1.7,3.6,2.9,5.3s2.9,3,4.9,3.1
		c1.1,0,2.2-0.3,3.2-0.4s2.3,0.2,2.8,1.2c0.4,0.8,0.3,1.7,0.5,2.5s1.4,1.5,1.9,0.8c1.4,3.2,2.8,6.3,4.4,9.4c2.1,4.2,4.8,8.6,9.3,10
		c-0.3-2.1-1.4-3.9-2.5-5.7c-2.2-3.6-4.4-7.1-6.5-10.7c-0.8-1.3-1.7-2.7-3.1-3.1"/>
	<path id="XMLID_25_" class="st0" d="M230.6,269.9c1.1,2.4,2.2,4.9,3.3,7.3c0.7,1.6,1.5,3.3,2.8,4.5c0.2,0.2,0.5,0.4,0.8,0.4
		c0.6,0.1,1.1-0.4,1.4-0.9c1.3-1.6,2.6-3.3,2.4-5.3c-0.1-0.8-0.4-1.5-0.7-2.3c-0.8-1.8-1.6-3.5-2.4-5.2c-1.2,1.1-3.2,1.4-4.6,0.6
		c1.6,3,3.1,6,4.7,9c-0.2-0.6-0.3-1.2-0.5-1.8"/>
	<path id="XMLID_26_" class="st0" d="M194.1,227.3c2.2,6.2,4.9,12.3,7.8,18.2c0.8,1.5,1.8,3.2,3.4,3.5c0.7,0.1,1.4,0,2.1,0.3
		c1.1,0.4,1.7,1.5,2.2,2.5c5.2,10.7,11.2,21.2,17.7,31.2c0.3,0.5,0.9,1.1,1.5,0.9c0.8-0.3,0.5-1.4,0.1-2.2
		c-3.5-6.4-7-12.8-10.4-19.2c-1.9-3.5-3.8-7-6.4-9.9c-1-1.1-2.2-2.6-1.5-3.9c2.6,1.3,3.9,4.3,4.9,7.1c3.5,9.5,7.8,19.2,15.6,25.7
		c0.3,0.3,0.7,0.6,0.8,1c0.2,1.1-1.3,1.6-2.4,1.7c1.7,1,4-0.8,4.2-2.8c0.2-2-0.9-3.9-2-5.5c-2-3.1-3.9-6.1-5.9-9.2
		c-0.3-0.5-0.6-0.9-0.8-1.4c-0.2-0.6-0.3-1.2-0.5-1.7c-0.6-2.4-1.9-4.8-3.9-6.2c0.8-1-0.2-2.5-1.2-3.4c-1.5-1.4-2.9-2.9-4.4-4.3
		c-1.1-1.1-2.2-2.2-3.6-3c-1.4-0.9-3-1.4-4.3-2.3c-1.4-0.9-2.6-2.3-2.6-3.9c1.9,0,2.8,2.2,4.2,3.4c1.3,1.1,3,1.4,4.4,2.3
		c1.4,0.9,2.4,2.3,3.4,3.7c1.3,1.9,2.6,3.8,3.7,5.8c1.2,2.3,2.1,4.8,3.5,7.1c1.5,2.6,3.6,4.8,5.6,7c0.2,0.2,0.4,0.5,0.3,0.8
		c-0.1,0.3-0.6,0.3-0.6,0"/>
	<path id="XMLID_27_" class="st0" d="M229.7,239.4c3.1,8.4,6.1,16.8,10.6,24.5c0.5,0.8,1,1.7,0.8,2.6c-0.2,0.9-1.4,1.7-2.1,1
		c-1.1,3.1,2.7,6.2,2.3,9.5c1.9-0.8,3.2-2.7,3.5-4.8s-0.7-4.2-2.4-5.4"/>
	<path id="XMLID_28_" class="st0" d="M230.7,224c5.3,8.9,11.9,16.9,18.5,24.9c1.5,1.8,3.3,3.7,5.6,3.6c-4.8-3.6-7-9.5-10.3-14.4
		c-3.7-5.5-9-9.9-11.7-16c6.7,8.5,13.1,17.4,18.9,26.6c0.8,1.2,4.4,6.1,4.5,2.6c0.1-1.9-1.7-6.1-3.2-7.3c-0.6-0.5-1.4-0.8-2-1.3
		c-1-0.9-1.4-2.2-2.1-3.4c-1.2-2-3.4-3.3-4.4-5.3c-1-2-0.9-4.4-2.2-6.2c-1.8-2.6-5.7-3.1-7.3-5.9c-0.6-1-0.7-2.1-1.1-3.1
		c-0.8-2.1-2.4-3.9-3.3-5.9c-1-2.2-1.1-4.8-0.3-7c0.2-0.9-1.3-1.5-1.8-0.7c-0.5,0.8,0.8,1.9,1.5,1.3"/>
	<path id="XMLID_29_" class="st0" d="M213.8,182.6c3.1,0.3,6.4,0.6,8.9,2.6c1,0.8,1.8,1.9,2.6,3c1.9,2.8,3.6,5.7,5.2,8.7
		c0.4,0.8,0.8,1.7,0.6,2.5c-0.4,1.3-2.3,1.6-3.6,0.9s-1.9-2.1-2.5-3.3c-1.5-2.8-3.4-5.5-5.4-8c-0.5-0.7-1-1.4-1.8-1.8
		c-0.7-0.4-1.7-0.6-2.4-0.2"/>
	<path id="XMLID_30_" class="st0" d="M203.8,196.4c1.4-11.9-3.5-23.7-2.8-35.7c1.9,1.8,2.1,4.7,2.3,7.4c0.9,9.2,4.3,18.1,5.2,27.3
		c0.1,1.2,0,2.7-1,3.2c-0.9,0.5-2.1-0.1-2.6-1c-0.6-0.9-0.6-1.9-0.7-3c0.7,1.2,1.4,2.5,2.1,3.8c0.2,0.5,0.4,1.1,0,1.4
		c-0.2,0.1-0.4,0.1-0.6,0.1c-1.1-0.2-1.6-1.5-1.9-2.6c-2.3-9.6-1.4-19.6-3.2-29.2c-0.3-1.4-0.6-2.8-1.5-3.8c-1-1.1-2.5-1.6-3.9-2.1
		c-1.9-0.6-3.7-1.2-5.6-1.8c-1-0.3-2-0.7-2.8-1.5c-0.9-1-1-2.5-1.1-3.8c-0.1-2.7-0.2-5.4-0.1-8.2c1.8,2.3,0.5,5.7,1.4,8.4
		c1.7,5,9.5,5.6,11.6,10.4c-3.7-2.1-6.7-5.3-8.8-8.9c-1.1-1.9-1.9-4-1.9-6.1c0-2.2,1-4.4,2.9-5.5c2.9-1.7,7.4-0.4,9.3-3.1
		c0.2,1.7,0.4,3.3,0.6,5c0.1,0.6,0.4,1.4,1,1.4c0-3.3,0-6.7,0-10c0.3,3.3,0.6,6.6,0.9,9.8c0.1,1.7,0.7,3.8,2.4,3.9
		c0.9-0.6,1-2,0.9-3.1c-0.2-4-0.8-7.9-1.8-11.8c0.1,1.9,0.4,3.8,0.9,5.6c0.2,0.7,0.5,1.4,1.1,1.9c0.5,0.4,1.2,0.6,1.9,0.7
		c3.2,0.7,6.2,1.7,9.2,3c0.4,0.2,0.7,0.3,1,0.6c0.3,0.4,0.3,0.9,0.4,1.4c0.1,4,0.3,8,0.4,12c0,0.3,0,0.6-0.2,0.8
		c-0.2,0.2-0.6,0.1-1,0.1c-1.9-0.4-4.3,0.1-5,1.9c3.1,0.8,6.7-0.4,8.6-3c-1.4,2.1-3.8,3.6-6.4,3.7c-0.4,0-0.8,0-1.2,0.3
		c-0.6,0.5-0.4,1.5,0.1,2.1c0.5,0.6,1.1,1.2,1.1,2c0.1,1.7-2.3,2.1-3.6,3.1c-1.7,1.3-1.3,4.4,0.6,5.3c-0.9,0.7-1.5,1.9-1.5,3.1
		c-0.1,1.2,0.4,2.3,0.4,3.4c0.1,1.2-0.3,2.5-1.4,2.9c1.7,1.5,2.7,3.8,2.4,6s-2.1,4.2-4.4,4.5c1-0.9,2.1-1.5,3.4-1.9"/>
	<path id="XMLID_31_" class="st0" d="M191.6,154.4c3.9,0.6,7.9,1,11.8,1.2c3.2,0.1,6.4,0.2,9.5,1c-0.3-0.7-0.6-1.3-1.1-1.8"/>
	<path id="XMLID_32_" class="st0" d="M190.8,147.7c-0.1-0.3-0.1-0.7-0.2-1c0.7,0.3,0.5,1.5,1.1,1.9c0.5,0.3,1.1,0,1.7-0.1
		c0.9-0.1,1.8,0.5,2.1,1.3c0.6-0.4,1.2-1,1.6-1.6"/>
	<path id="XMLID_33_" class="st0" d="M209.5,150.9c-0.2-0.5,0.3-1,0.8-1c0.5,0,0.9,0.4,1.3,0.8c0.3,0.4,0.6,0.9,1,1.2
		c0.3,0.3,1,0.2,0.9-0.2"/>
	<path id="XMLID_34_" class="st0" d="M179,150.6c-1.8-1.3-2-4.1-0.9-6.1s2.9-3.3,4.8-4.5c6.1-3.9,12.7-7,19.7-9.1
		c2.9-0.9,6.1-1.6,8.8-0.2c1.1,0.6,2,1.6,1.9,2.8c-0.1,1.1-0.9,2-1.7,2.7c-2.2,2-4.3,4-6.5,6c0.3-1.7,0-3.5-0.8-4.9
		c0.8,0.1,1.6-0.9,1.2-1.7c-2,0.2-3.9,0.9-5.5,2.1c-0.6,0.5-1.2,1.1-1.2,1.9c0,0.8,1.1,1.4,1.6,0.7c-0.6,0.2-1.2,0.3-1.8,0.5"/>
	<path id="XMLID_35_" class="st0" d="M179.4,149.4c-0.1,0.2-0.1,0.4-0.2,0.6c-0.1-1.1,0.6-2.1,1.2-2.9c6.9-9,19.5-12.7,30.3-14.1
		c-0.3,0.7-0.7,1.5-1,2.2"/>
	<path id="XMLID_36_" class="st0" d="M198.1,130.3c0.6-2.8,0.3-5.6,0.3-8.5s0.1-5.8,1.5-8.2c1.4,4.3-1,9.2,0.4,13.6
		c-0.1-4.6-0.2-9.3,1.7-13.5c1.4,2.2,1.4,5,1.4,7.6c0,2.5-0.1,4.9-0.1,7.4c-0.1-0.2-0.2-0.5-0.3-0.7"/>
	<path id="XMLID_37_" class="st0" d="M189.5,129.8c-1-0.8-1.3-2.4-0.7-3.5c-0.3-0.2-0.6-0.4-0.9-0.6c0.9-0.3,1.6-1.3,1.6-2.3
		c0-1-0.7-1.9-1.7-2.2c-0.2-0.1-0.5-0.1-0.6-0.3c-0.2-0.3-0.1-0.7,0-1.1c0.2-1.2-0.8-2.4-1.9-2.4c0.4-0.6,0.8-1.3,1.2-1.9
		c-0.6-0.7-1.7-0.7-2.1-1.5c-0.2-0.3-0.1-0.8-0.1-1.1c0.4-3,2-5.9,4.2-7.9c1.1,0.2,1.3,2.1,2.5,2.3c0.5,0.1,1.1-0.2,1.4,0.1
		c0.2,0.2,0.2,0.4,0.2,0.6c0.8,4.8,2.2,9.4,4.2,13.7c-0.4-0.1-0.9-0.1-1.3-0.2"/>
	<path id="XMLID_38_" class="st0" d="M202.9,118.8c4.2-3.7,9.5-6,14.7-8.2c1-0.4,2.1-0.9,3.2-0.7c1,0.2,1.8,0.9,2.4,1.7
		c1.2,1.6,1.8,3.6,1.7,5.6c-0.1,1.5-0.6,2.8-1.3,4.2c-2.1,4.6-5.6,8.6-9.9,11.4"/>
	<path id="XMLID_39_" class="st0" d="M210.5,129.9c1.5-1.6,3.1-3.1,4.9-4.3c-0.2,0-0.4,0-0.6,0"/>
	<path id="XMLID_40_" class="st0" d="M164.4,153c0.7-0.6,1.4-0.9,1.5-1.8c-1.3,0.2-2.3,1-3.4,1.7c-1.1,0.7-2.5,1.3-3.7,0.8
		c0.2-1.5,1.4-2.7,2.8-3.3c1.4-0.6,2.9-0.9,4.3-1.3c2-0.7,3.7-1.8,5.2-3.2c0-0.2-0.3-0.3-0.5-0.3c-5.1-0.1-10.1,2.6-12.8,7
		c-0.6,0.9-1.1,2-0.7,3.1"/>
	<path id="XMLID_41_" class="st0" d="M131.9,168.1c0.1,1.6-0.7,3.2-2,4c-0.1,0.1-0.3,0.2-0.5,0.1c-0.2-0.1-0.3-0.3-0.4-0.5
		c-0.2-0.7-0.5-1.3-0.7-2c-0.7,0.6-1.4,1.2-2.1,1.9c-0.4-0.4-0.8-0.9-1-1.4c-0.6,0.2-1.2,0.4-1.8,0.8c-0.4-0.5-0.8-1.1-1-1.8
		c-1.2,0.4-2.3,0.9-3.4,1.5c-0.3-0.3-0.1-0.8-0.2-1.2c-0.1-0.5-0.5-0.8-1-0.9s-1,0.1-1.5,0.2"/>
	<path id="XMLID_42_" class="st0" d="M124.4,224c-6.4-4.7-10.2-12.7-9.8-20.5"/>
	<path id="XMLID_43_" class="st0" d="M130,180.2c-0.1,0.5-0.4,1-0.8,1.3c1.2-4.6,4-8.7,7.6-11.7"/>
	<path id="XMLID_44_" class="st0" d="M134.9,182.5c-0.2-1.3,0.1-2.6,0.7-3.8c1.3-3.1,3.6-5.9,6.4-7.9"/>
	<path id="XMLID_45_" class="st0" d="M140.8,245.6c-0.9,0.4-2.1,0.7-2.8,0.1c-0.9-0.8-0.4-2.2,0.1-3.2c0.8-1.5,1.5-3,2.5-4.3
		c1.5-2,3.4-3.7,5.3-5.4c6-5.4,11.5-11.4,16.4-17.8c1.2,0.2,1.9,1.7,3.1,1.7c1.2,0,1.6-1.8,0.9-2.7c-0.8-0.9-2.2-0.9-3.2-0.4
		c0.9-1.2,2-2.2,3.2-3c-0.2-1.1-0.7-2.1-1.3-3c1.4,1.4,3.1,2.4,5,3c1,0.3,2.1,0.4,3-0.1c0.9-0.4,1.5-1.6,1.1-2.5
		c-2.3,0.2-5.3,0.1-6.2-2.1c-0.7-1.7,0.5-3.6,1.6-5c4-5.2,8.5-10.1,13.3-14.6c1.6-1.5,3.2-2.9,5.1-3.9c0.8-0.4,1.8-0.8,2.7-0.7
		c1.8,0.2,3,1.9,3.9,3.5c0.2,0.4,0.5,0.9,0.4,1.4c-0.1,0.7-0.8,1.1-1.5,1.4c-4.9,2.5-8.8,6.5-12.1,10.8s-6,9.1-9.2,13.5
		c-0.7,1-1.4,2-2.3,2.8c-1.5,1.4-3.3,2.2-5,3.4c-3,2.1-5.3,5.1-7.6,7.9c-5.7,7.1-12,13.8-18.7,20c-0.3-1-0.5-2-0.8-2.9"/>
	<path id="XMLID_46_" class="st0" d="M230.6,202.3c-0.7,2.5,0.2,5.3,2.1,6.9c1.2,1.1,3,2,3.1,3.6c0.1,1.6-1.6,2.7-1.9,4.3
		c-0.3,1.7,1,3.1,2.2,4.3c1,1,2,1.9,3,2.9c0.5,0.5,1,1,1.5,1.4c0.7,0.5,1.5,0.9,2.1,1.6c0.4,0.4,0.6,0.9,0.9,1.4
		c2.5,4.8,6.5,8.6,9.9,12.9c2.7,3.4,5.3,7.8,3.7,11.8"/>
	<path id="XMLID_47_" class="st0" d="M233.7,181.6c0.2,0.2,0.5,0.4,0.7,0.6c0.8,0.7,1.7,1.3,2.6,1.9c1.6,1,3.3,1.9,5,2.5
		c1.1,0.3,2.4,0.5,3.1-0.3c0.8-0.8,0.5-2.2,0-3.2c-1.2-2.5-3.2-4.6-5.5-6.3c-2.2-1.7-4.7-3-7.2-4.3c-0.1-0.1-0.2-0.2-0.2-0.3
		c0-0.1,0.2,0,0.1,0.1"/>
	<path id="XMLID_48_" class="st0" d="M227.8,175.5c-1.1-0.9-2.2-1.7-3.4-2.4c-1.6-0.9-3.2-1.6-4.8-2.5c-1.5-0.9-2.9-2.2-3.7-3.8
		c-0.2-0.4-0.3-1,0-1.3c2.1,0.4,4.1,1.1,6,2.1c0.5,0.3,1,0.5,1.6,0.5c0.6,0,1.2-0.5,1.1-1.1"/>
	<path id="XMLID_49_" class="st0" d="M246.3,186c6,4.3,12.1,8.6,18.1,12.9c2.6,1.8,5.4,3.7,8.5,3.4c-1.6-3.4-5.9-4.4-9.3-6
		c-7.8-3.6-13.1-11.7-21.2-14.5"/>
	<path id="XMLID_50_" class="st0" d="M176,184c-1.1-2.4-2.2-5.4-0.7-7.7c0.6-0.8,1.4-1.4,2.2-2.1c2.7-2.4,4.2-5.9,7-8.2
		c1.8-1.5,4.3-2.7,4.6-5c2.2,1.2,4.4,2.4,6.5,3.6c0.8,0.4,1.6,0.9,2,1.7c0.5,1.1-0.1,2.4-0.6,3.4c-0.6,1.2-1.6,2.6-3,2.5
		c-0.3-0.7-0.6-1.3-0.9-2c-0.7,1.4-1.4,2.7-2.1,4.1c-0.3-1-1.9-0.8-2.4,0.1s-0.4,2-0.5,3c-0.3,2-1.8,3.9-3.8,4.5
		c-0.2-0.5-0.3-1-0.2-1.5c-1.7,2.2-4.3,3.7-7,4.2c-1.4-1.4-1.5-3.9-0.3-5.4"/>
	<path id="XMLID_51_" class="st0" d="M192.1,165.7c-5.7,4.9-11.7,10.2-14.2,17.3c5.9-5.2,11.3-11,16-17.3c-0.1,0.3-0.2,0.5-0.3,0.8"
		/>
	<path id="XMLID_52_" class="st0" d="M167.8,176.5c-0.3,0.6,0.4,1.3,1,1.3c0.7,0,1.2-0.3,1.8-0.7c0.8-0.5,1.6-1.1,2.4-1.6
		c1-0.6,2-1.7,1.5-2.7c-1.9,0.1-3.8,1.1-4.9,2.7c-0.3-0.1-0.6-0.1-0.9-0.2c2.5-2.7,6.1-4.3,9.7-4.4c0.1,2.9-2.6,5-5,6.5
		c-1,0.7-2.1,1.3-3.3,1.5c-1.2,0.2-2.6-0.4-3.1-1.5c-4.2,1.8-7.7,4.9-9.9,8.9c-0.7,1.2-1.2,2.4-2.3,3.2c-1.7,1.4-4.6,1.5-5.6,3.4
		c-0.3,0.5-0.4,1.2-0.6,1.7c-0.5,1.3-1.7,2.2-2.8,3c-4.6,3.4-9.3,6.7-13.9,10.1c-3.4,2.5-6.9,5-9.2,8.5c3.4-1,6.1-3.6,8.8-5.8
		c3.4-2.8,7.1-5.1,11.1-7c3.7-1.7,7.8-3.2,10.1-6.5c1.1-1.6,1.8-3.5,3-5s3.6-2.3,5.2-1.1c3.1-5.5,7.8-10.2,13.3-13.2
		c0.9,1.7-0.5,3.6-1.4,5.2c-1,1.8-1.5,3.9-2.5,5.7c-2.6,4.4-8.2,5.8-12.3,8.8c-1.7,1.2-3.2,2.7-5,3.9c-2.7,1.8-5.8,2.9-8.8,4.3
		c-3.4,1.7-6.6,3.9-10,5.7c-3.7,2-7.8,3.4-11.9,4.1"/>
	<path id="XMLID_53_" class="st0" d="M168.2,255.8c0.3,0.9,1.7,1.1,2.3,0.4c0.6-0.7,0.2-2-0.7-2.2c3-4.5,6.1-8.9,9.1-13.4
		c0.3-0.4,0.6-0.8,0.9-1.1c0.3-0.2,0.6-0.4,0.9-0.7c0.5-0.7,0.2-1.6,0.3-2.4c0.1-2,1.9-3.3,3.5-4.4c0.3-0.2,0.6-0.3,0.7-0.6
		c0.2-0.4,0.1-0.8,0-1.2c-0.2-1.5,0.1-3,0.8-4.3c0.6-1.1,1.5-2,2.3-2.9c0.9-0.9,1.7-1.9,2.5-2.9c1.9-2.5,3.2-5.4,3.9-8.5
		c0.1-0.4,0.2-0.9,0.4-1.3c0.3-0.5,0.8-0.8,1.2-1.1c1.4-1,2.6-2.2,3.6-3.6c1.1-1.6,1.9-3.4,3.2-4.8c1.3-1.4,3.5-2.3,5.2-1.4
		c0.4,0.2,0.7,0.5,0.9,0.8c0.1,0.3,0.2,0.6,0.2,0.9c0.2,3-1,6-3.2,8c-0.3,0.3-0.7,0.6-1.1,0.8c-0.3,0.1-0.7,0.2-1.1,0.3
		c-1.8,0.4-3.5,1.3-4.8,2.6c-0.1-1,0.2-2.1,0.8-2.9c0.3-0.4,0.8-0.8,1.4-0.7c0.5,0.2,0.7,0.9,0.5,1.4c-0.2,0.5-0.7,0.8-1.2,1.1
		c-0.9,0.4-1.8,0.7-2.8,0.7c0.1-1.4,1-2.5,1.9-3.5c2.5-2.8,4.9-5.5,7.4-8.3c-2.8,4.1-7.2,6.9-9.5,11.3c-1,1.8-1.5,3.8-2.5,5.7
		c-1.5,2.9-3.8,5.2-6,7.6c-0.9,1-1.8,2.1-2.2,3.4c-0.4,1-0.5,2.2-1.2,3.1c-0.9,1.2-2.6,2-2.5,3.5c0,0.2,0.1,0.4-0.1,0.6
		c-0.2,0.2-0.6,0.1-0.9,0.2c-0.3,0.1-0.4,0.4-0.4,0.7c-0.4,1.6-0.9,3.2-1.3,4.8c-1.1,0.8-2,2-2.5,3.3c-0.3,0.7-0.4,1.5-0.7,2.2
		c-0.7,2.2-2.1,4.1-4,5.4c-0.2,0.1-0.4,0.3-0.5,0.5c-0.3,0.6,0.2,1.8-0.5,1.9c0.3,0.3,0.7,0.5,1,0.8c-1.2,1.2-2.3,2.4-3.5,3.6
		c-0.6,0.6-1.3,1.2-2.1,1.1c-1-0.1-1.5-1.2-1.5-2.2c0-1.3,0.6-2.5,1.2-3.6c7.5-13.7,17.7-26.2,22.2-41.2c0.3-0.9,0.5-1.8,1-2.7
		c0.7-1.4,1.8-2.4,3-3.5c-0.4,0.8-0.9,1.5-1.3,2.3"/>
	<path id="XMLID_54_" class="st0" d="M150.5,252.2c-0.7,1-1.3,2.6-0.3,3.1c0.7,0.4,1.6-0.2,2.2-0.7c13.8-12.4,22-29.8,33.3-44.5
		c1.6-2.1,3.3-4.2,5.1-6.2c3.7-4.2,7.7-8.1,10.6-12.9c-0.8-0.7-2,0.1-2.8,0.8c-2.1,2-4.3,3.9-6.4,5.9c-4.7,4.3-9.5,8.7-13.3,13.9
		c-2,2.7-3.6,5.7-5.4,8.5c-2.4,3.8-5,7.4-7.6,11c-4.2,5.8-8.5,11.7-13.1,17.2c-0.1,0.1-0.3,0.3-0.4,0.2c-0.2-0.1,0.1-0.4,0.1-0.2"/>
	<path id="XMLID_55_" class="st0" d="M165.9,249.3c-0.8-2.8-0.7-5.9,0.2-8.7c1.2,0.9,1.4,2.6,1.1,4.1c-0.3,1.5-1,2.8-1.6,4.2
		c-0.1,0.2-0.1,0.4-0.1,0.6c0,0.2,0.2,0.3,0.3,0.4c1.2,0.8,3.2-0.4,3-1.9c0.4,0.3,0.8,0.8,0.8,1.3c0.7-1.9,1.5-3.9,3.3-4.9
		c0.3-0.1,0.6-0.3,0.7-0.6c0.1-0.2,0-0.3,0-0.5c-0.4-3.1-0.8-6.1-1.2-9.2c-0.4,1.2-1.1,2.3-2,3.3c-0.4-0.7-0.6-1.9,0.2-2.1
		c0.2-0.1,0.5,0,0.7,0.1c1,0.5,2.1,1.4,3,0.8c0.4-0.2,0.6-0.7,0.8-1.1c1.8-4.2,3.1-8.5,3.8-13c-1.5,4.9-3,9.8-4.4,14.7
		c-0.1,0.5-0.3,1-0.2,1.5c0.1,0.5,0.5,1,1,1c1.3-3.8,2.5-7.5,3.8-11.3c0.1,0.8,0.4,1.6,0.9,2.3c1.2-0.9,1.6-2.5,1.6-3.9
		c0-1.5-0.4-2.9-0.4-4.4c0-1.7,0.6-3.3,1.6-4.6c0.8,0.6,1.6,1.4,2.2,2.3c-0.2,0.6-0.4,1.3-0.6,1.9c1.6-1.6,2.6-3.9,2.6-6.2
		c0.7-0.2,1.4-0.8,1.8-1.5c-0.7-0.3-1.4-0.5-2.2-0.5c0.6-0.8,1.5-1.4,2.4-1.6"/>
	<path id="XMLID_56_" class="st0" d="M184.3,230.9c0.5,0.3,0.7,0.9,0.6,1.4s-0.3,1-0.6,1.5c-0.1,0-0.3,0-0.4,0"/>
	<path id="XMLID_57_" class="st0" d="M191.7,283.6c-1.9-2.3-3.5-4.8-4.6-7.6c-0.2-0.5-0.4-1-0.1-1.4c0.3-0.6,1.2-0.6,1.8-0.9
		c1-0.5,1.2-1.9,0.6-2.7c-0.3-0.4-0.8-0.7-0.8-1.2c0-0.6,0.7-0.8,1.2-1.1c0.8-0.4,1.3-1.4,1.3-2.3c0-0.4-0.1-0.8,0-1.2
		c0.1-0.3,0.4-0.6,0.6-0.9c0.9-1.2,1.2-3,0.6-4.4c0-0.1-0.1-0.2,0-0.2c0.1,0,0.1,0.1,0,0.1"/>
	<path id="XMLID_58_" class="st0" d="M193.9,281.5c0.3,0,0.6,0.1,0.9,0.1c-0.5,1.2-1.4,2.2-2.5,2.8c1.8-8.5,3-17,3.8-25.6
		c0.3-3,0.6-6.3,2.4-8.7c0.2,9.9-2.7,19.5-4.1,29.3c-0.1,0.9-0.2,1.9,0.3,2.7c2.3-2.5,3.2-4.6,3.7-8c1.2-7.9,0.7-16.1,2.6-23.9
		c-0.5,1.1-1,2.3-1.5,3.4"/>
	<path id="XMLID_59_" class="st0" d="M150.7,252.3c-0.5,1.1,1,2.2,2.2,1.8c1.1-0.4,1.8-1.6,2.3-2.6c1.4-2.7,3.1-5.2,5.2-7.5
		c2-2.2,4.3-4.1,6.2-6.4c2-2.4,3.4-5.2,5.1-7.8c3.1-4.8,7.2-8.9,10.7-13.4c3.5-4.5,6.4-9.3,9.3-14.2"/>
	<path id="XMLID_60_" class="st0" d="M176.4,269.8c-0.6,1.5-0.8,3.1-0.6,4.6c0,0.2,0.1,0.4,0.2,0.5c0.2,0.1,0.3,0,0.5-0.1
		c0.7-0.5,1.3-1.3,1.5-2.2c-0.5,0.8-1,1.5-1.4,2.3c-0.2,0.3-0.3,0.6-0.3,0.9c0,1,1.4,1.2,2.3,0.8c2-0.8,3.2-2.8,4.4-4.7
		c3.7-6.3,7.3-12.5,11-18.8c-0.2,1.5-0.9,3-1.6,4.4c-3,5.8-4.4,10.7-4.6,17.3"/>
	<path id="XMLID_61_" class="st0" d="M196.7,227.2c-1.2,3.4,0.8,6.9,2.4,10.1c1.1,2.2,2.1,4.4,3.6,6.4c1.4,2,3.4,3.7,5.8,4.2
		c0.9,0.2,1.8,0.2,2.7,0.5c1.2,0.3,2.2,1,3,2"/>
	<path id="XMLID_62_" class="st0" d="M193.6,225.6c-1.2,0.8-1.7,2.4-1.5,3.8c0.2,1.4,1,2.7,1.7,3.9c2.4,4,4.8,8,7.1,12
		c1.1,1.8,2.2,3.7,4.1,4.6c0.7,0.3,1.4,0.5,2.1,1c0.8,0.5,1.3,1.3,1.8,2.1c3.4,5.3,6.7,10.7,9.9,16.2c-0.8-0.6-1.6-1.2-2.4-1.8"/>
	<path id="XMLID_63_" class="st0" d="M196,219.1c2,4.6,4.3,9.1,6.9,13.5c0.8,1.3,1.6,2.6,2.9,3.4c1,0.6,2.3,0.9,2.7,1.9"/>
	<path id="XMLID_64_" class="st0" d="M167.1,149.3c7.2-3.9,13.6-9.1,19-15.2c3-3.4,5.7-7.2,9.7-9.4c-0.3,0.4-0.5,0.8-0.8,1.2"/>
	<path id="XMLID_65_" class="st0" d="M176.6,149.3c-1.6-0.1-3.6,0-4.5,1.4c-0.2,0.3-0.3,0.7-0.3,1.1c0.1,1,1.2,1.4,2.2,1.5
		c1,0.1,2-0.2,2.7-0.8c0.7-0.7,0.8-1.9,0.2-2.6c-0.7-0.7-2.1-0.4-2.2,0.6c0,0.3,0,0.6,0.1,0.9c0,0.3-0.1,0.7-0.3,0.8
		c-0.3,0.2-0.7,0-0.7-0.3"/>
	<path id="XMLID_66_" class="st0" d="M137.3,198.4c0.1,0.1-0.1,0.2-0.2,0.1s-0.1-0.2-0.1-0.3c-0.4-2-0.3-4,0.3-5.9
		c0.2-0.7,0.8-1.5,1.5-1.2c0.5,0.2,0.6,0.9,0.6,1.4c0,1.3-0.2,2.6-0.4,4c0.1-0.1,0.3-0.2,0.4-0.3"/>
	<path id="XMLID_67_" class="st0" d="M124.1,195.1c4.5,0.3,9.1-0.2,13.5-1.3c-0.2-0.8-0.9-1.3-1.7-1.7c-2.8-1.3-6-1.2-9.1-1.1
		c-1.3,0-2.8,0.2-3.5,1.3"/>
	<path id="XMLID_68_" class="st0" d="M88.1,163.3c-2.2,3.3-3,7.5-5.4,10.3c-3.1,3.6-8.5,6.2-12.4,8.9c-3.1,2.2-6.2,4.4-9.7,5.8
		c-4.5,1.9-10.6,2.4-15.4,2.9c-6.4,0.6-14.2-1.7-20.2-3.5c-6.1-1.8-12.6-5-14.7-11c-1.8-5.3,0.6-11.3,4.4-15.2
		c4-4.1,10.5-8.2,16.2-9.2c5.4-0.9,10.9-2.6,14.6-6.6c4.1-4.5,5.4-11.3,10.4-14.6c2.2-1.5,4.9-2,7.4-3c11.8-4.3,20.9-16.2,33.5-16.4
		c3.3,0,6.5,0.8,9.6,1.6c6.6,1.8,13,3.9,19.4,6.3c3.8,1.5,7.8,3.2,10.3,6.4c1.2,1.6,2,3.4,3.2,4.9c2,2.4,5,3.8,7.7,5.5
		c5.3,3.3,9.5,8.3,11.9,14.1"/>
	<path id="XMLID_69_" class="st0" d="M69.2,186.9c3.2,6.5,5.9,13.3,8,20.2c2.2,7.1,3.9,14.3,6.4,21.2c3.2,8.7,7.7,16.9,13.4,24.1
		c5.7,7.3,12.6,12.3,19.5,18.2c9.8,8.5,22.4,14.7,35,17.9c2.9,0.7,5.9,1.1,8.7,2.3c2.8,1.2,5.3,3.1,8.3,3.7c3,0.6,6.8-1.2,6.8-4.2
		c-5.9,0.2-11.9-0.4-17.6-1.8c4.5,1.8,9.4,2.5,14.2,2.1c2-0.2,4.3-0.7,5.3-2.5c0.8-1.5,0.4-3.3,0-4.9c-0.7-2.7-1.7-5.3-2.8-7.8
		c-4.5-10.1-13.1-19.5-24.2-20.2"/>
	<path id="XMLID_70_" class="st0" d="M139.5,247.1c2-0.1,4,0.3,5.9,1.1c0.5,0.2,1,0.5,1.2,1.1c0.2,0.5-0.2,1.2-0.7,1.2"/>
	<path id="XMLID_71_" class="st0" d="M106.8,280.3c0-2.8,1.9-5.2,3.8-7.3c0.8-0.9,1.6-1.8,2.4-2.8c-3.2,2.9-5.4,6.9-6.1,11.1
		c1.8-1.9,3.3-4,4.5-6.4c0.6-1.3,1.3-2.8,2.7-3.2c-2.2,4-4.4,8-6.5,12c0.3,0.4,1,0.5,1.5,0.2c0.5-0.3,0.8-0.7,1.1-1.2
		c1.3-2,2.3-4,3.3-6.2c0.5-1.1,1-2.4,2.1-2.9c0.1,2.9-2.4,5-4.2,7.3c-1.8,2.2-3,4.9-4.2,7.5c0.7,0.6,1.7,0.6,2.5,0.4
		c0.9-0.2,1.7-0.6,2.6-0.6c0.7,0,1.5,0.1,2.1-0.1c0.9-0.3,1.5-1.2,1.7-2.1s0-1.9-0.1-2.8c1.4,0.4,3.1,0.6,4-0.5
		c0.2-0.3,0.3-0.5,0.5-0.8c0.2-0.2,0.4-0.3,0.6-0.4c1.1-0.7,1.7-1.9,2.3-3.1c0.1-0.2,0.2-0.4,0.1-0.6c0-0.2-0.2-0.3-0.3-0.5
		c-0.5-0.5-1.1-1.1-1.6-1.6c-0.8,0.9-0.6,2.5-1.6,3.3c-0.4,0.3-0.9,0.4-1.4,0.7c-0.9,0.6-1.2,1.8-1.3,2.9c-0.4-0.4-0.8-0.8-1.1-1.3"
		/>
	<path id="XMLID_72_" class="st0" d="M234.8,261.1c0.2,0.3,0.4,0.6,0.5,0.9c-0.7-2.5-1.4-5.1-2.7-7.3c-0.5-0.9-1.2-1.9-1.2-3
		c0-0.7,0.3-1.4,0.1-2c-0.1-0.3-0.4-0.5-0.6-0.7c-1.5-1.4-2.4-3.4-3.3-5.2c-1.4-2.7-3-5.4-4.8-7.9c-0.3-0.5-0.8-1-1.3-1
		c-0.3,1.9,0.9,3.1,1.6,4.7c0.8,2,1.6,4.1,2.4,6.1c1.6,4,3.2,7.9,4.8,11.9c0.3-0.5,0.4-1.1,0.2-1.7"/>
	<path id="XMLID_73_" class="st0" d="M219.2,241.3c-1-2-1.9-4.2-2.6-6.3c0.4,0,0.6,0.3,0.8,0.6c1.2,1.6,2.2,3.4,3,5.3"/>
	<path id="XMLID_74_" class="st0" d="M48.8,138.9c-8.2-6.3-16.5-12.8-21.8-21.7c-1.9-3.2-3.4-6.7-6.1-9.2c-1.4-1.3-3.1-2.3-4.3-3.8
		c-3.3-4.1-2-10.6-5.5-14.6"/>
	<path id="XMLID_75_" class="st0" d="M140.8,131.1c0,0.6,0.6,1.2,1.2,1.1c1-7.6-6.5-13.4-9-20.5c-2.1-5.7-1-12.2-3.4-17.8
		c-1.9-4.4-6-7.8-7.7-12.3c-2.9-7.7,1.3-16.8-1.8-24.4c-3-7.1-11.6-10.8-13.8-18.1c-0.8-2.7-0.6-5.6-1.7-8.2
		c-1.1-2.7-3.5-4.7-5.6-6.8C94.8,19.7,91.8,14,90.5,8c-1.4,1.3-2.4,3.1-2.7,5"/>
	<path id="XMLID_77_" class="st0" d="M213.5,145.9c-0.3-3.3,0.2-6.8,1.5-9.9"/>
	<path id="XMLID_79_" class="st0" d="M245.3,180.6c5.7-3.4,12-5.7,18.5-7c0.9-0.2,2-0.4,2.4-1.3c0.4-0.7,0.2-1.6,0-2.4
		c-0.9-4.5,0.6-9.1,1.7-13.5c1.5-5.9,2.4-11.9,3.2-17.9c1.3-8.8,2.6-17.7,3.9-26.5c1-6.7,2-13.5,1.8-20.4c-0.1-4.8-0.8-9.6-0.8-14.5
		c-0.1-7.8,1.5-15.5,2.8-23.3c0.1-0.5,0.2-1.2-0.2-1.6c-0.4-0.4-1.3,0-1.1,0.5c2.7-18.2,2.8-34.6,1-52.8"/>
	<path id="XMLID_80_" class="st0" d="M295.8,53.4c-1.4-0.7-2.9,0.9-3.4,2.4c-0.7,1.9-0.9,4.1-0.1,6c0.8,1.9,2.9,3.3,5,2.8
		c1-0.2,1.9-0.9,2.6-1.6c1.5-1.7,2.5-4,2.1-6.2s-2.2-4.2-4.4-4.5c-2.2-0.2-4.6,1.6-4.5,3.9"/>
	<path id="XMLID_81_" class="st0" d="M319.9,160.4c-8.2,4.3-17.1,7.2-26.3,8.3c-1.7,0.2-3.5,0.3-5-0.4c-0.9-0.4-1.6-1.1-2.4-1.5
		c-2.7-1.2-5.6,1-8.1,2.6c-4.5,2.8-9.9,4-15.2,3.3c-1.4-0.2-2.7-0.5-4.1-0.2c-2.1,0.5-3.5,2.3-5.2,3.7c-3.3,2.6-8,3.2-11.8,1.7
		c-0.8-1.7-1-3.7-0.7-5.6"/>
	<path id="XMLID_82_" class="st0" d="M261.4,190c-0.2-2.6,0.3-5.3,1.3-7.7c1.5,0.1,2.9,1.4,3.2,2.9s-0.5,3.2-1.9,3.8
		c-1.7-2.5-2.9-5.5-3.4-8.5c0.8,0.1,1.4,0.8,1.6,1.6"/>
	<path id="XMLID_83_" class="st0" d="M317.9,256.2c-3.3,15-16.7,26-21,40.7c-2.5,8.7-1.7,18.1-4,26.8c-1.5,5.8-4.3,11.2-7.8,16.1
		c-2.6,3.7-5.7,7.3-7.3,11.5c-2.2,5.9-1.4,12.8-4.3,18.5c-1,2-2.4,3.8-3.5,5.7c-2.6,4.7-3,10.2-3.3,15.5c-0.5,7.9-1,15.8-1.6,23.7
		c-0.1,0.9-0.2,1.9-0.9,2.5c-0.6,0.5-1.4,0.6-2.2,0.6c-13,0.7-26,1.4-38.9,2.2c-2.4,0.1-4.8,0.3-7.2-0.2c-1.5-0.3-3-0.9-4.5-1.2
		c-0.9-0.2-1.8-0.4-2.6-0.8c-3.1-1.7-3.3-5.9-3.5-9.5c-0.2-4-1-8-2.3-11.7c-1-2.9-2.4-5.8-2.8-8.9c-0.6-4,0.5-8,1.5-11.9
		c1.7-6.3,3.3-12.5,5-18.8c1.9-7.2,3.9-14.8,2-22.1c-0.1-0.6-0.2-1.3,0.3-1.6c0.5-0.2,0.6,1.1,0.2,0.7"/>
	<path id="XMLID_84_" class="st0" d="M161.4,419.8c8.2-2.2,14.8-8.2,20.8-14.2c4.6-4.7,9.3-9.8,10.9-16.2c1.1-4.4,0.6-9.1,0.6-13.7
		c-0.1-6.2,0.4-12.5,1-18.7c0.4-5,0.9-10.1,3.1-14.6c1.8-3.7,4.6-6.8,7.3-10c11.1-13.7,18.4-30,25.5-46.1"/>
	<path id="XMLID_85_" class="st0" d="M242.6,262.2c2.7-4,5-8.2,7-12.6"/>
	<path id="XMLID_86_" class="st0" d="M254.4,238c1.5-12.8-0.8-26.3,3.9-38.3"/>
	<path id="XMLID_87_" class="st0" d="M260,188.6c-0.2,0-0.1,0.5,0.2,0.4c0.2,0,0.4-0.3,0.4-0.5c1-3.1,0.9-6.6-0.3-9.7
		c2.8,1.7,4.3,5.2,3.5,8.4c-1-0.2-1.9-1.2-2-2.2s0.4-2.2,1.3-2.8"/>
	<path id="XMLID_88_" class="st0" d="M100.9,259.8c2.8,8,0.5,16.9,1.3,25.4c0.8,7.3,3.9,14.2,4.9,21.4c1.3,9.5-1.2,19.2,0.5,28.5
		c1,5.5,3.4,10.7,7,15c1.2,1.4,2.5,2.7,3.2,4.4c1.5,3.4,1.4,8.9,1.8,12.6c0.6,4.5-0.3,9.6-1.5,13.9c-1.7,5.7-4.7,11.1-5.5,17
		c-0.8,5.9,0.8,11.7,2.3,17.5c-0.1-0.6-0.1-1.3-0.2-1.9"/>
	<path id="XMLID_89_" class="st0" d="M113,269.5c-1.9,2.3-4,4.5-6.2,6.6"/>
	<path id="XMLID_90_" class="st0" d="M200.4,269.1c-0.2,0-0.3,0.3-0.2,0.5c2.2-0.8,4.2-2.3,5.4-4.3c0.9,1.3,2.6,1.4,4.2,1.5
		c2.5,0.1,5,0.1,7.3-0.6c-0.4,0.5-1,0.9-1.6,1.2"/>
	<path id="XMLID_91_" class="st0" d="M184.1,271.2c0.9,0.5,2,0.6,2.9,0.2c-0.1-0.2-0.1-0.5-0.2-0.7"/>
	<path id="XMLID_92_" class="st0" d="M172.3,268.5c0,0-0.5-0.1-0.2,0c0.5,0.2,1.5-0.1,1.9-0.3"/>
	<path id="XMLID_93_" class="st0" d="M57.3,175.1c0.5,0.6,0.9,1.3,0.9,2.1c0,0.8-0.4,1.6-1.1,2c-1,0.5-2.3,0-2.9-0.9
		c-0.7-0.9-0.9-2-1-3.1c-0.1-1.5,0-3.1,0.4-4.5c0.2-0.7,0.6-1.4,1.3-1.6"/>
	<path id="XMLID_94_" class="st0" d="M69.4,181.7c0.8-3.1,1.4-6.2,1.7-9.4c0.2-2.2,0.4-4.5,0-6.7c-0.4-2.4-1.3-4.7-2-7
		c-0.7-2.2-1.3-4.5-2.2-6.6c-1-2.1-2.4-4.1-4.4-5.3"/>
	<path id="XMLID_95_" class="st0" d="M29.5,166.9c-0.4,0-0.9-0.1-1.1-0.5c-0.1-0.4,0.4-0.8,0.8-0.9c0.3-0.1,0.7-0.2,0.9,0
		c0.2,0.2,0.2,0.6,0,0.8C30,166.6,29.7,166.7,29.5,166.9"/>
	<path id="XMLID_96_" class="st0" d="M81.8,160.2c1-5.5,0.5-11.2-1.4-16.4c-0.3-0.9-0.7-1.8-1-2.6"/>
	<path id="XMLID_101_" class="st0" d="M86,128.5c-1.7-1.5-3.3-3.1-4.6-5"/>
	<path id="XMLID_107_" class="st0" d="M114.3,174.3c0,0.1-0.1,0.3-0.2,0.4c-0.4-0.1-0.6-0.6-0.8-1c-0.4-1.2-0.8-2.5-1.1-3.8
		c1,0.3,1.9,0.9,2.6,1.6c0.4,0.4,0.7,0.9,0.6,1.5c-0.1,0.3-0.3,0.6-0.5,0.8c-0.3,0.4-0.7,0.7-1.1,1c0,0-0.1,0.1-0.2,0
		c-0.1,0,0-0.1,0.1-0.1"/>
	<path id="XMLID_108_" class="st0" d="M97,230.6c-0.6,0-1.2-0.1-1.6-0.5c-0.4-0.4-0.7-1-0.5-1.5c0.1-0.5,0.5-0.8,0.8-1.2
		c0.5-0.6,0.6-1.5,1.1-2.1c0.4-0.6,1.1-1,1.8-1.3c0.6-0.3,1.4-0.4,2-0.3c0.7,0.2,1.3,0.7,1.4,1.4c0.1,0.9-0.5,1.6-1.2,2.2
		c-0.6,0.5-1.2,1.1-1.8,1.5c-0.4,0.3-0.9,0.6-1.3,0.3"/>
	<path id="XMLID_109_" class="st0" d="M109,250.2c-0.4-1.2-1.6-1.9-2.7-2.4c-1.2-0.5-2.4-1-3.1-2c-0.4-0.5-0.6-1.1-0.9-1.7
		c-0.5-0.9-1.2-1.6-2-2c-0.6-0.3-1.2-0.5-1.7-0.9c-0.8-0.7-0.9-1.9-0.7-3c0.3-1.4,1.4-2.8,2.8-2.7c0.9,0.1,1.7,0.9,2.2,1.7
		c0.5,0.8,0.9,1.7,1.6,2.4c0.9-0.2,1.5-1.2,1.5-2.1c0.1-0.9-0.3-1.8-0.6-2.7c0.9-0.2,1.9,0.4,2.5,1.1s1,1.7,1.8,2.3
		c0.7,0.7,1.9,1,2.6,0.4c-0.5-1.5-1.9-2.4-3-3.5c-1.1-1.1-2-2.7-1.4-4.1c0.5-1.2,1.9-1.8,2.5-2.9c0.4-0.8,0.3-1.7,0.3-2.5
		c-0.1-1.2-0.1-2.4-0.2-3.6c0-0.8-0.1-1.7,0.2-2.4c0.3-0.8,1.1-1.4,1.9-1.2c-0.7-0.5-0.9-1.6-0.5-2.3c1.1,0.3,1.4,1.7,1.4,2.9
		s0.6,2.6,1.7,2.6c0,0.3,0,0.5,0,0.8"/>
	<path id="XMLID_110_" class="st0" d="M130.5,273.9c-0.4-0.6-0.7-1.4-0.6-2.1c0-0.6,0.3-1.4,0.9-1.5c0.5,0.3,0.9,0.8,1,1.4
		s-0.2,1.2-0.7,1.6c0-0.1,0-0.2,0-0.3"/>
	<path id="XMLID_111_" class="st0" d="M141.1,279.6c-1.1,0.2-2.2-0.5-2.9-1.4s-0.9-2-1.1-3.1c1.6-0.2,3-1.4,3.4-2.9
		c0.1-0.3,0.1-0.6,0.3-0.9c0.2-0.2,0.4-0.3,0.7-0.4c1.2-0.3,2.6,0.1,3.6,1c0.5,0.5,0.8,1.1,1.4,1.5c0.9,0.7,2.2,0.8,3.4,0.6
		s2.3-0.5,3.5-0.6c1.4,0,2.8,0.4,4,1.2c0.5,0.3,1.1,0.8,1.2,1.4c0.2,0.8-0.3,1.6-0.9,2.1c-0.7,0.5-1.5,0.6-2.3,0.8
		c-3.2,0.6-6.5,0.8-9.7,0.2c-2.7-0.5-5.4-1.5-8.2-1.2c0.4-0.1,0.8-0.2,1.1-0.3"/>
	<path id="XMLID_112_" class="st0" d="M160,288.1c-0.3-0.6-0.7-1.2-0.9-1.9s-0.2-1.4,0.1-2c0.9,0.1,1.7,0.6,2.5,0.9
		c1.1,0.5,2.2,0.7,3.4,0.6c0.5,0,1.1-0.1,1.5,0.2c0.4,0.3,0.6,0.9,0.4,1.4c-0.2,0.4-0.6,0.7-1,0.9c-0.6,0.3-1.3,0.7-1.9,1
		c-0.7,0.4-1.4,0.7-2.1,0.6C161.1,289.7,160.5,288.8,160,288.1"/>
	<path id="XMLID_97_" class="st0" d="M294.2,60.9c-0.2,0.1-0.2-0.3,0-0.4s0.4,0.1,0.5,0.3c0.4,0.5,0.7,1.5,0.1,1.6
		c0-0.4,0-0.8-0.1-1.1"/>
	<path id="XMLID_98_" class="st0" d="M298.5,55.9C298.5,55.9,298.5,56,298.5,55.9c-0.2,0.6-0.5,1-0.7,1.5c0-0.5,0.2-1,0.7-1.2"/>
	<path id="XMLID_76_" class="st0" d="M225,187.5c1.2-1,1.8-2.6,2.2-4.1c1.5-6.3,0.6-13.1-2.7-18.7c-1.5-2.5-3.6-5-6.4-5.6
		c1.7-0.4,3.4,0.3,4.9,1.2c5.1,3.2,8.7,8.7,9.5,14.7c0.8,6-1.2,12.3-5.4,16.7c0.1-0.6,0.1-1.2,0.2-1.8"/>
</g>
</svg>
