<?xml version="1.0" encoding="utf-8"?>
<!-- Generator: Adobe Illustrator 19.0.0, SVG Export Plug-In . SVG Version: 6.00 Build 0)  -->
<svg version="1.1" id="Layer_1" xmlns="http://www.w3.org/2000/svg" xmlns:xlink="http://www.w3.org/1999/xlink" x="0px" y="0px"
	 viewBox="0 0 438.7 589.3" style="enable-background:new 0 0 438.7 589.3;" xml:space="preserve">
<style type="text/css">
	.st0{fill:none;stroke:#000000;stroke-width:2;stroke-linecap:round;stroke-linejoin:round;stroke-miterlimit:10;}
</style>
<g>
	<path class="st0" d="M121.7,289.7c0.1-0.5,0.4-1,0.7-1.3c0.4,0.6,0.2,1.6-0.5,1.9c0,0-0.1,0-0.1,0c-0.1,0-0.1-0.1-0.1-0.2
		c0-0.9,0.2-1.7,0.8-2.4"/>
	<path class="st0" d="M108.4,296.9c-0.2,0.4-0.3,0.9-0.3,1.4"/>
	<path class="st0" d="M108.1,293.5c-1.4,0.1-2.6,1.4-2.8,2.8c-0.2,1.4,0.3,2.8,1.1,4c0.6,0.9,1.5,1.8,2.6,2.1
		c0.6,0.2,1.3,0.2,1.9,0.5c0.3,0.2,0.7,0.5,1.1,0.3c0.2-0.1,0.2-0.3,0.3-0.5c0.1-0.5,0-0.9-0.2-1.4"/>
	<path class="st0" d="M110.5,299c-0.2-0.3-0.3-0.7-0.2-1"/>
	<path class="st0" d="M97.8,313.6c-0.1-1.1-0.2-2.3-0.2-3.5c-1.8-1.5-3.5-3.3-4.9-5.2c-0.6-0.3-0.9-1-0.8-1.6
		c-0.5,0.6-1.2,1.2-1.9,0.9c-0.2-0.1-0.4-0.3-0.6-0.5c-0.8-1-1.7-2.1-2-3.3c0-0.2-0.1-0.4-0.2-0.5c-0.2-0.1-0.4,0-0.6,0
		c-0.9,0.2-1.7-0.6-2-1.5s-0.3-1.8-0.5-2.7c-0.3-1.5-1.2-2.7-1.8-4.1c-1.2-2.9-1-6.3,0.5-9c0.3-0.5,0.8-1.1,1.4-0.8
		c0.2,0.1,0.4,0.4,0.5,0.6c0.5,1,0.8,2,1,3.1c0.8-0.1,1-1.2,1.3-2c0.6-1.1,2-1.5,3.3-1.7c0.2,1.3-0.4,2.6-0.8,3.9
		c-1.1,3.3-0.7,7,0.8,10.1c-1.5-4-1.5-8.6,0-12.6c0.3-0.8,0.6-1.5,1.2-2.2c0.8-0.9,1.9-1.4,2.9-1.9c0.8-0.4,1.6-0.8,2.4-1.1
		c3.2-1.5,6.3-3,9.7-4.1c2.3-0.7,4.8-1.3,7-0.3c1.4,0.6,2.5,1.8,4,2.3c0.1,0,0.2,0.1,0.3,0.1c0.3,0.3,0,0.7-0.3,1
		c-1.4,1.5-2.5,3.4-2.9,5.4c-0.5,2.3-0.2,4.8-0.7,7.1c-0.3,1.4-0.9,2.7-1,4c0,0.6,0,1.3-0.2,1.8c-0.2,0.6-0.8,1.1-1.4,1
		c-0.3,0-0.5-0.2-0.8-0.2c-0.3-0.1-0.6,0-0.7,0.3"/>
	<path class="st0" d="M105.2,298.6c-1.2,1.3-1.5,3.1-1.8,4.8c-0.5,2.3-1.2,4.5-2.2,6.7c-0.2,0.5-0.5,1-0.9,1.4
		c-0.4,0.4-1,0.6-1.6,0.4"/>
	<path class="st0" d="M117.5,278c2.7,1,4.4,3.8,4.8,6.7c0.3,2.1,0.1,4.6,1.8,6c1.1,0.9,2.7,1,3.7,1.9c0.9,0.8,1.3,2.2,0.8,3.4
		c-0.3,0.8-1,1.6-0.6,2.3c0.1,0.3,0.5,0.6,0.6,0.9c0.2,0.7-0.4,1.5-0.1,2.1c0.1,0.2,0.3,0.3,0.3,0.5c0.2,0.5-0.3,0.9-0.5,1.3
		c-0.6,1.3,0.8,2.7,0.7,4.1c-0.1,1.1-1.1,1.9-2.1,2.3c-1.1,0.5-2.3,0.9-3.5,1c-0.8,0.1-1.6,0.1-2.3,0.4c-1.1,0.4-1.9,1.2-2.7,2
		c-1.6,1.7-3.4,3.4-4,5.7c-0.3,1.1-0.4,2.3-0.4,3.4c0,1.4,0.1,2.8,0.3,4.2"/>
	<path class="st0" d="M72.4,361.4c-0.2-0.4-0.4-0.9-0.3-1.3c0.1-0.5,0.7-0.8,1-0.5c0.7,0.5-0.5,1.6-0.1,2.3c-0.6,0-0.8-0.9-0.4-1.4
		s1.1-0.5,1.7-0.5c1.6,0.2,3.1,0.9,4.6,1.4c2.9,1,6.1,1.3,9.2,1.6c0.2,0,0.5,0,0.7-0.1c0.2-0.1,0.4-0.4,0.5-0.6
		c0.5-1,0.7-2.2,0.5-3.3c-0.1-0.8-0.4-1.8,0.2-2.3c0.2-0.2,0.4-0.3,0.5-0.4c0.2-0.4-0.1-1,0-1.4c0.1-0.3,0.3-0.5,0.4-0.8
		c0.1-0.4-0.1-0.7-0.2-1.1c-0.4-1.1-0.4-2.3,0-3.4"/>
	<path class="st0" d="M96.5,317.9c0,1.2,0.8,2.3,1.7,3.1c0.9,0.8,2.1,1.3,3.2,1.8c1.9,0.9,3.7,1.9,5.4,2.9c0.5,0.3,1,0.6,1.3,1.1
		c0.4,0.7,0.4,1.5,0.4,2.3c0.3,4,3.4,7,5.5,10.4c1.8,2.9,2.9,6.3,3.9,9.5c0.8,2.4,1.6,4.9,1.8,7.5c1.5-8.1,0.3-16.7-3.3-24.1
		c-0.3-0.6-0.6-1.2-0.8-1.9c-0.2-0.7-0.2-1.4-0.3-2.1c-0.3-1.3-0.9-2.4-1.4-3.6c-0.4-1.2-0.5-2.7,0.3-3.7c0.9,0.1,1.6,0.8,2.1,1.6
		c0.5,0.7,0.9,1.6,1.5,2.2c0.8,0.9,1.9,1.3,2.9,1.9c2.3,1.2,4.5,2.6,6.7,4c0.9,0.6,1.9,1.3,2.4,2.3c0.7,1.4,0.4,3.2,1.4,4.4
		c-0.2,0.3-0.7,0.3-1,0.1"/>
	<path class="st0" d="M71.5,359c0.4-3.5,0.8-7.1,0.2-10.6c-0.1-0.8-0.3-1.8,0.2-2.4c0.2-0.2,0.4-0.4,0.7-0.6c0.8-0.8,1.2-1.9,1.5-3
		c0.6-2,1.4-4,2.6-5.8c1.4-2.2,3.2-4,5-5.9c3.7-3.7,7.7-7.2,11.8-10.4"/>
	<path class="st0" d="M117.3,358.6c-0.1-0.2,0-0.4,0.2-0.5c0.1,0.1-0.1,0.1-0.1,0.1c0-0.1,0-0.2,0-0.3s0.1-0.2,0-0.3"/>
	<path class="st0" d="M115.3,349.9c0-0.1,0.1-0.3,0.1-0.4C115.4,349.6,115.3,349.7,115.3,349.9"/>
	<path class="st0" d="M117.6,366.9c-0.2,0.1-0.4-0.3-0.3-0.5c0.1-0.3,0.5-0.4,0.8-0.3s0.4,0.5,0.3,0.7
		C118.2,367.1,117.8,367.1,117.6,366.9"/>
	<path class="st0" d="M114.8,374.5c-0.3-0.3-0.3-0.8,0.1-1c0.3-0.2,0.8-0.1,1,0.2c0.2,0.3,0,0.8-0.3,1"/>
	<path class="st0" d="M111.5,381c0.2-0.2,0.6-0.2,0.8,0.1C112.1,381.2,111.8,381.2,111.5,381"/>
	<path class="st0" d="M108.8,387.4c-0.1-0.1-0.1-0.2-0.1-0.3c0.2-0.1,0.6,0.2,0.5,0.4"/>
	<path class="st0" d="M88.9,362.6c-0.3,6.3-0.7,12.6-1,18.9c0,0.8-0.1,1.7,0.2,2.5c0.4,1.1,1.5,1.8,2.5,2.4c2.5,1.6,4.9,3.1,7.4,4.7
		c3.1,1.9,6.3,3.8,9.8,4.9c2.7,0.9,5.6,1.3,8.5,1.6c1.1,0.1,2.2,0.3,3.3,0.1c0.9-0.2,1.8-0.6,2.5-1.1c1.4-0.9,2.6-2,3.6-3.4
		c0.8-1.1,1.7-2.5,3.1-2.5c0.7,0,1.3,0.3,1.9,0.5c1.7,0.6,3.6,0.6,5.3,1c3.3,0.8,5.9,3.6,6.8,6.8c-0.4,0.4-1.1,0.5-1.6,0.1"/>
	<path class="st0" d="M73.4,361.1c0.1,10,0.5,20,1.2,29.9c0,0.6,0.1,1.3,0.4,1.8c0.4,0.5,0.9,0.8,1.5,1.1
		c9.8,4.8,19.9,8.8,30.3,11.9c2.1,0.6,4.2,1.2,6.4,1.4c2.2,0.2,4.5,0,6.7-0.3c2.4-0.2,4.9-0.5,7-1.7c1.5-0.8,2.9-2.1,4.6-2
		c1.7,0.1,3.4,1.4,4.8,0.5c0.6-0.4,1.4-1.3,1.9-0.7c0.2-0.6,0.2-1.4-0.1-2c0.3,0.4,0.6,0.7,1,0.9c0.4,0.2,1,0.1,1.2-0.2
		c0.2-0.4-0.1-1-0.5-0.9"/>
	<path class="st0" d="M127.4,391.6c-0.2-0.1-0.5-0.2-0.7-0.3c-0.4-0.2-0.8-0.4-1.1-0.6c-0.7-0.4-1.2-0.9-1.8-1.3
		c-0.2-0.2-0.5-0.4-0.6-0.6c-0.3-0.4-0.3-1-0.2-1.5c0.2-0.3,0.7-0.1,0.9,0.1c0.2,0.3,0.2,0.6,0.2,1c0,0.2,0,0.4,0,0.6
		c-0.9-0.3-1.5-1.1-1.6-2c0-0.1,0-0.2,0-0.2c0-0.1,0.1-0.1,0.2-0.1c0.3-0.1,0.5-0.1,0.8-0.1c0.4,0.1,0.6,0.3,0.9,0.6
		c1.2,1.2,2.5,2.3,3.8,3.4c-0.1-0.1-0.2-0.2-0.2-0.3"/>
	<path class="st0" d="M120.6,374.4c1,1.5,1.2,3.9,1.6,5.6c0.5,2.2,1.1,4.4,1.7,6.6"/>
	<path class="st0" d="M115,397c-1.1-1.3-1.4-3-1.7-4.7c-0.2-1.2-0.4-2.4-0.6-3.6c0-0.1,0-0.2,0-0.2c0.1-0.1,0.2-0.1,0.3-0.1
		c1.2-0.2,1.8-1.6,2.2-2.8c1.6-4.8,4.1-9.2,7.4-13.1c1.7-2,3.6-3.9,5.4-5.8c1.6-1.6,3.2-3.3,3.7-5.5c0.9-3.8,0.7-8.2,0.2-12.1
		c-0.2-1.3-0.4-2.6-0.4-3.9c0-2.5,0.7-5.1-0.4-7.4"/>
	<path class="st0" d="M131.5,364.1c0.1-0.1,0.3-0.3,0.4-0.4c0.9,3.8,1.6,7.7,2,11.6c0.1,1,0.2,2.1,0.8,3c0.7,1,2,1.6,2.9,2.4
		c1,0.9,1.7,2.1,2.4,3.2c1.4,2,3.2,3.7,4.9,5.3c1.8,1.7,3.5,3.3,5.3,5c0.9,0.9,2.7,0.3,3.9-0.1c1.2-0.4,2.4-0.9,3.7-1.1
		c1.1-0.1,2.1,0,3.2,0.2c2.2,0.3,4.4,0.7,6.7,1.2c0.4,0.1,0.8,0.2,1.1,0.5c0.3,0.4,0.2,1-0.1,1.4c-0.3,0.4-0.8,0.6-1.2,0.9
		c-1.3,0.7-2.6,1.4-3.8,2.1c-2.6,1.4-5,3-7.9,3.7c-3.1,0.8-6.4,1.2-9.6,1.6c-4.4,0.6-8.8,1.3-13.2,2.1c-2.6,0.5-5.3,1-7.9,1.1
		c-0.4,0-0.8,0-1.2-0.2s-0.6-0.6-0.5-1"/>
	<path class="st0" d="M141.7,400.9c3.2-0.3,6.5-0.7,9.7-1.2c2.1-0.4,4.2-0.8,6.2-1.3c2.6-0.6,5.2-1.3,7.8-2.2"/>
	<path class="st0" d="M78.3,398.1c0.1-0.7,0.2-1.4,0.3-2.1c-2.8,3.8-4.7,8.3-5.5,12.9c-0.4,2.5-0.5,5.1-0.6,7.7
		c0,3.1,0.1,6.3,1.4,9.1c1.1,2.3,3,4.1,4.8,5.8c2.7,2.6,6.2,2.6,10,3c2.4,0.2,4.8,0,7.2-0.1c4.6-0.1,9.2,0.3,13.7,0.8
		c5.6,0.5,11.8,1.4,15.4,5.7c0.4-3.7,1.1-8,4.2-10c2.8-1.8,6.6-1.2,9.2-3.3c1.9-1.5,2.6-4,3.4-6.3c1.3-3.6,3-7,5.2-10.1
		c1.4-1.9,3.1-3.8,5.4-4.1c2.7-0.3,5.1,1.9,6.3,4.3c2.9,5.5,1.7,12.3-1.2,17.7c-2.9,5.4-7.4,9.9-11.4,14.5
		c-5.6,6.4-10.5,13.5-14,21.3c-1.4,3.2-2.6,6.6-3.7,10c-1.6,4.9-2.9,9.9-3.8,15c-1.8,0.5-3.5-1.3-4.4-3c-2.9-5.5-4.4-11.7-4.2-17.9
		c0.6-0.1,1.2-0.2,1.7-0.2c2.1-8.5,4.3-17.1,6.4-25.6c0,0,0-0.1,0-0.1"/>
	<path class="st0" d="M125.1,488.3c-0.7,4.9-1,9.9-0.8,14.9c0.1,2.7,0.3,5.5,0.2,8.2c-0.1,0.8-0.4,1.8-1.2,1.6
		c-0.3-0.1-0.6-0.3-0.8-0.5c-1.9-2.2-3.8-4.5-5.7-6.7c-1.3-1.6-2.6-3.3-3.6-5.2c-3.4-6.6-2.7-13.2-2.9-20.4
		c-2.3,0.6-4.6,1.3-6.9,2.1c-0.4-0.5-0.2-1.2,0.1-1.7c0.3-0.5,0.8-0.8,1.3-1.3c3.1-3.1,1.3-9,4.5-12c0.1,2,0.2,4,0.3,6
		c0,0.5,0.1,1,0.3,1.4c0.5,0.8,1.6,0.8,2.5,0.6c0.9-0.2,1.8-0.6,2.7-0.3c-0.9-2.8-0.6-5.9,0.8-8.4c-1.2,0-2.4,0-3.6,0.1
		c0,0.8,0,1.6,0,2.4"/>
	<path class="st0" d="M117.9,498.2c0.5,0.6,0.9,1.3,1.3,2.1c-3.5-3.4-7-7.3-7.3-12.2c-0.2-2.9,0.8-5.9,0.1-8.8
		c-0.2-0.6-0.4-1.3-0.3-1.9c0.3-1.4,2.2-1.8,3.4-1.2c1.2,0.7,1.9,2.1,2.4,3.4c1.5,3.8,2.7,7.8,4.9,11.2c0.3,0.5,0.7,1.1,0.8,1.7
		c0.2,0.7,0,1.5-0.1,2.2c-0.5,2.4-1,4.8-1.6,7.2c0,0.1,0,0.2-0.1,0.2c-0.1,0.1-0.3,0-0.4,0c-0.5-0.3-1-0.5-1.4-0.8"/>
	<path class="st0" d="M124.9,505.3c0.9,0.8,1.8,1.7,2.7,2.5c0.3,0.3,0.6,0.6,1,0.6c0.3,0,0.6-0.1,0.8-0.2c1.5-0.7,2.1-2.6,2.1-4.2
		s-0.5-3.3-0.6-5c-0.1-1.7,0.1-3.4,0.4-5.1c0.3-1.8,0.6-3.6,0.8-5.5c-0.5,0.5-1.4,0.4-1.8-0.2c-0.5-0.5-0.6-1.2-0.8-1.9
		c-0.4-1.3-0.9-2.6-1.6-3.8c0,0.4,0.1,0.8,0.1,1.2"/>
	<path class="st0" d="M124.8,495.7c0.5,1,1.2,1.9,2,2.7c0.2-0.4,0.4-0.9,0.4-1.4c0.1,0.3,0,1.5,0.3,1.3c0.3-0.2,0.4-0.5,0.5-0.8
		c0.5-1.5,0.9-3,1.2-4.5c0.1-0.7,0.2-1.4,0.2-2.1c-0.1-1.6-0.9-3.2-2.2-4.2"/>
	<path class="st0" d="M131.8,487.1c-0.7-1.3,1.3-3.9,2-5.4c1.1-2.2,1.5-4.7,2.2-7.1c1.3-4,2.9-7.6,5.3-11c1.2-1.8,3.1-3.1,4.3-5
		c1.5-2.1,3-4.1,4.8-6.1c2.7-2.9,5.5-5.9,8-9.1c4.6-5.8,6.3-12.4,9.4-18.8c1.6-3.3,2.5-7,2.5-10.8c0-3.4-1.6-5.4-4.2-7.3
		c-3.6-2.7-9-0.3-12.8,1.1c1,0.6,2.4,1,3.1,2.1c0.5-0.8,0.9-1.6,1.5-2.3c-0.1,0.2-0.2,0.4-0.3,0.6"/>
	<path class="st0" d="M155.2,403.8c2.2,0.6,4.6,0.4,6.7-0.4c0.3-1.4,1.2-2.5,2.1-3.6c0.1-0.1,0.2-0.3,0.4-0.4c0.2-0.1,0.4-0.1,0.6,0
		c0.5,0.1,1.1,0.2,1.6,0s1-0.7,0.8-1.2"/>
	<path class="st0" d="M205.8,287.7c0.9,0.6,0.3,2.3-0.8,2.3c-0.7,0-1.3-0.6-1.7-1.2c-2.3-3.1-3.8-6.9-4.2-10.8
		c0.6,0.4,1.2,0.8,1.8,1.3c0.2,0.1,0.4,0.3,0.6,0.2c0.6-0.1,0.4-0.9,0.2-1.4c-1.3-2.8-1.9-5.9-1.4-8.9c0.5-3,2.2-5.9,4.8-7.5
		c0.2,2.3-1.3,4.4-1.8,6.6c-0.8,3.9,1.2,7.8,1.2,11.8c-0.1-0.3-0.2-0.6-0.3-0.9"/>
	<path class="st0" d="M208.6,259.6c0.7-1.1,1-2.4,2-3.2c1.3-1.1,3.3-1,4.8-0.3c0.6,0.3,1.2,0.6,1.5,1.3c-1.1-0.2-2.2-0.4-3.3-0.5
		c-0.4-0.1-0.7-0.1-1.1,0c-1.2,0.3-1.6,2.1-2.8,2.4c1.7-0.9,3.6-1.6,5.5-1.9c0.4-0.1,0.7-0.1,1.1,0c0.9,0.2,1.3,1.2,1.4,2
		c0.1,1.4-0.5,2.9-1.6,3.8c-0.2-1.3-1-2.6-2.1-3.3c0.9-0.8,2.2-0.9,3.4-0.9c0.6,0,1.1,0,1.7,0c0.7,0,1.3,0,2,0.1
		c2.1,0.4,3.6,2.3,4.6,4.2c0.9,1.9,1.5,4.1,2.6,5.9c0.2-4.8-2.9-9.5-7.3-11.3"/>
	<path class="st0" d="M212.9,280.6c0.5,0.5,1.6,0.2,1.7-0.5c-0.7,0.1-1.4,0.3-2,0.6c-0.2-0.7,0-1.5,0.6-1.9c0.6-0.4,1.4-0.5,2-0.1"
		/>
	<path class="st0" d="M209.2,276.4c-0.2-1.4,0.9-2.6,2.2-3.1c1.3-0.5,2.7-0.4,4-0.2c-0.2,0.4-0.7,0.5-1.2,0.4s-0.9-0.2-1.3-0.3
		c-0.8,0-1.5,0.4-1.8,1.2c-0.1,0.2-0.1,0.3-0.3,0.4c-0.1,0.1-0.4,0-0.4-0.1"/>
	<path class="st0" d="M222.1,272.4c0.8-0.9,1.6-1.8,2.8-2c1.4-0.2,2.8,0.9,2.9,2.3c-0.7-1.1-2.3-1.5-3.4-1"/>
	<path class="st0" d="M223.9,278.5c0.7-0.9,2-1.2,3.1-0.9c0.2,0.4,0,0.9-0.4,1.1c-0.4,0.2-0.9,0.1-1.1-0.2"/>
	<path class="st0" d="M221.6,276.9c0.8,2.8,1.6,5.5,2.4,8.3c0.3,1,0.6,2.2,0,3.2c-0.5,0.9-1.7,1.2-2.7,0.9c-1-0.3-1.8-1-2.5-1.8"/>
	<path class="st0" d="M217.4,292.6c2.3,0.1,4.7-0.4,6.8-1.4c-0.8,1.9-2.9,3.1-4.9,2.8"/>
	<path class="st0" d="M214.3,294.9c1.4,1.6,3,3,4.8,4.2c0.4,0.3,0.9,0.5,1.3,0.6c0.4,0.1,0.8,0,1.2-0.1c1.8-0.5,3.6-1.6,4.4-3.3
		c-0.1,0.3-0.3,0.5-0.4,0.8"/>
	<path class="st0" d="M210.1,292.2c0.9,1.3,1.8,2.6,2.8,3.9c0.5,0.7,1,1.5,1.7,2.1c0.8,0.7,1.7,1.1,2.6,1.7c0.8,0.6,1.5,1.4,2.3,1.9
		c0.8,0.6,1.8,1,2.8,0.7"/>
	<path class="st0" d="M230,273.5c-0.5,0.1-0.7-0.7-0.4-1s0.9-0.2,1.2,0.2c0.3,0.4,0.4,0.8,0.5,1.3c0.4,1.9,0.8,3.8,0.8,5.8
		c0,0.7,0,1.5-0.4,2.1c-0.3,0.4-0.7,0.7-0.9,1.1c-0.3,0.4-0.3,1-0.4,1.5c-0.3,2.7-0.6,5.4-1,8c-0.1,1-0.2,2.1-0.1,3.1
		c0.1,0.5,0.2,1,0.2,1.4c0,0.5-0.2,1-0.5,1.4c-1,2-2.4,3.7-4.2,5c-0.8,0.6-1.7,1.1-2.4,1.9c-0.7,0.8-1.1,1.9-0.6,2.8
		c0.5,1,1.8,1.4,2.9,1.4c-0.6,4.7-0.7,9.4-0.4,14.1c2.2-0.2,4.3,1.9,4.2,4.1c0.5,0,1,0,1.5,0c-0.4-5.3-0.3-10.5,0.3-15.8
		c-3.3-0.4-3-6.4-6.3-7.2"/>
	<path class="st0" d="M208.2,299.6c4,2.4,7.4,4,12.1,4.7c0.3,0,0.5,0.1,0.7,0.3c0.1,0.1,0.2,0.4,0.2,0.5c0.3,1.8-0.5,3.6-1.3,5.2
		c-0.5,1-0.9,2-1.4,2.9c-1.5,0.1-2.8-1.3-3.7-2.5c-1.5-2-3-4.1-4.4-6.1c2.6,4.3,4.8,8.9,6.5,13.7c0.8,2.4,1.5,4.8,2.7,7"/>
	<path class="st0" d="M205.5,324.7c0.3-0.5,0-1.1-0.3-1.5c-1.1-1.3-2.4-2.5-3.9-3.4c-0.2-0.1-0.5-0.3-0.5-0.6c0-0.3,0.2-0.5,0.4-0.6
		c0.9-0.7,1.8-1.3,2.6-2c-1.2-1.3-2.4-2.6-3.6-3.9c-0.3-0.3-0.6-0.7-0.8-1.1c-0.3-0.8,0.1-1.6,0.5-2.4c1.4-2.6,2.9-5.1,4.7-7.5
		c0,0.2,0,0.5-0.1,0.7"/>
	<path class="st0" d="M168.3,353.1c-0.2-2.3,2.3-3.9,3.7-5.7c1.4-1.8,1.8-4.2,2.3-6.5c0.6-3,1.3-6,2.2-8.9c0.7-2.4,1.5-4.9,3.6-6.3
		c-0.1-3.5,0.3-7,1.1-10.3c0.4-1.5,0.9-3,1.9-4.2c1.6-1.8,4-2.5,6.4-3.1c2.6-0.7,5.1-1.1,7.3-2.5c2.6-1.7,5.6-2.9,8.4-4.2
		c0.3-0.1,0.6-0.3,1-0.3c0.7-0.1,1.6,0.1,1.9-0.6c0.1-0.2,0-0.4,0-0.6c-0.2-2.6-0.5-5.2-0.7-7.9c0-0.1-0.1-0.3-0.2-0.3
		s-0.1,0.3,0,0.2"/>
	<path class="st0" d="M196.9,335.6c-0.3,3.3-0.4,6.7-0.2,10c0.2,3.2,0.8,6.7,3.5,8.4c1.7-3.5,2.4-7.6,1.7-11.4
		c0.9,2.6-1.1,5.8-3.8,6.2c0.2,1,1.6,1.3,2.5,0.8s1.3-1.5,1.8-2.4c0.6-1.3,1.2-2.6,1.8-4c-0.5-0.3-0.9-0.6-1.4-0.9
		c2.8,0.6,5.7,0.5,8.4-0.1c0-0.6,0-1.2,0-1.8c1.6,0.7,3.5,0.6,5-0.3c0.9-0.8,0.5-2.5-0.7-2.8c0.7,0.9,2,1.4,3.1,1.1
		c1.1-0.3,2-1.3,2.2-2.4c-0.9,0.1-1.9,0-2.7-0.4c1.1,0.2,2.3,0.4,3.3-0.1s1.6-1.9,1-2.8c1.3,0.5,3,0,3.7-1.2c-1.3-2.2-4.1-3-6.6-3.4
		c-4.1-0.7-8.3-1.3-12.5-1.8c-0.5-0.1-1-0.1-1.5,0.1c-0.4,0.1-0.7,0.4-1.1,0.7c-2.4,1.9-4.9,3.9-7.3,5.8c0.4-0.2,0.8-0.5,1.2-0.7"/>
	<path class="st0" d="M214,335.7c-0.3-0.6-0.5-2.8,0.8-2.5c1.5,0.3,0.3,3.2-0.7,3.5c-0.7,0.2-1.6-0.3-1.6-1.1"/>
	<path class="st0" d="M145.6,356.3c-0.6,2.3-1.3,4.7-1.9,7c4.8,1,9.8,1.2,14.6,0.6c0.8-0.1,1.6-0.2,2.4,0c0.9,0.2,1.6,0.9,2.4,1.3
		c1.7,1,3.9,0.9,5.8,0.2c1.9-0.7,3.5-1.8,5.2-3c1-0.7,2-1.4,2.5-2.5c0.7-1.5,0.3-3.4-0.8-4.6c-1.1-1.3-2.7-1.9-4.4-2.2
		c-1.2-0.2-2.7,0-3.4,1c-0.5,0.6-0.8,1.6-1.6,1.4c-0.4-0.1-0.6-0.4-0.8-0.8c-0.4-1-0.2-2.2,0.4-3c-0.4,1.4-1.5,2.6-2.8,3.2
		c0.6-1.2,1.2-2.3,1.9-3.5c-1.9,0.7-3.4,2.2-4.3,4c-0.5-1.8,0.2-3.9,1.8-4.9c-2,0-4,0.9-5.3,2.4c0.4,0.6,0.8,1.1,1.2,1.7
		c-1.1,0-2.3,0-3.4,0c-0.1-0.4-0.3-0.8-0.4-1.1c-1.8-0.7-3.6,1-4.8,2.5"/>
	<path class="st0" d="M143.2,347.7c-0.2,0.5-0.2,1.1,0,1.6c0-0.6,0-1.2,0-1.8c0-0.4,0.3-1.1,0.7-1.1c5-0.5,10.2-0.7,15,0.9
		c0.2,0.1,0.3,0.1,0.4,0.3c0.2,0.4-0.3,0.8-0.7,0.9c-2.3,0.7-4.8,0.7-7.1,0.1c-1.4-0.4-2.9-1-4.4-0.9c-1.1,0.1-2.1,0.6-3.1,1.2
		c-0.3,0.2-0.7,0.4-0.9,0.7c-0.2,0.4-0.1,1,0,1.5c0.7,2.2,2.1,4.3,4,5.6c-0.1-0.8-0.5-1.6-1.1-2.2"/>
	<path class="st0" d="M221.2,353.5c-0.4-0.8-0.6-1.9-0.2-2.7c0.4-0.8,1.7-1.3,2.4-0.6c0.3,0.3,0.4,0.6,0.5,1c0.2,0.5,0.3,1.2,0,1.7
		c-0.2,0.5-0.9,0.9-1.4,0.5c0-0.5,0.1-1.1,0.5-1.5"/>
	<path class="st0" d="M218.5,338.6c3.3,2.7,6.3,5.8,9,9.1c0.4,0.6,1.1,1.2,1.7,1c-1.2-2.7-1.9-5.7-2.2-8.7c-0.1-0.8-0.2-1.7-0.8-2.2
		c-0.2-0.2-0.6-0.3-0.8-0.5c-0.3-0.3-0.3-0.7-0.5-1.1c-0.2-0.8-0.8-1.5-1.5-1.9"/>
	<path class="st0" d="M227.9,354.2c2-5.9,1-12.4,2.4-18.5c0.4-1.6,0.8-3.6-0.5-4.6"/>
	<path class="st0" d="M241.2,330.3c-1.7,1.5-2.5,3.8-3.8,5.7c-1.9,2.8-5,4.9-5.8,8.1c0,0.1,0,0.2,0,0.2s0.1-0.1,0-0.1"/>
	<path class="st0" d="M236.9,322.4c-2.3,0.6-4.2,2.7-4.5,5.1c-0.1,0.6,0,1.3,0.5,1.7c0.3,0.2,0.7,0.3,1,0.3c1.7,0.2,3.5-0.1,4.7-1.2
		c1.2-1.2,1.4-3.4,0-4.4c-0.4-0.3-1-0.5-1.5-0.5c-1.7-0.3-3.5,0-4.8,1.1c-1.2,1.2-1.5,3.4-0.1,4.5c-1.5,1-3.5,1.2-5.1,0.4
		c3.4,1.8,7.4-1,11.2-0.9c0.5,0,1,0.1,1.5-0.1c1.1-0.5,0.9-2.1,0.6-3.2c-2-6.7-4.9-13.1-8.5-19.1c2.5,3.2,4.4,6.8,5.6,10.7
		c1.3,4.2,1.7,8.6,3.8,12.5c2.2-3.7,4-7.7,5.3-11.9c0.1-0.4,0.2-0.8,0.2-1.2c-0.2-0.9-1.2-1.3-2.1-1.6c-0.9-0.3-1.9-1-1.6-1.9
		c0.9,0.9,2.6-0.3,2.5-1.5c0-1.3-1-2.3-2-3.1c-3.9-3.6-7.9-7.2-11.8-10.8c2.5,3.1,6.1,5.1,9.8,6.3c3.8,1.2,7.7,1.7,11.6,2.2
		c0.1,1.2-0.3,2.4-0.8,3.6c-3.3,8.4-9.4,15.3-13.6,23.3c-0.7,1.4-1.2,3.5,0.2,4.2c0.5,0.3,1.1,0.2,1.6,0.2c1-0.1,2-0.1,3-0.2
		c-0.2-0.8-0.9-1.5-1.7-1.8"/>
	<path class="st0" d="M230.2,312.3c-0.1-0.6,0-1.3,0.2-1.9"/>
	<path class="st0" d="M254.6,305.6c2.1-5,3.4-10.2,4.1-15.5c6.4,1.2,13,1.7,19.5,2.2c2.3,0.2,4.6,0.4,6.8,0.1
		c3.9-0.4,7.7-2.1,11.5-1.4c-0.8,2.6-1.6,5.3-2.4,7.9c-1.7,5.6-3.4,11.2-5.1,16.8c-0.8,2.6-1.6,5.2-2.4,7.8
		c-0.5-1.3-1.9-2.2-3.3-2.1c-0.2,1.3,0.4,2.6,1.4,3.3c-1-0.5-2-0.9-3.1-1.4c-1.3-0.6-3.1-1.1-4,0c-0.6,0.8-0.5,2,0.1,2.8
		c0.6,0.8,1.5,1.3,2.4,1.8c1.1,0.6,2.2,1.2,3.3,1.8c-3.8-1.1-8-1-11.8,0.1c2.1,1.2,4.3,2.2,6.6,3.1c-0.7-0.2-1.5-0.4-2.2-0.1
		c-0.7,0.3-1.2,1.2-0.8,1.8c0.2,0.2,0.5,0.4,0.7,0.5c1.4,0.7,2.8,1.4,4.3,2.1c-0.6,1-1.2,1.9-1.7,2.9c-3.9-2.3-8.4-3.5-12.9-4.1
		c-6.7-0.9-13.6-0.5-20.2,1.1"/>
	<path class="st0" d="M275.6,347c-0.7-1.6-1.2-3.3-1.4-5.1c-0.8,1.6-0.2,3.5,1.1,4.7s3.1,1.7,4.8,1.7c1.8,0,3.9-0.6,4.2-2.4
		c0.4-1.8-1.4-3.5-1.1-5.3c1.4,0.5,3.1,0.8,4.1-0.3c0.2-0.3,0.4-0.7,0.7-0.9c0.2-0.2,0.5-0.3,0.7-0.4c0.7-0.5,0.7-1.4,0.9-2.2
		c0.2-0.7,0.4-1.3,0.6-1.9c1.4-3.8,1.5-8.2-0.6-11.6"/>
	<path class="st0" d="M275.4,350.4c0,0.6,0.3,1.2,0.8,1.5c-0.7-1.4-1.6-2.9-2.3-4.4c0.3,1.2,0.8,2.4,1.5,3.6c0.2,0.4,0.5,0.7,0.8,1
		c0.8,0.5,1.9,0.3,2.8,0c2.3-0.6,5.2-0.7,6.8,1.1c0.3-1.5,0.2-3-0.2-4.4c-0.2-0.8-0.5-1.5-0.6-2.3c-0.1-1.2,0.2-2.4,0.6-3.5
		c2,2.7,3.1,6,2.9,9.4c0,0.2,0,0.3-0.1,0.4c-0.1,0.1-0.2,0.1-0.4,0.2c-0.5,0.1-1.1,0.3-1.6,0.4"/>
	<path class="st0" d="M240.2,360.4c0.4-6.9,4.3-13.2,5.7-20c0.8-4.1,0.8-8.5,2.9-12.1c0.9-0.1,1,1.2,0.8,2.1c-2,7-4,14.1-6,21.1
		c-0.9,3.2-1.8,6.3-3.3,9.2"/>
	<path class="st0" d="M263.5,361.3c2-9.7,4.2-19.3,6.6-28.8c0.4-1.5,0.8-3.1,2.1-4c0.1,3.4-0.9,6.7-1.8,9.9
		c-2.1,7.4-4.2,14.8-6.4,22.3c-2,0.3-4.1,0.7-6.1,1c-2.8,0.5-5.6,0.9-8.4,1c-2.8,0.1-5.6-0.2-8.3,0.1c-2.8,0.3-5.6,1.2-7.4,3.3
		c3.9,0.5,7.7,1.1,11.6,1.6c3.7,0.5,7.3,1,11,0.8c1.8-0.1,3.5-0.3,5.2-0.5c1.4-0.2,2.9-0.4,4.1-1.2c1.2-0.8,1.9-2.1,2.9-3.2
		c1.2-1.4,2.9-2.4,4.7-2.9c0.1,1.8,0.1,3.5-0.2,5.3c-0.1,0.5-0.2,1.1-0.5,1.5c-1,1.2-2.9,0.3-4.4,0.1c-1.8-0.2-3.6,0.6-5.4,0.8
		c-2.7,0.2-5.3-1.1-8-1.4c-2.2-0.2-4.4,0.2-6.6,0.2c-2.5-0.1-4.9-0.8-7.3-1.2c-2.8-0.5-5.6-0.6-8.4-0.8c-1,0.5-1.2,2.1-0.4,2.8
		c0.8,0.8,2.3,0.5,2.8-0.4"/>
	<path class="st0" d="M191.4,305.5c-0.7-13.5-1.5-27.1-0.1-40.5c0.2-2.3,0.6-4.6,2-6.4c0.7,1.5,2.1,3.2,3.6,2.6
		c1.1-0.5,1.7-2.2,2.9-2.1c-1.8-2.6,0.3-6.2,0.1-9.4c0.5-0.2,1-0.3,1.4-0.5c-0.8-6.6-0.8-13.4,0.1-20c-0.2,6.7-0.4,13.5,0.5,20.2
		c0.9-0.9,2.3,0.4,2.4,1.6c0.1,1.2-0.5,2.5-0.1,3.7"/>
	<path class="st0" d="M148.8,292.3c2.2,0.5,5.2,0.3,5.9-1.8c0.3-1,0.2-2.3,1.1-2.9c0.9-0.5,1.9,0.2,2.8,0.5c2.7,0.8,5.3-2.2,8-1.6
		c-0.3,3.3-0.4,6.7-0.4,10.1c2.9-0.5,5.8-0.8,8.8-0.9c0.6,0,1.2,0,1.7,0.2c1.6,0.6,2.1,2.6,2.3,4.3c1.8-0.5,3.6-0.8,5.4-1.1
		c0.6,2,0.7,4.1,0.3,6.1c-0.4-0.4-0.7-1-0.7-1.6"/>
	<path class="st0" d="M230.4,253c-0.3-8-0.7-16-1.2-23.9c0.6,0,1.1,0,1.7,0c-0.3-3.4-0.6-6.8-0.9-10.2c0-0.3,0-0.7,0.2-0.9
		c0.3-0.3,0.7-0.2,1.1-0.2c1.8,0,2.6-2.2,2.4-4c-0.2-1.8-0.9-3.6-0.2-5.2c2,0.3,4.4,0.3,5.4-1.4c0.4-0.8,0.4-1.7,0.3-2.6
		c-0.2-4.8,0.2-9.6,1.2-14.2c1.3-0.2,2,1.6,2,3c0.1,3.3,0.3,6.6,0.4,9.9c-0.3-0.3-0.6-0.5-0.9-0.8"/>
	<path class="st0" d="M243.9,303.4c1.9-8,2.8-16.2,4.5-24.2c1.5-6.9,3.7-13.7,5.8-20.5c1.9-6,3.8-12.1,5.8-18.1
		c2.3-7.2,4.6-14.4,5.8-21.8c0.4-2.4,0.8-5.1,2.6-6.7c0.2-0.2,0.4-0.4,0.5-0.6c0.1-0.2,0-0.5-0.1-0.7c-0.7-2.1-1.4-4.2-2.1-6.3
		c1,0.5,2.2-0.2,2.7-1.2c0.5-1,0.3-2.2,0.2-3.3c-0.2-1.6-0.8-3.6-2.4-3.8c0.5,0.6,1,1.1,1.6,1.7c0.2,0.2,0.4,0.4,0.7,0.4
		c0.2,0,0.4-0.3,0.5-0.5c2.3-3.7,4.1-7.7,5.3-11.9c-1.5,1.9-2.4,4.3-2.4,6.7c0.3-0.2-0.2-0.7-0.5-0.5c-0.3,0.2-0.3,0.6-0.4,1
		c0.8-2.5,1.7-5,2.5-7.5c-1-0.9-2.6,0.3-3.3,1.5c-1.9,3.1-3.5,6.4-4.7,9.8c0.6-1.7,1.1-3.4,1.7-5.1c-4.1-1.3-7.7-3.8-11.2-6.3
		c-0.7-0.5-1.4-1-1.4-1.8c-0.1-1,1-1.8,2-1.8c1,0,1.9,0.5,2.7,1c2.8,1.7,5.5,3.4,8.3,5.1"/>
	<path class="st0" d="M147.4,159.1c8.6,1.7,16.6,5.4,25.3,6.6c3.2,0.4,6.4,0.6,9.6,1.3c3.2,0.7,6.4,1.9,9.5,3
		c6.1,2.3,12.3,4.4,18.5,6.4c0.3,0.1,0.6,0.2,0.6,0.5c0,0.3-0.5,0.4-0.5,0.1"/>
	<path class="st0" d="M220.5,177.8c-1.9,1-3.9,1.7-6,2.1c-0.6,0.1-1.3,0.2-1.8-0.1c-0.4-0.3-0.7-0.8-0.8-1.3
		c-0.5-1.7-0.2-3.6,0.2-5.4c2.4-10.3,8.8-19.5,17.6-25.3c0.6-0.4,1.2-0.8,1.4-1.4c0.2-0.8-0.2-1.5-0.3-2.3c-0.3-1.2,0.1-2.5,0.4-3.7
		c0.6-2,1.2-4.1,2.2-5.8c0.4-0.6,0.8-1.2,1-1.8c1.5-0.4,3.1-0.9,4.6-0.5s2.9,1.7,2.8,3.2c-1.6-0.1-3.2-0.2-4.8-0.3
		c1.5,0.3,3,0.6,4.3,1.4s2.3,2.2,2.2,3.7c-2.2,0.3-4.5-0.1-6.6-1c0.9,1.2,2.6,1,4.1,1.1c1.5,0,3.3,0.9,3.1,2.3
		c-0.2,1.5-2.3,1.7-3.9,1.5c-1.3-0.2-2.5-0.3-3.8-0.5c2,0.3,4,0.7,6,1c0.4,0.1,1,0.3,1,0.7c0,0.5-0.6,0.7-1.1,0.8
		c-1.8,0.2-3.7,0.4-5.5,0.6c-0.3,2.6-0.4,5.3-0.2,8c0,0.4,0.1,0.9,0.5,1.2c0.5,0.4,1.2-0.1,1.6-0.5c1.8-2,2.1-5.2,0.6-7.5"/>
	<path class="st0" d="M214.7,126.6c-0.3-0.7-0.4-1.6-0.1-2.4c1.3,0.2,2.5-0.6,3.8-0.9c2-0.5,4.1,0.4,6.2,0.3
		c1.9-0.1,3.6-0.7,5.4-0.8c2.3-0.1,4.7,0,7,0c2.1,0,4.2,0,6.3,0c6.9,0,13.7,0.3,20.6,0.9c0.7,0.8,0.2,2-0.7,2.6
		c-0.9,0.5-1.9,0.5-3,0.4c-9.7-0.6-19.4-1.4-29,0.2c-5.5,0.9-11.4,2.6-16.4,0.2c-0.3,0.9,0.2,1.9,1,2.3s1.7,0.6,2.7,0.6
		c4.7,0.3,9.7,0.6,14-1.3c1-0.5,2.1-1,3.1-0.7c1.1,0.3,1.7,1.7,1.2,2.7c0.3-1,1.1-1.8,2-2.2c0.4,0.8,0.6,1.6,0.7,2.5
		c0.8,0,0.9-1.2,1.3-2c0.6-1.2,2.2-1.3,3.5-1.3c5.2,0.2,10.5,0.4,15.7,0.6c0.7,0,1.4,0.1,1.9,0.5s0.7,1.3,0.2,1.7
		c-2.5-0.5-5.1-1-7.6-1.5c-0.6-0.1-1.4,0-1.3,0.6c-0.4-0.1-0.7-0.2-1.1-0.4c0.3,0.9-1,1.5-1.8,1.3c-0.9-0.3-1.5-1-2.4-1.3
		s-2.1,0-2.1,0.9c-0.6-0.6-1.1-1.2-1.7-1.8c-0.7,0.2-1.2,1-1.1,1.7"/>
	<path class="st0" d="M245.2,108.3c-0.1-0.1-0.2,0.2-0.1,0.2c0.2,0,0.3-0.1,0.4-0.2c1.1-1.5,3.2-2.3,5.1-1.8"/>
	<path class="st0" d="M256.3,103.4c-0.2,0.5,0,1.1,0.3,1.6c0.4-0.5,0.5-1.2,0.3-1.8c-0.3,0.2-0.6,0.4-0.8,0.6
		c0.6-1.2,1.9-2.1,3.3-2.2c0.1,0.3-0.1,0.7-0.4,0.9c-0.2-0.2-0.2-0.5-0.1-0.8"/>
	<path class="st0" d="M254.8,101c-0.1,0.1-0.3,0-0.3-0.1c1-1.6,2.4-3.4,4.3-3.3c0.1,0,0.3,0,0.4-0.1s-0.2-0.2-0.2,0"/>
	<path class="st0" d="M243.1,105.1c-0.1-0.5,0.3-1.1,0.7-1.3c0.5-0.3,1-0.3,1.6-0.3c0.8,0,1.6-0.1,2.4-0.1c0-0.3-0.3-0.5-0.5-0.5"/>
	<path class="st0" d="M239.5,109.5c-0.1-2.8,1.2-5.8-0.3-8.2c-0.5-0.9-1.5-1.6-1.6-2.6c-0.1-0.9,0.5-1.8,1.3-2.3
		c0.8-0.5,1.8-0.6,2.7-0.7c2.8-0.3,5.7-0.2,8.2-1.6c1.6-1,4.4-4.8,6.5-4.4c2.1,0.4,3.9,6.4,4.3,8.2c0.4-3.3-1.2-6.4-2.8-9.3
		c-0.8-1.5-1.7-3-3.2-3.8c-1.9-1-4.2-0.5-6.2,0.2c-3.6,1.3-6.9,3.4-9.7,6c-2.3,2.1-4.2,4.7-4.9,7.8c-0.7,3,0.2,6.5,2.7,8.4
		c0.2,0.1,0.5-0.2,0.3-0.1"/>
	<path class="st0" d="M241.1,115.7c-0.1,0.3,0,0.7,0.2,1c-0.8,0.6-2,0.5-2.8-0.1s-1.3-1.5-1.8-2.4c-0.7-1.4-1.3-2.2-1.9-3.6"/>
	<path class="st0" d="M251.8,111.3c-0.3,1.2-1.1,2.2-1.8,3.3c-0.7,1.1-1.2,2.4-0.7,3.6c0.2-0.4,0.5-0.7,0.7-1.1"/>
	<path class="st0" d="M251.7,116c1.1-0.3,2.2,0.7,3.3,0.8c2,0.2,3.4-1.7,5.2-2.6c0.1-0.1,0.3-0.1,0.3-0.3c0-0.1-0.3-0.1-0.2,0"/>
	<path class="st0" d="M255.7,112.4c-0.9,0.3-1.8,0.5-2.7,0.2c-0.9-0.3-1.5-1.5-0.9-2.2"/>
	<path class="st0" d="M262.2,99.8c-0.4,0-0.5-0.7-0.1-0.9s0.8,0.1,1,0.4c0.2,0.4,0.2,0.8,0.2,1.2c0,4.7,1.9,9.4,1,14"/>
	<path class="st0" d="M241.3,116.4c1.4,1.6,2.7,3.2,3.9,4.9"/>
	<path class="st0" d="M253.3,131.8c2.5,3.3,5.1,6.6,7.8,9.8c0.5,0.7,1.1,1.3,1.9,1.7c0.8,0.3,1.8,0.2,2.7,0.4
		c0.9,0.1,1.9,0.6,2.1,1.5c-1.7-2.2-2.4-5.2-1.9-8c0.5-2.6,2.1-4.9,2.5-7.4c0.4-2.3-0.2-4.6-1.5-6.5c1.3-0.1,2.2-1.7,1.6-2.9
		c-0.4-0.8-1.3-1.2-1.9-2c-1-1.3-0.1-3.6,1.5-3.9c1.2-0.2,2.4,0.4,3.6,0.7c1.2,0.3,2.8-0.2,2.9-1.4c1.5,1.7,4.2,1.4,6.4,1.1
		c3.8-0.5,7.6-0.3,11.4-0.1c0.9,0.8,0.9,2.5,0,3.3c-0.3,0.3-0.7,0.5-1,0.8c-0.4,0.4-0.4,1-0.4,1.6c-0.5,8.3-1,16.7,0.5,24.8
		c0.3,1.6,0.6,3.2,0.2,4.8c-0.1,0.4-0.3,0.8-0.6,1c-1.2,0.8-2.6-1.3-4-1.1c-0.1,1.2-0.3,2.5-0.4,3.7c-1.8-1.5-4.9-0.6-6.4-2.3
		c-0.8-1-0.9-2.4-0.9-3.6c-0.5-9.9-6.9-19-6.8-28.9"/>
	<path class="st0" d="M299,141c-0.3,0.1-0.3,0.6-0.1,0.9c0.2,0.3,0.5,0.4,0.9,0.4c1.4,0.4,2.9,0.7,4.4,0.5s2.9-1.3,3.2-2.7
		c0.4,0.8,0.9,1.6,1.5,2.3c1.5-4.2,2.1-8.8,1.7-13.2c-0.1-1.4-0.4-2.9-1.6-3.6c-1.3-0.7-3.1,0-4.3-0.7c-1.2-0.7-1.4-2.4-2.4-3.5
		c-0.6-0.7-1.6-1-2.3-1.7c-0.7-0.6-1.1-1.8-0.5-2.5"/>
	<path class="st0" d="M315.7,131.1c0.4,0.2,0.9,0.4,1.3,0.6"/>
	<path class="st0" d="M310.6,129c4.5,1.2,8.9,3.1,13,5.5c1.2,0.7,2.5,1.5,3.9,1.8c1,0.2,2.1,0.2,3.1,0.6c2.2,0.9,3,3.4,4.4,5.3
		c2.9,4,8.4,5.1,13.3,4.4c2.3-0.3,5-0.8,6.4,0.9c0.2,0.3,0.4,0.6,0.7,0.9c0.6,0.5,1.4,0.3,2.1,0.4c1.6,0.1,3.2,1.3,3.6,2.9
		c0.4,1.6-0.7,3.5-2.4,3.7s-3.3-1.5-2.8-3.1c1.7,0.1,2.2,2.7,1,4c-1.1,1.1-3,1.3-4.2,0.4s-1.8-2.7-1.2-4.1c-1.4-0.9-3.5,0.7-3.4,2.4
		c0.1,1.7,1.8,3,3.5,3.2c-0.5,1-1.7,1.5-2.8,1.3c-1.1-0.2-2-1.1-2.2-2.2c-0.1,0.9-0.1,1.7-0.2,2.6c-1.4,0.1-2.5,1-3.6,1.8
		c-3,2.2-6.2,4.1-9.4,5.9c-1.6,0.9-3.2,1.9-4.9,2.8c-1.1,0.6-2.3,1.3-3.4,1.9c-1.8,0.9-3.7,1.7-5.6,2.5c-1.6,0.7-3.2,1.3-4.8,2
		c1.3-2.1,3.7-3.2,5.9-4.2c8.2-3.8,15.6-8.9,23.1-14c-0.7,0.1-1.3,0.2-2,0.3"/>
	<path class="st0" d="M309.4,141.2c1.4,1.7,2.9,3.4,4.9,4.4c1.4,0.7,3,1,4.4,1.7c1.1,0.6,2.1,1.3,3.1,2c5.4,3.3,12.7,2.9,17.4,7.2
		c-0.5,0-1.1-0.1-1.6-0.1"/>
	<path class="st0" d="M301,141.6c1,3.4,2.1,6.7,3.1,10.1c1.9,6.3,3.9,12.6,7,18.4c1.8,0.1,0.9,4.2,2.7,4.3"/>
	<path class="st0" d="M220,177.3c4.7-0.8,9.3-2.8,13-5.8c0.7-0.5,1.4-1.2,1.5-2.1c-1.4-0.1-2.9-0.2-4.3-0.3
		c-1.1-0.1-2.6,0.2-2.6,1.3c1.1-3.3,2.1-6.6,3.8-9.7c1.5-2.8,3.6-5.4,4.4-8.5c-0.3,1.4-0.7,2.7-1.4,3.9"/>
	<path class="st0" d="M258,180.2c0.6,0.1,1.3,0,1.9-0.1c-0.5-1.3-1.8-2.2-2.7-3.3c-1.6-2-2.1-4.6-2.5-7.1c-1.8,0.9-3.9-0.1-5.6-1.2
		c-1.7-1.1-5.9-5.6-7.6-4.8c-1.7,0.9-1.2,4.1-2.9,5.1c-1.1,0.6-2.4,0.4-3.5,1c0.3-0.2,0.6-0.4,0.8-0.7"/>
	<path class="st0" d="M287.9,193.2c0.1-0.2,0.2-0.4,0.4-0.5c0.3,0.6-0.5,1.4-1.1,1.1c0.7-0.3,1.5-0.6,2.2-0.9
		c-0.6-0.5-1.2-1-1.6-1.6c-0.4-0.7-0.6-1.5-0.3-2.2c2.4-1,4.8-2.1,7.4-2.4c0.7-0.1,1.3-0.1,1.9-0.4c0.3-0.1,0.5-0.3,0.8-0.4
		c0.7-0.2,1.5,0.2,2,0.7c1.4,1.4,1.7,3.9,0.5,5.5c-0.3,0.4-0.8,0.8-1.4,1c-1.1,0.3-2.3-0.4-3.2,0.1c-0.4,0.2-0.7,0.6-1.1,0.9
		c-0.5,0.4-1.1,0.5-1.7,0.7c-1.3,0.4-2.7,0.8-4,1.1c-0.3,0.4,0.3,1,0.7,1s0.9-0.4,1.3-0.7"/>
	<path class="st0" d="M307.6,182c0.8,0.9,1.4,2,1.8,3.2c0.1,0.4,0.2,0.8,0.5,1.2c0.3,0.3,0.8,0.5,1.1,0.2c0.3-0.3,0.3-0.7,0.2-1.1
		c-0.3-1.8-1.4-3.5-2.9-4.5c-0.1-0.1-0.2-0.2-0.3-0.3c-0.2-0.4,0.5-0.7,0.9-0.7c2.3-0.2,4.4-1.4,6.5-2.5c1.1-0.5,2.2-1,3.4-0.9
		c1.2,0.1,2.4,1,2.5,2.1c0,0.6-0.2,1.1-0.4,1.7c-0.4,0.8-0.8,1.5-1.4,2.1c-2.2,1.9-5.9,1-8.2,2.8"/>
	<path class="st0" d="M272.5,194.8c4.8,1.3,9.8,2.6,14.5,1.3c-0.5-0.3-1.1-0.7-1.6-1"/>
	<path class="st0" d="M274.3,189.1c4.1,1.2,8.4,1.4,12.6,0.4"/>
	<path class="st0" d="M298.8,186c2.2-1.7,4.7-3,7.4-3.5c-0.1,0.4-0.1,0.7-0.2,1.1"/>
	<path class="st0" d="M301,190.4c2-0.3,4-0.9,5.8-1.8c0,0.2,0,0.4,0,0.5"/>
	<path class="st0" d="M292.5,203.4C292.5,203.4,292.5,203.3,292.5,203.4c-1-2.6-0.8-5.4-0.6-8.1c0.2-3.3,0.5-6.6,1.5-9.7
		c0.4-1.3,1-2.5,1.9-3.5s2.3-1.6,3.6-1.5c1.4,0.2,2.6,1.2,3.6,2.2c-1.5,0.6-3.1,0.3-4.7,0.3c-1.6,0-3.4,0.5-4,1.9"/>
	<path class="st0" d="M309.3,201.3c-2.3-0.5-4.7-0.1-7,0.4c-2.2,0.5-4.5,1-6.7,1.4c-1.1,0.2-2.3,0.6-2.7,1.6c-0.2,0.5-0.1,1-0.1,1.4
		c0.6,6.6,1.3,13.1,1.9,19.7c0.1,0.8,0.2,1.7,0.9,2c0.4,0.2,0.9,0.2,1.4,0.2c5.4-0.5,11-2.5,16.2-0.8c1.3-3,0.3-6.5-0.6-9.7
		c-1.9-6.4-3.3-12.8-4.4-19.4c1.2,0.1,1,1.9,1.9,2.7c0.4,0.4,1,0.5,1.5,0.5c1.5,0.2,3.1,0.5,4.6,0.2c1.5-0.3,3-1.1,3.7-2.5
		c0.3,0.6,0.6,1.3,1,1.8c0.5-0.7,1.3-1.2,2.2-1.3c0,1.7,2.6,1.8,3.7,3.1c0.5,0.6,0.7,1.3,0.9,2.1c2.8,12.5,4,25.4,5.2,38.2
		c0.1,1.5,0.3,3-0.2,4.4c-0.8-2-2.3-3.7-4.1-4.9c0,1.2-0.1,2.4-0.6,3.4c-0.5,1.1-1.6,1.9-2.7,1.8c0,1.3-1.6,2.1-2.8,1.6
		c-1.2-0.5-1.8-1.9-1.7-3.2c0-1.3,0.6-2.5,1.1-3.6c-0.4-0.5-1.1-0.4-1.8-0.5c-2-0.3-2.8-2.8-2.8-4.8s0.3-4.3-1-5.9
		c-0.4,0.2-0.8,0.4-1.3,0.6c0-1.1,0.2-2.2,0.7-3.2"/>
	<path class="st0" d="M319.7,181.5c-0.3,0.6,0,1.4,0.3,1.9c0.4,0.6,0.9,1,1.4,1.5c1.6,1.8,2.2,4.3,2.7,6.7c0.4,2,0.8,4,1.2,6"/>
	<path class="st0" d="M273.7,291.8c2.7-5.9,2.9-12.5,3.9-18.9c2-12.8,7.4-24.9,13.5-36.3c1.5-2.8,3.7-5.9,6.8-5.9
		c1.8,0,3.5,1.2,4.6,2.6c1.1,1.5,1.7,3.2,2.3,4.9c2.1,6.2,4.2,12.4,6.4,18.6c1.4,4.2,2.9,8.4,3.8,12.7c0.7,3.3,1,6.7,1.8,10
		c1,4.1,2.5,8,3,12.1c0.5,4.4-0.2,9.1,1.4,13.2c0.5,1.4,1.3,2.6,2,3.9c2.1,4,3.1,8.4,4.2,12.7c-0.1-1.5-1.5-3.2-0.6-4.4
		c0.4-0.5,1.1-0.7,1.8-0.8c4.1-0.8,8.1-2.1,11.8-4.1c1.7-0.9,3.4-1.9,5.3-1.7c1.9,0.2,3.7,2.3,2.7,3.9c-0.3,0.6-0.9,1-1.5,1.3
		c-5.6,3.1-12.8,2.7-18.1,6.3c0.6-0.5,1.2-1,1.7-1.6"/>
	<path class="st0" d="M331,230.2c2.4,8.7,5.4,17.2,7.9,25.8c2,7.2,3.7,14.5,5.4,21.8c1,4.2,0.3,8.5-0.4,12.7
		c-0.8,4.8,2.1,9.6,1.1,14.4c0,0.2,0.1,0.4,0.3,0.6s0.2,0.5,0.1,0.6s-0.4-0.3-0.2-0.3"/>
	<path class="st0" d="M330.5,333.5c0.3,0.3-0.1,1-0.6,0.9s-0.8-0.5-0.9-1c-0.3-1.2,0.3-2.5,1.1-3.5c1.6-2.1,4.2-3.8,6.8-3.7
		c2.7,0,5.4,2.2,5.5,4.9c-0.2-1.1-1.3-1.7-2.3-2.1c-1.4-0.6-2.8-1.2-4.2-1.7c-0.9-0.3-1.8-0.6-2.7-0.2c-0.9,0.4-1.2,1.5-1.4,2.4
		c-0.4,1.8-0.5,3.7-0.5,5.5c1,0.2,1.9,0.4,2.9,0.6c0.3,0.1,0.5,0.1,0.8,0c0.2-0.1,0.3-0.3,0.4-0.4c0.7-1.1,1.5-2.3,2.2-3.4
		c0.1-0.2,0.3-0.5,0.3-0.7c0-0.3-0.1-0.5-0.3-0.8c-0.7-1.2-1.4-2.4-2.1-3.6c-1.9,0.6-3.8,1.1-5.7,1.4c-0.1-0.7-0.2-1.4-0.2-2.1
		c0-0.3,0-0.6,0.2-0.8c0.1-0.2,0.4-0.3,0.6-0.4c2.7-1.2,5.8-2.3,8.7-1.3c1.9,0.7,3.4,2.2,4.1,4c0.4,1.2,0.5,2.6,0.6,3.9
		c-0.1-0.2-0.1-0.3-0.2-0.5"/>
	<path class="st0" d="M379.7,348.1c-1.1-0.6-2.5-0.4-3.7,0.1c-2.5,1.1-4.4,3.7-4.6,6.5c0.5,1.3,0.7,2.7,1.3,4
		c0.6,1.3,1.6,2.5,2.9,2.8c-1.3,0.2-2.3,2-3.5,1.5c-0.4-0.2-0.6-0.5-0.8-0.8c-1.8-2.8-2-6.5-0.7-9.5c0.9-1.9,2.3-3.5,3.8-5.1
		c0.4-0.5,0.9-0.9,1.4-1.2c0.5-0.2,1.1-0.3,1.6-0.3c1.4,0,2.7,0.1,4,0.4c-0.6,0.5-0.5,1.4-0.6,2.1s-0.9,1.5-1.5,1.1
		c-0.3,1.6-0.4,3.4,0.6,4.8c1.1,1.5,3.2,1.9,5.1,1.9c2.2-0.1,4.5-0.7,6.1-2.2c1.6-1.5,2.4-4.1,1.3-6c-0.3-0.6-0.7-1.1-0.9-1.7
		c-0.4-1.5,1.1-2.9,2.4-3.7c0.1,1,0.2,2,0.3,2.9c-0.4-1-0.5-2.1,0-3s1.8-1.4,2.7-0.9c0.5,0.3,0.8,0.8,0.8,1.4c0,0.9-0.5,1.9,0.2,2.4
		c0-1.1,1.5-1.4,2.6-1.4c2.4,0.1,4.8,0.4,7.1,0.9c0.5-0.8-0.6-2.1,0.1-2.7c0.2-0.1,0.4-0.2,0.6-0.2c1.1-0.1,2.3,0.5,2.8,1.5
		c0.5,0.9,0.4,2,0.6,3c0.2,1,0.7,2.1,1.7,2.2c0.3-0.8,0.6-1.5,0.9-2.3c-0.2,1.3-0.3,2.6-0.5,3.9c0,0.4-0.1,0.7,0.1,1.1
		c0.1,0.3,0.4,0.5,0.7,0.7c1.9,1.2,4.1,2,6.3,2.3c1.2-2.1,0.7-4.8,0.2-7.2c-0.2-1.1-0.5-2.3-0.9-3.3c-1.1-2.5-3.3-4.3-5.8-5.4
		c-2.5-1.1-5.2-1.5-7.9-1.8c-4.4-0.5-9-0.5-13.2,0.9c-1.4,0.5-2.7,1.1-4,1.8c-2.5,1.2-5.1,2.5-7.6,3.7c0.5-0.1,1-0.1,1.5-0.2"/>
	<path class="st0" d="M380.5,364.1c-0.6,0.6-3.1-1-3.8-1.3c-0.3-0.1-0.6-0.2-0.8-0.5c-0.2-0.2-0.2-0.6-0.3-0.9
		c-0.2-1.3-0.3-2.5-0.5-3.8c0.2,0.8,1.2,1,2,0.8s1.4-0.7,2.2-1c1.2-0.4,2.4,0,3.6,0.3c4.9,1.3,9.8,2.4,14.8,3.1
		c0.2,0,0.4,0.1,0.6,0.2c0.2,0.2,0.2,0.4,0.2,0.7c0,1.7-0.3,3.4-0.8,5c-2.5,1.3-5.5,0-8.1-1c-3-1.1-6.2-1.8-9.4-2.1
		c0.6,0,1.2-0.1,1.8-0.1"/>
	<path class="st0" d="M411.7,360.7c1.4,0,2.7-0.1,4.1-0.1c0.8-0.1,1.6-0.3,2.4-0.4c1.2-0.2,2.7-0.1,3.1,1c0.4,1.4-1.9,2.9-1.1,4.1
		c-2.8,0.4-5.6,0.1-8.3-0.8c1.2,0.3,1.2,2.2,2.2,2.9c0.4,0.3,1,0.3,1.6,0.2c1.2-0.2,2.2-1,3.3-1.3c1.2-0.3,2.4-0.2,3.5-0.7
		c1.1-0.5,1.8-2.2,0.8-2.9c0.9,0.8,1.2,2.2,0.8,3.3c-0.4,1.1-1.6,2-2.8,2c-1.3,0.1-2.5-0.6-3.7-0.7c-1-0.1-2,0.3-2.9,0.4
		c-1,0.1-2.1,0-2.8-0.7c-0.2-0.3-0.4-0.6-0.7-0.7c-0.3-0.1-0.6,0.1-0.8,0.2c-2.3,1.2-5,0.4-7.5-0.3c-1.4-0.4-3-0.6-4.1,0.4
		c0-1.7-0.1-3.3-0.1-5c1.7-1.5,4.3-1.1,6.5-0.7c2.3,0.5,4.6,1,6.8,1.4c-0.8-0.5-1.6-1-2.4-1.5"/>
	<path class="st0" d="M390.2,355.4c-0.2-0.2-0.4-0.5-0.6-0.7c1.1,1.4,2.5,2.6,4.1,3.5c0.6,0.4,1.4,0.7,2.1,0.4
		c0.6-0.3,0.9-0.9,1.5-1.1c0.6-0.3,1.4,0,1.9,0.5c0.5,0.5,0.7,1.1,1,1.8c2-0.8,4.4,0,6.4-0.8c0.7-0.3,1.3-0.8,2.1-1
		c1.9-0.7,4.1,0.3,6-0.4c0.2-0.1,0.4-0.2,0.5-0.4c0.1-0.2,0-0.4,0-0.6c-0.2-0.7-0.3-1.4-0.5-2.1c-0.3,0.1-0.7,0.1-1,0.2"/>
	<path class="st0" d="M401,351.3c-0.4-1-0.6-2.2-0.4-3.3c0-0.2,0.1-0.4,0.2-0.5c0.2-0.2,0.6-0.2,0.9-0.2c1.4,0,2.9,0,4.3,0.1
		c0.4,0,0.8,0,1.2,0.2c0.4,0.2,0.7,0.6,0.9,1c0.4,0.6,0.7,1.4,0.4,2.1c-1.4,0.2-2.9,0.2-4.3,0c0,0.2-0.1,0.4-0.1,0.5"/>
	<path class="st0" d="M330.6,365.5c-1.4-1.1-2.5-2.5-3.3-4.2c7.1-1,14.2,2.4,21.4,1.7c1.8-0.2,3.5-0.6,5.3-0.6s3.6,0.7,4.6,2.2
		c0.4,0.6,0.6,1.4,0.7,2.1c0.2,1.5-0.3,3.5-1.8,3.8c-0.5,0.1-1,0-1.4-0.1c-3.8-0.6-7.7-0.5-11.4,0.4c-1.4,0.3-2.8,0.8-4.2,0.9
		c-1.4,0.1-2.8-0.1-4.2-0.3c-3.1-0.5-6.1-1.1-9.2-1.8c0.4-0.8,0.5-1.7,0.2-2.6c0.8,0,1.7-0.1,2.5-0.1c0.3,0,0.6,0,0.9-0.2
		c0.5-0.4,0.4-1.2,0-1.6c-0.4-0.4-1.1-0.6-1.7-0.7c0.4-0.6,1.3-0.9,1.9-0.6"/>
	<path class="st0" d="M345.2,381.3c0.1,1.3-0.1,2.7-0.7,3.9c-0.2-1.2,0.2-2.6,1.1-3.5c0.2-0.2,0.4-0.3,0.6-0.3
		c0.3,0,0.4,0.3,0.5,0.5c0.4,1,0.2,2.3-0.6,3.1c0.1-0.2,0.3-0.4,0.4-0.5"/>
	<path class="st0" d="M349.5,382.1c-0.5,0.5-0.7,1.2-0.6,1.9c0,0.3,0.2,0.7,0.4,0.8c0.4,0.2,0.9,0,1.3-0.2c0.4-0.2,0.8-0.5,1-0.9
		c0.2-0.4,0.1-1-0.3-1.2s-1,0.4-0.7,0.7c0.5,0.4,1.2,0.2,1.7-0.3c0.4-0.4,0.7-1,1.2-1.5s1.3-0.6,1.7-0.1c0.4,0.6,0,1.3-0.3,2
		c-0.3,0.7-0.4,1.6-0.2,2.3c0.3-0.7,0.3-1.4,0.5-2.1c0.2-0.7,0.8-1.4,1.5-1.4c0.6,0,1.1,0.6,1.2,1.1c0.2,0.6,0.1,1.2,0,1.8
		c0-0.6-0.1-1.3,0.1-1.8c0.2-0.6,0.8-1.1,1.4-1.1c0.8,0.1,1.3,1.2,0.8,1.8c0.1-0.3,0.3-0.6,0.6-0.8c0.3-0.2,0.8-0.1,0.8,0.3
		c0.2-0.4,0.6-0.7,1.1-0.8c-0.1,0.6,0.3,1.3,0.8,1.6c0.7-0.8,1.3-1.7,1.8-2.6c-0.7,1.1-0.7,2.5-0.1,3.6c1.2-0.7,1.5-2.4,0.6-3.5
		c-0.1,0.9,0.1,1.8,0.6,2.6c0.1,0.2,0.2,0.4,0.4,0.4c0.5,0.2,1-0.3,1.2-0.8c0.4-0.8,0.8-1.6,1.2-2.4c0.6,1,0.8,2.2,0.6,3.3
		c0.4-1,1.1-2.2,2.2-1.9c0.2,0.8,0.1,1.6-0.1,2.3c0-0.3,0.1-0.7,0.1-1"/>
	<path class="st0" d="M379.7,383.8c0.2-1,1.1-1.8,2.1-1.9c0,0.8,0,1.6,0,2.4c0,0.3,0,0.6,0.2,0.7c0.3,0.3,0.8,0,1.1-0.2
		c0.9-0.7,1.8-1.6,2.5-2.6c-0.4,0.7-0.5,1.6-0.3,2.4c0.1,0.2,0.1,0.5,0.4,0.5c0.2,0.1,0.3,0,0.5-0.1c0.7-0.4,1.1-1.4,0.6-2.1
		c-0.5-0.7-1.8-0.5-1.9,0.3c2-0.3,4.1-0.6,6.1-0.9c-0.6,0.8-1,1.8-1.3,2.8c0.4,0.6,1.4,0,1.9-0.6c0.9-1.1,1.9-2.2,2.8-3.4
		c-0.4,1.7-0.7,3.3-1.1,5c-0.2-1.4,1-2.8,2.4-2.9c-0.1,1.2,0,2.5,0.3,3.6c1.1-1.5,2.3-3,3.4-4.5c-0.2,0.7-0.4,1.5-0.3,2.2
		c0.1,0.7,0.7,1.5,1.5,1.5c0.6,0,1.1-0.4,1.5-0.9c0.7-0.8,1.1-1.8,1.2-2.8c-0.3,1.1-0.4,2.3-0.2,3.4c0.9,0.3,2-0.1,2.6-0.8
		c0.7-0.7,1-1.6,1.4-2.6c-0.9,0.5-1.5,1.6-1.3,2.6c0.2,1,1.2,1.9,2.2,1.8c0.6-0.1,1.1-0.4,1.5-0.7c1.7-1.3,3-3,3.8-4.9
		c-0.2-0.3-0.7-0.3-1-0.1s-0.4,0.7-0.5,1.1c-0.3,1.6-0.1,3.3,0.5,4.8c1.9-0.5,3.5-2.3,3.7-4.3c-0.7,1.2-0.8,2.7-0.3,3.9
		c1-0.2,1.8-1.4,1.6-2.4"/>
	<path class="st0" d="M97.7,30.7c-3.3,36.8-4.6,73.8-4,110.8c0.2,12.7,0.7,25.3,1.8,38c0.9,9.2,2.1,18.3,2.8,27.5
		c1.6,22.5-0.2,45.1-2,67.5"/>
	<path class="st0" d="M131.7,337.9c1.5-2.5,6.3-1.5,6.6,1.5c0.3-3.4,2.5-6.6,5.7-8c0.8,1.1,1.7,2.2,2.5,3.2
		c3.2-2.4,7.5-3.2,11.3-2.1c-5.2-5.2-6.3-13.2-7-20.6c-9.5-96-11.7-192.8-6.7-289.1c0.1-2.2,0.1-4.8-1.5-6.3c-2.3-2.1-5.9-0.7-9,0
		c-7,1.5-14.1-1.7-21.3-2.3C105.1,13.6,96.1,18,97,25.2"/>
	<path class="st0" d="M375.2,341.1c0.4,0.7,0.6,1.5,0.6,2.2c-3.2-0.7-6.1-2.6-8-5.3c-1.3,1.6-2.3,3.4-3.1,5.3
		c-1.2-2.9-2.4-5.8-3.6-8.7c-1,2.9-2.7,5.5-5,7.4c-3.9-6.2-2.3-9.7-1.4-16.2c1.1-7.8,0.3-16.3,0.5-24.2c0.3-16.8,0.7-33.5,1.1-50.3
		c0.9-33.5,2-67.1,3.7-100.6c2.3-45.5,5.7-90.9,10.2-136.2c7.2,0.2,14.4,0.5,21.6,0.7c1.3,0,2.6,0.1,3.7,0.6c1.1,0.5,2,1.4,3,2.1
		c2.2,1.5,4.9,1.8,7.4,2.7c3.6,1.2,6.7,3.6,8.9,6.7c3.6,32.8-2.6,65.9-3.9,98.9c-1.3,31.6,1.9,63.1,3.4,94.7
		c1.9,39.3,1.4,78.7-1.7,117.9c-1.2-1.8-2.4-3.7-3.5-5.5"/>
	<path class="st0" d="M155.6,34.6c0.5,0,1,0,1.6,0C156.6,34.6,156.1,34.6,155.6,34.6"/>
	<path class="st0" d="M142.3,35.1c17.8,1,36.2-1,54.1-0.8c19.4,0.3,38.9,0.7,58.2-0.9c5-0.4,9.9-0.9,14.9-1c3.5,0,6.9,0.2,10.4,0.3
		c9.5,0.5,19,1.1,28.5,1.6c19.4,1.1,38.7,2.1,58,4.2c-0.5-0.6-1-1.2-1.6-1.7"/>
	<path class="st0" d="M293.3,289c-0.6-1.8-0.4-3.8,0.6-5.4c1.3,1.9,4.5,1.1,5.9-0.8c1.3-1.9,1.4-4.3,2-6.6c2.3,1.1,5.3-0.2,6.1-2.6
		c0.5-1.3,0.5-3.2,1.8-3.7c1.3-0.5,3.4,0.7,4.1-0.6"/>
	<path class="st0" d="M73.3,405.9c0.5-0.1,0.5-0.9,0.1-1.2c-0.4-0.3-0.9-0.2-1.4-0.2c-3.7,0.2-7.4-1.7-10-4.4
		c-2.6-2.7-4.3-6.2-5.7-9.6c-1-2.5-1.9-5.1-1.6-7.7c0.4-3.4,2.8-6.2,5.6-8.1s6.2-2.8,9.4-3.7"/>
	<path class="st0" d="M50,516.1c8.2-36.5,1.3-75.5,12.6-111.1c0.5,1.3,1.9,2.2,3.3,2.1c-2.3,9.3-2.6,19.1-0.6,28.4
		c2.7-3,5.4-6.1,8-9.1c-1.3,5.6-8.7,8.8-8.3,14.5c0.4,5.8,8,7.6,13.8,7.8c14.5,0.5,29.5,0.9,42.8-4.8c-0.4,1.3-0.8,2.5-1.3,3.8"/>
	<path class="st0" d="M99.5,523.9c-0.4-19.6-1.5-39.2-3.4-58.7c-0.5-5-0.9-10.4,1.8-14.6c4.7,9.9,3.2,21.5,2.3,32.5
		c-1.2,15.9-0.6,32,1.7,47.8c0.5-2.5-0.3-5.3-2-7.1"/>
	<path class="st0" d="M152.1,449.7c1.9,5.2,3.3,10.6,4.2,16.1c1,5.7,1.4,11.5,2.5,17.2c2.2,11.3,7,22.1,7.9,33.6c-1,0-2,0-2.9,0.1
		c1.1,0.5,2.2,0.6,3.4,0.5c0.5-5.8-1.9-11.3-3.6-16.8c-4.6-15.3-3.9-31.9-8.6-47.3c-0.4,1.3-0.8,2.6-1.1,3.9"/>
	<path class="st0" d="M72.1,474.4c1.4-7.8,2-15.8,1.8-23.7c0.8,7.9,0.9,15.9,0.2,23.8c2.1,2.7,6,3.3,9.4,3.5
		c3.5,0.2,7.2,0.2,9.9,2.3c0.3-0.8,0.5-1.6,0.8-2.4"/>
	<path class="st0" d="M106.9,449c-0.1-0.4-0.7-0.5-1.1-0.2c-0.3,0.3-0.4,0.8-0.4,1.2c-1.2,13.5-1.7,27.2-1.4,40.8
		c0,2.1,0.2,4.3,1.3,6c0.5-2.8,1-5.6,1.5-8.5"/>
	<path class="st0" d="M136.5,479c3.5,0.3,7.1-0.1,10.4-1.1"/>
	<path class="st0" d="M166.7,483.4c17.6,1.6,35.2,3.3,52.8,4.8c35.5,3.1,70.9,5.6,106.5,7.7"/>
	<path class="st0" d="M70.4,517.9c0-1.2,0-2.3,0-3.5"/>
	<path class="st0" d="M40.8,494.1c0.1-1,0.1-2,0.2-3c0,0.8-0.1,1.6-0.1,2.4"/>
	<path class="st0" d="M72.7,501.1c0-1,0-2.1,0-3.1C72.7,499,72.7,500,72.7,501.1"/>
	<path class="st0" d="M103.4,520.8c0-1.5,0-3.1,0-4.6"/>
	<path class="st0" d="M127.2,519.6c0.5-0.8,0.7-1.8,0.6-2.8C127.6,517.7,127.4,518.7,127.2,519.6"/>
	<path class="st0" d="M139.4,503.9c0.2-0.2,0.4-0.4,0.6-0.6"/>
	<path class="st0" d="M158,517.8c-0.3-0.6,0-1.4,0.5-1.7"/>
	<path class="st0" d="M200.3,513.3c0.8-1.6,1.5-3.1,2.3-4.7"/>
	<path class="st0" d="M229.9,521.4c0.2-0.8,0.4-1.5,0.6-2.3"/>
	<path class="st0" d="M46.1,458.2c-0.3-2.3-0.1-4.7,0.5-7"/>
	<path class="st0" d="M72.2,479c-0.8-0.9-0.9-2.5-0.1-3.5"/>
	<path class="st0" d="M236.2,516.7c0.2-1.5,0.4-3.1,0.6-4.6"/>
	<path class="st0" d="M221.7,503.9c0-0.9,0-1.8,0-2.7C221.7,502.2,221.7,503.1,221.7,503.9"/>
	<path class="st0" d="M276.7,506.3c0.3-1.1,0.8-2.2,1.5-3.2c-0.5,1.3-1,2.5-1.5,3.8"/>
	<path class="st0" d="M283.1,520.2c0-1.7,0-3.5,0-5.2"/>
	<path class="st0" d="M304.6,515.6c0.4-1,0.8-1.9,1.2-2.9"/>
	<path class="st0" d="M303.4,502.8c-0.2-0.7,0.2-1.6,0.8-1.9c-0.3,0.4-0.6,0.9-0.8,1.3"/>
	<path class="st0" d="M325.4,526.6c0.2-0.4,0.4-0.8,0.6-1.2"/>
	<path class="st0" d="M187.5,533.5c-0.4-0.8-0.3-1.8,0.1-2.6c-0.2,0.9-0.4,1.7-0.6,2.6"/>
	<path class="st0" d="M156.1,534.7c-0.2-1-0.4-1.9-0.6-2.9"/>
	<path class="st0" d="M321.9,534.7c0.3-0.4,0.5-0.9,0.8-1.3C322.5,533.8,322.2,534.2,321.9,534.7"/>
	<path class="st0" d="M317.9,516.7c0.2-1,0.4-1.9,0.6-2.9"/>
	<path class="st0" d="M240.2,555.5c0.2-1.7,0.4-3.5,0.6-5.2"/>
	<path class="st0" d="M104,550.3c0-0.6,0-1.2,0-1.8C104,549.1,104,549.7,104,550.3"/>
	<path class="st0" d="M56.5,548c-0.2-0.4-0.4-0.8-0.6-1.2"/>
	<path class="st0" d="M33.3,543.9c-0.6-0.5-0.8-1.4-0.4-2.1c-0.1,0.5-0.1,1-0.2,1.5"/>
	<path class="st0" d="M39.7,497c-0.2-0.4-0.4-0.8-0.6-1.2"/>
	<path class="st0" d="M370.5,542.2c0.1-1.5,0.8-2.9,1.8-4"/>
	<path class="st0" d="M395.7,520.1c-0.9-1.2,0-3.3,1.6-3.5"/>
	<path class="st0" d="M431.4,535.8c0.6-0.6,1.2-1.2,1.7-1.7"/>
	<path class="st0" d="M438.4,563.6c0.5,0,0.5-1,0-1"/>
	<path class="st0" d="M374.5,573.8c2.3-1.3,1.6-5.6-1-6.1"/>
	<path class="st0" d="M305.1,553.8c0-0.8,0-1.5,0-2.3"/>
</g>
<path class="st0" d="M129.9,362.1c25.5,5.1,51.2,8.6,77.1,10.3c12.6,0.9,25.2,1.3,37.8,1.8c9.3,0.3,18.7,0.7,28,1
	c17.2,0.6,34.4,1.2,51.6,0.2c4.5-0.3,9.1-0.7,13.6-0.5c5.9,0.2,11.7,1.2,17.6,2.1c19.8,2.9,39.9,3.1,59.8,0.8"/>
<path class="st0" d="M217.5,180c4.2-0.9,8.2,2.2,12.4,3.2c1.4,0.3,2.8,0.4,4.1,0.6c8.6,1,16.6,5.4,25.3,5.6c0.5-1-0.8-1.8-1.8-2.1
	c-4.1-1.3-8.3-2.4-12.6-3.3c-7.9-1.7-16.1-2.6-23.6-5.6"/>
<path class="st0" d="M142.1,155.4c11.7,2.8,23.5,5.5,35.2,8.3c10.5,2.5,21.2,5,30.9,9.7"/>
</svg>
