<?xml version="1.0" encoding="utf-8"?>
<!-- Generator: Adobe Illustrator 19.0.0, SVG Export Plug-In . SVG Version: 6.00 Build 0)  -->
<svg version="1.0" id="Layer_1" xmlns="http://www.w3.org/2000/svg" xmlns:xlink="http://www.w3.org/1999/xlink" x="0px" y="0px"
	 viewBox="0 0 488.9 297.9" style="enable-background:new 0 0 488.9 297.9;" xml:space="preserve">
<style type="text/css">
	.st0{fill:none;stroke:#000000;stroke-width:0.75;stroke-linecap:round;stroke-linejoin:round;stroke-miterlimit:10;}
</style>
<path class="st0" d="M45.1,271.6c-0.1,0.2,0.1,0.5,0.3,0.5c0-7.2-0.6-14.5-1.7-21.6c-0.7-4.5-1.7-9-1.9-13.5
	c-0.2-5.8,1-11.6,1.2-17.4c0.1-3.3-0.1-6.6-0.1-9.9c0-6.3,0.8-12.7,2.4-18.8c0.8-3.1,2.2-6.6,5.2-7.7c1.5-0.5,3.2-0.4,4.9-0.2
	c8.1,0.6,16.3-0.6,23.9-3.5c0.7-0.3,1.5-0.6,2.3-0.5c0.8,0.1,1.4,0.4,2.1,0.8c4.2,2.6,7.6,6.6,9.4,11.2c1.7,4.2,2,8.8,2.5,13.4
	c2.5,22.1,8.6,43.9,7.6,66c-0.1,1.5-1,3.5-2.3,2.9c-4.1-18-2.6-36.7-5.2-54.9"/>
<path class="st0" d="M57.7,271.7c-1.7-0.3-2.6-2.3-2.4-4c0.2-1.7,1.2-3.2,2.2-4.6c-1.3-1.1-2.5-2.2-3.2-3.7
	c-0.6-1.5-0.3-3.6,1.2-4.3c0.4-0.2,0.9-0.4,1-0.8c0.1-0.4-0.1-0.7-0.3-1.1c-0.7-1.1-1.5-2.2-2.2-3.3c-0.5-0.8-1.1-1.7-1.1-2.6
	c0-2,2.5-3.5,2.2-5.5c-0.3-1.5-2-2.3-2.4-3.7c-0.6-2.3,2.8-4.6,1.8-6.8c-0.4-0.9-1.5-1.5-1.6-2.5c-0.1-1.4,1.9-2.2,2.1-3.6
	c0.4-2.2-3.5-3.7-2.6-5.7c0.2-0.4,0.5-0.7,0.8-1c1.7-2,1.3-5.5-0.9-7c2.5-0.8,3.6-4.4,1.9-6.4c-0.8-1-2.3-2-1.8-3.2
	c0.5-1.3,2.9-1.1,3.4-2.5c0.6-1.7-2.8-3.4-1.6-4.8c0.4-0.5,1.3-0.5,1.7-1.1c0.5-0.6,0.1-1.5-0.4-2.1c-0.5-0.6-1.1-1.3-1-2
	c0.1-0.8,1.5-1.1,1.6-0.4"/>
<path class="st0" d="M65.5,272.8c-1.1-1.5-2.1-3-3.2-4.6c1.8-0.2,3.1-2.1,2.9-3.9c-0.2-1.8-1.7-3.3-3.4-4c1.7-0.5,3.7-1.6,3.4-3.3
	c-0.2-1.4-1.9-2-2.7-3.2c-1.1-1.6,0.2-4.2,2.2-4.3c-1.2-1.9-2.4-3.7-3.7-5.6c1.1-0.4,2.2-0.9,3.3-1.3c-1.8-1.6-3.2-3.6-4.1-5.8
	c1.8,0.3,3.6-1.6,3.5-3.4c-0.1-1.9-1.8-3.4-3.6-3.8c0.9-1.3,2.2-2.3,3.6-3c-0.9-1.1-1.7-2.3-2.6-3.4c-0.3-0.4-0.6-0.8-0.5-1.3
	c0.1-0.8,1.2-1,1.9-1.5c1-0.7,0.8-2.3,0.1-3.2s-1.9-1.4-3-1.9c1.3-1.5,2.6-3.1,3.8-4.6c-1.7-1-3.6-2.8-2.8-4.5
	c0.6-1.2,2.4-1.9,2.2-3.3c-0.2-1.3-2.1-1.9-2-3.2c0.1-1.3,2.1-1.6,2.4-2.9c0.6-1.9-3.2-2.8-3.1-4.8c1.2,0.5,2.8-0.3,3.1-1.6
	c0.4-1.3-0.5-2.7-1.8-3c0.6-0.6,1.5-0.9,2.4-0.8"/>
<path class="st0" d="M76.4,273.5c-2.2-1-4-3-4.7-5.4c1.6,0.5,3-1.3,2.9-2.9c-0.1-1.6-1.2-3-2.3-4.2c1.2,0.3,2.3-1.3,2-2.5
	s-1.4-2.1-2.5-2.7c1.2-1,2.4-1.9,3.6-2.9c-1.2-1.7-2.6-3.2-4.1-4.7c1.6-0.2,3-1.6,3.1-3.2c0.1-1.6-1-3.2-2.6-3.6
	c1.2,0,2-1.3,1.9-2.5c-0.1-1.2-1-2.2-1.9-3c1.3,0.1,1.5-1.9,0.8-2.9c-0.7-1-1.9-1.9-1.9-3.2c1,0.4,2.1-0.7,2.1-1.8
	c0-1.1-0.7-2-1.4-2.9c-0.7-0.8-1.5-1.7-1.7-2.7c1.9,0.2,3.5-2.3,2.5-3.9c-0.5-0.9-1.6-1.6-1.5-2.6c0.1-0.5,0.4-0.9,0.6-1.3
	c1.2-2,0.9-4.9-0.9-6.5c1.3,0.3,2.2-1.5,1.9-2.8c-0.3-1.3-1.2-2.4-1.4-3.8c-0.2-1.3,1.1-3,2.2-2.4c-1.5-3.5-1.9-7.4-1.4-11.2"/>
<path class="st0" d="M91.7,269.4c-0.8-0.8-1.7-1.5-2.5-2.3c1.1,0.3,2-1.2,1.8-2.3c-0.2-1.1-1.1-2-1.6-3.1c-1-1.9-0.9-4.3,0.3-6.1
	c0.2-0.4,0.5-0.8,0.6-1.2c0-0.5-0.3-0.9-0.5-1.2c-1.1-1.5-2.2-3-3.2-4.5c2-0.1,3.5-2.6,2.4-4.2c-0.6-0.9-1.9-1.6-1.7-2.7
	c0.1-0.7,0.8-1.1,1.2-1.7c1.2-2.1-2-4.8-0.7-6.8c0.3-0.5,0.7-0.8,1-1.3c1-1.8-1.6-3.4-2.2-5.4c0.7-0.4,1.4-0.7,2.1-1.1
	c-0.7-0.9-1.3-1.8-2-2.8c1.5-0.2,2.2-2.4,1.1-3.4c-0.7-0.6-1.9-1.3-1.4-2c0.3-0.4,0.8-0.4,1.2-0.6c1.1-0.6,0.7-2.3-0.1-3.2
	c-0.8-0.9-1.9-1.9-1.7-3.2c1.2,0.3,2.2-1.2,2-2.4c-0.2-1.2-1.1-2.2-1.9-3c1.6-0.8,2.9-2.3,3.6-3.9"/>
<path class="st0" d="M38.2,158.9c-0.1-0.9-0.1-1.9-0.2-2.8c-0.1-1-0.1-2.2,0.7-3c0.8-0.7,2.1-0.6,3.1-0.4c0.5,0.6,0,1.6-0.8,1.8
	c-0.7,0.2-1.5-0.2-2.2-0.6c0.5-1.4,2.3-1.6,3.8-1.6c0.2,0,0.5,0,0.7,0.2c0.2,0.2,0.3,0.5,0.3,0.8c0.2,1.3,0.3,2.7,0.5,4
	c-1.3,0.4-2.6,0.7-3.9,1.1"/>
<path class="st0" d="M38.1,167c3,0.1,6-0.2,8.9-0.9c0.5,1.8-1.6,3.7-3.3,2.9c0.9,0.6,0.5,2.2-0.5,2.7c-1,0.4-2.2-0.1-2.9-1
	c-0.7-0.9-1-2-1.3-3c-2,0.3-3.8-1.3-4.4-3.2c-0.6-1.9-0.2-3.9,0.1-5.9c1.5-8,3.2-15.9,5-23.8c0.6-0.2,1.2-0.4,1.9-0.5
	c0,1.5,0,3,0.1,4.5c2.2,0.2,4.5,0.1,6.7-0.2c0.1-2.1-0.1-4.3-0.6-6.4c-0.1-0.4-0.2-0.7-0.5-1c-0.3-0.3-0.7-0.3-1.1-0.3
	c-1.2,0-2.5,0.3-3.2,1.3c-0.7,1-0.2,2.7,1,2.8c0.4,0,0.8-0.1,1-0.5c0.2-0.4-0.1-0.9-0.5-0.9"/>
<path class="st0" d="M41.6,161.6c-0.3,0.1-0.5,0.2-0.8,0.3"/>
<path class="st0" d="M35.4,163c15-1.9,30-3,45.1-3.2c2.2,0,4.6-0.2,6-1.9c0.9-1.2,1-2.7,1.1-4.2c0.3-5.8,0.7-11.6,1-17.5
	c0.1-1.3,0.1-2.7-0.5-3.8c-0.7-1.1-2.4-1.7-3.3-0.8c0.2,1.8-1.3,3.6-3.1,3.9c-1.9,0.2-3.9-1.3-4-3.2c-0.1-1.9,1.7-3.7,3.6-3.4
	c0.9,0.1,1.9,0.9,1.9,1.8c0,0.9-1.3,1.7-2,1c-0.4,0.2-0.5-0.8-0.1-0.7"/>
<path class="st0" d="M73.7,132.8c-0.1,0-0.2,0-0.3,0c1.3,0.2,2.4-0.3,3.8-0.4"/>
<path class="st0" d="M78.6,149.9c0.1-0.9,1.3-1.4,2.1-1c-0.5,0.7-1.1,1.5-1.9,1.7s-2-0.3-1.9-1.2c0.1-0.7,0.8-1.1,1.5-1.3
	c1.1-0.3,2.3-0.1,3.4,0.4c0.4,0.2,0.7,0.4,0.9,0.8c0.3,0.8-0.6,1.5-1.5,1.7c-1.2,0.2-2.5-0.2-3.4-1.1c-0.8,1.2-1.2,2.8-1,4.3
	c1.6,0.2,3.2,0.2,4.7-0.1c0.4-0.1,0.9-0.2,1.2-0.4c0.9-0.7,0.6-2.1,0.2-3.1"/>
<path class="st0" d="M49,165.1c4.2-0.2,8.4-0.3,12.7-0.5c4.1-0.1,8.2-0.3,12.3-0.8c3.6-0.5,7.2-1.8,10.8-2.1
	c5.6-0.4,4.2-11.9,4.2-15.3"/>
<path class="st0" d="M82.4,170.9c0-0.3,0-0.6,0-0.9C82.4,170.2,82.4,170.5,82.4,170.9"/>
<path class="st0" d="M78,162.7c0.3,1.6,1.5,3,3.1,3.3s3.3-0.9,3.5-2.5"/>
<path class="st0" d="M55.3,165.7c-1.2,2.8,0.5,6.3,3.1,7.9c2.6,1.6,5.9,1.8,9,1.5c2.1-0.2,4.1-0.6,6.1-1.1c1.9-0.5,3.9-1.3,5.1-2.9
	c1.2-1.7,0.9-2.4,0.4-4.4"/>
<path class="st0" d="M38.3,169c-0.7,2.9-0.8,5.6-1.1,8.5c-0.4,3.2-2.1,6.1-2.5,9.4c-0.1,1.2-0.1,2.4,0,3.6
	c0.7,12.3,2.9,25.1,7.2,36.6"/>
<path class="st0" d="M43,210.5c-0.9-8.4-1.8-16.8-2.7-25.1c0-0.3-0.1-0.7,0.2-0.9c0.2-0.2,0.4-0.2,0.7-0.2c2.2-0.3,4.4-0.5,6.7-0.8"
	/>
<path class="st0" d="M41.4,181.4c5.5-1,10.9-1.4,16.4-2c5-0.6,9.8-2.1,15-2.4c6.8-0.4,13.6,0.2,20.2-1.4c0.4-0.1,0.9-0.2,1.4-0.1
	c0.4,0.1,0.8,0.7,0.6,1.1"/>
<path class="st0" d="M87.4,160.9c2.8-0.9,6.4-1.6,8.4,0.6c1.2,1.2,1.4,3,1.6,4.7c3,24,6,47.9,9,71.9c0.4,3.5,0.9,7.1,0.8,10.7
	c-0.1,4.7-1,9.3-1.1,14c-0.5,0.3-1.2,0.4-1.8,0.2c-0.3-0.8-0.5-1.6-0.8-2.4"/>
<path class="st0" d="M98.1,212.4c-0.4-9.9-1.3-19.8-2.7-29.6"/>
<path class="st0" d="M47.7,130.1c-1.6-30.1-10.3-59.5-11-89.6c-2.1-0.2-4.2-0.3-6.2-0.5c8.8,2.3,18.2,2.1,26.9-0.4
	c1.1-0.3,2.6-0.5,3,0.6c0.2,0.4,0,0.9,0,1.4c-0.7,3.1-0.2,6.3,0.3,9.4c4.6,29.5,13.4,58.4,15.3,88.2c0.1,1.8,0,4.1-1.6,5
	c-4.3-24-7.2-48.2-8.7-72.5c-0.2,0.6-0.4,1.1-0.6,1.7"/>
<path class="st0" d="M51.1,148c0-0.5,0-1.1,0-1.6"/>
<path class="st0" d="M50.2,140.7c0.4,2.6,0.8,5.2,1.2,7.8c0,0.2,0.1,0.5,0.3,0.7c0.2,0.1,0.4,0.1,0.7,0.1c4.9-0.8,9.7-1.9,14.5-3.3"
	/>
<path class="st0" d="M106,125c-1-0.2-1.2-1.4-1.4-2.4c-1.4-13.9-0.5-28-0.9-42c-0.1-3.9-0.3-7.8-1.3-11.6c-0.2-0.8-0.5-1.6-1.2-2
	c-0.5-0.3-1.1-0.3-1.6-0.5c-1.5-0.5-2.3-2.5-1.6-3.9c2.7-1.1,5.8,0.9,7.1,3.5c1.3,2.6,1.1,5.6,1,8.5c-0.7,16.4-0.2,32.8,1.3,49.1
	c0.1,1.4,0.3,2.9,0,4.3c-0.6-0.4-1.3-0.8-1.9-1.2"/>
<path class="st0" d="M103.6,149.1c-6.6-20.3-8.3-42.3-4.9-63.4"/>
<path class="st0" d="M96.7,70.4c2.2,2.8,4.1,5.9,5.6,9.2"/>
<path class="st0" d="M100.1,175.2c1.8-0.7,3-2.5,3.9-4.2c6.6-12.6,5.9-27.6,5-41.7c-0.7-10.6-1.3-21.2-2-31.7"/>
<path class="st0" d="M67.7,83.6c0,0.2,0,0.5-0.1,0.7c0.3-3.8,1.1-7.6,2.5-11.1"/>
<path class="st0" d="M94.4,157.6c1.5,0.3,3.1-1,3-2.6"/>
<path class="st0" d="M93.5,150.2c1.5,0.4,3.2-0.4,3.8-1.9"/>
<path class="st0" d="M92.7,141.4c1.4-0.2,2.6-1.5,2.7-2.9"/>
<path class="st0" d="M91.3,132.2c0.6,0.4,1.6,0.3,2.1-0.3s0.5-1.6,0-2.1"/>
<path class="st0" d="M91.1,124.4c1,0.2,2.1-0.6,2.2-1.6"/>
<path class="st0" d="M90.3,118c0.5,0.1,1,0.3,1.5,0.1c0.5-0.1,0.9-0.7,0.7-1.2"/>
<path class="st0" d="M90.8,111.2c0.7,0,1.4,0,2.2,0"/>
<path class="st0" d="M90.8,105.9c0.7-0.4,1.5-0.4,2.2-0.1"/>
<path class="st0" d="M90.7,99.9c0.3-0.5,1.1-0.8,1.7-0.6"/>
<path class="st0" d="M89.8,92.6c-0.1-0.5,0.6-0.6,1.1-0.5c0.5,0.1,1.2-0.5,0.8-0.7"/>
<path class="st0" d="M89.4,84.9c0.9-0.2,1.8-0.2,2.7-0.2c-0.3-0.2-0.5-0.3-0.8-0.5"/>
<path class="st0" d="M91.1,80.5c0.4-0.3,0.9-0.1,1.4-0.1c0.5,0.1,1.1-0.4,0.8-0.8"/>
<path class="st0" d="M80.7,127.4c-1.6-1.9-0.6-5.3,1.8-6c-0.7-1-1.4-1.9-2-2.9c1.5-0.4,1.7-2.4,1.7-3.9c0-0.9,0-1.7-0.1-2.6
	c0-1.2-0.2-2.5-1.1-3.1c0.9-0.6,1.8-1.3,2.8-1.9c-0.5-0.9-0.9-1.8-1.4-2.6c1.8-0.8,1.7-3.9-0.1-4.6c1.2,0.2,2.2-1.4,1.8-2.6
	s-1.4-2.1-2.4-2.8c1.1-0.3,2.4-0.9,2.6-2.1c0.2-1.1-0.8-2-1.2-3.1c-0.4-1,0.6-2.7,1.5-2c-0.8-1.7-1.6-3.3-2.4-5
	c0.6,0.7,1.9-0.2,2-1.1c0.1-1-0.4-1.9-0.5-2.8c-0.1-1,0.6-2.1,1.6-1.8"/>
<path class="st0" d="M76.3,122.7c-0.5-1.4-1.1-2.7-1.6-4.1c1.2,0.3,2.2-1.3,2-2.5s-1.3-2.1-2.3-2.9c1-0.1,1.5-1.3,1.2-2.2
	c-0.3-0.9-1-1.6-1.8-2.2c1.2-0.9,2.5-2,2.3-3.4c-0.1-0.6-0.4-1.1-0.6-1.7c-0.2-1,0.3-2.1,0.6-3.1c0.3-1,0.1-2.4-0.9-2.7
	c2.1-1,2.2-4.6,0.2-5.6c2.3-1.7,2.4-5.6,0.1-7.4c1.3,0.1,2.5-1.5,2-2.7c-0.2-0.5-0.6-0.9-0.9-1.4c-0.7-1.6,0.8-3.3,1.1-5
	c0.1-0.5-0.1-1.1-0.6-1.1c-0.5,0-0.1,1,0.1,0.6"/>
<path class="st0" d="M70.9,97.8c0-1.4-0.1-2.8-0.1-4.2c0-0.4,0-0.7,0.1-1.1c0.2-0.4,0.6-0.7,0.9-1c0.6-1-0.1-2.2-0.9-3.1
	c0.8,0,1.4-0.9,1.4-1.7c0-0.8-0.4-1.5-0.8-2.2c1.1-0.1,2-1.2,1.9-2.2c0-0.5-0.2-1-0.4-1.5c-0.4-1.3-0.2-2.7-0.1-4.1"/>
<path class="st0" d="M89.5,103.8c0.1-0.2,0.2-0.4,0.3-0.5"/>
<path class="st0" d="M88.9,67.1c0.1-3.1,0-6.3-0.2-9.4c0.6-0.4,1.4,0,1.8,0.6c0.4,0.6,0.4,1.4,0.3,2.1c0,2.1-0.1,4.3-0.1,6.4
	c0.7,0.1,1.4,0.2,2.1,0.3c0-3.1-0.1-6.3-0.3-9.4c-9.3-0.1-18.5-0.2-27.8-0.3c-0.2,0-0.4,0-0.5,0.2c-0.1,0.1-0.1,0.3,0,0.4
	c0.4,2.7,0.9,5.4,1.3,8c0.1,0.5,0.2,1,0.5,1.5c0.3,0.4,0.9,0.7,1.3,0.4"/>
<path class="st0" d="M65.8,71.4c10.6-0.7,21.2-1.5,31.8-2.2c-1.2,1.7-3.8,2.3-5.6,1.2c2,0.3,4-1.3,4.3-3.2
	c1.5-10.2,3.1-20.5,4.6-30.7c0.7-4.4,1.2-9.4-1.7-12.8c-1.9,10.3-3.3,20.6-3.9,31.1c-0.1,0.9-1.8,1.1-2,0.1
	c-0.2-0.9,1.5-1.5,1.9-0.6"/>
<path class="st0" d="M89.9,41.4c-1.1,0.5-2.3-0.8-2-2s1.7-1.7,2.8-1.5c0.6,0.1,1.2,0.4,1.3,1c0.1,0.4-0.2,0.9-0.5,1.2
	c-1.3,1.3-3.8,1.1-4.8-0.4c0.3,1.1,0.8,2.1,1.5,3c0.2,0.2,0.4,0.5,0.7,0.5c0.3,0.1,0.6-0.1,0.8-0.2c1.2-0.6,2.2-1.6,2.8-2.7"/>
<path class="st0" d="M92.9,28.2c-0.3,0.4-0.9,0.6-1.3,0.4c0.6-0.4,1.3-0.5,2-0.3c-0.4,0.9-1.2,1.6-2.2,1.8c0.7-0.3,1.6,0,2.1,0.6
	c0.1-0.3,0.3-0.5,0.4-0.8"/>
<path class="st0" d="M85.9,48.3c0.4-0.5,0.9-0.8,1.5-0.9c0.2,0,0.4,0,0.6,0.1c0.4,0.3,0.2,1-0.3,1.2s-1,0-1.4-0.2"/>
<path class="st0" d="M63.2,43.5c-0.2,0.3-0.6,0.2-0.8,0c-0.2-0.2-0.2-0.6-0.1-0.9c0.2-0.7,0.9-1.3,1.7-1.3c0.8,0.1,1.4,0.9,1.1,1.7
	c-0.3,0.7-1.4,1-1.9,0.4"/>
<path class="st0" d="M61.4,39.9c1.2-3.2,2.5-6.5,3.7-9.7c-0.2,6.7,0.2,13.4,1.2,20.1c6.2,1.2,12.7-0.1,18.9-1.3
	c-1.3-11-2.3-22.1-2.9-33.2c-5.9,0-11.8,0-17.7-0.1c0.4,9.9,1.2,19.7,2.6,29.5"/>
<line class="st0" x1="90.8" y1="24.1" x2="90.8" y2="24.1"/>
<path class="st0" d="M83.5,23.2c4.8-0.7,9.7-0.7,14.4,0.1"/>
<path class="st0" d="M82.7,48.6c-0.4-5.3-0.7-10.7-0.9-16"/>
<path class="st0" d="M30.7,39.6c-2.5-11.7-4.8-23.5-7-35.2"/>
<path class="st0" d="M62.1,37.4c-1.2-9.1-2.7-18.3-4.4-27.3c0.6-0.1,1.3-0.1,1.9-0.2c-0.2-1.1-1-1.9-1.5-2.8c-1-1.8-1.1-4-0.3-5.9
	c3.4,2.8,3.6,7.8,3.5,12.2c0.7,0,1.4,0.1,2.1,0.1c-0.3,6.1,0.1,12.2,1.3,18.1c-0.1-0.3-0.2-0.7-0.2-1"/>
<path class="st0" d="M367.3,87.7c-0.9-0.1-1.2,1.2-1.1,2.1c0.1,0.7,0.2,1.5,0.6,2.1c0.4,0.6,1.1,1.1,1.8,1.1c0.4,0,0.7-0.2,1-0.4
	c1.1-0.8,1.6-2.3,1.1-3.5s-1.8-2.1-3.1-2"/>
<path class="st0" d="M358.6,97.6c-1,0.5-2.4,0.2-3.1-0.7c-0.7-0.9-0.6-2.3,0.2-3.2c0.3-0.4,0.8-0.6,1-1.1s0.1-1.1-0.4-1.2
	c-0.1,0-0.3,0-0.4,0.1c-0.8,0.3-1.4,1.1-1.9,1.9c-0.5,0.8-0.8,1.8-0.6,2.7c0.2,0.9,1.1,1.7,2,1.6c0.8-0.1,1.4-1,2.3-1.1
	c0.9-0.2,1.8,0.5,2.7,0.6c0.8,0.1,1.5-0.3,2.3-0.6c6.2-2.8,12.8-4.5,19.6-5c-0.9-1-1.6-2.2-2-3.5c-0.2-0.7-0.3-1.6,0.3-2
	c0.5-0.3,1.2,0,1.5,0.6s0.3,1.1,0.3,1.7c0,0.6-0.2,1.4-0.8,1.3c-0.5-1.9-1.1-3.7-1.6-5.6c-0.2-0.6-0.5-1.4-1.1-1.6
	c-0.5-0.2-1,0.1-1.5,0.3c-1.9,0.8-4,0.8-6,1.2c-5.2,1.1-9.7,4.8-15,5.5c-0.3,0-0.6,0.1-0.9,0c-1.2-0.4-0.8-2.2,0-3.1
	c2.7-3.4,8-4.4,11.8-2.2"/>
<path class="st0" d="M361.4,101.6c0.5,0.2,0.9,0.3,1.4,0.5"/>
<path class="st0" d="M359,100c-0.3,0.1-0.4,0.6-0.2,0.9c0.2,0.3,0.5,0.4,0.9,0.6c2.1,0.8,4.3,1.3,6.5,0.6c2.1-0.6,3.9-2.7,3.7-4.9"
	/>
<path class="st0" d="M351.7,54.1c-0.6,0.6-1.7,0.5-2.2-0.2c-0.5-0.7-0.4-1.7,0.1-2.4c0.5-0.7,1.4-1.1,2.2-1.1c0.5,0,1,0,1.4,0.3
	c0.7,0.5,0.8,1.4,0.9,2.2c0.1,0.7,0.1,1.5-0.4,2c-0.3,0.3-0.8,0.5-1.2,0.6c-0.9,0.2-1.9,0.4-2.7,0c-0.8-0.4-1.5-1.4-1-2.2"/>
<path class="st0" d="M339.9,57.1c-0.6-0.4-1-1.2-1.1-2c0.7-0.7,2.1,0.2,1.9,1.1c-0.2,0.9-1.8,1-2.2,0.1c0.4,0.8,0.8,1.5,1.2,2.3
	c-1.2-2-2.3-4.1-3.5-6.1c7-3.8,15-5.3,22.8-6.7c0.4-0.1,0.9-0.1,1.2,0.2c0.3,0.3,0.3,0.7,0.3,1c0.2,1.5,1,2.9,2.2,3.8
	c0.4-1.3,0.9-2.6,1.7-3.8c0.6,0.1,0.8,0.8,1,1.4c0.4,1.7,0.9,3.6,0.1,5.2c-1.1,2.2-4,2.7-6.4,3c-5.9,0.8-11.7,2.1-17.4,4
	c-0.1,0.9,0.8,1.6,1.6,1.8c0.9,0.2,1.7-0.1,2.6-0.3c2.4-0.7,4.9-1.5,6.7-3.4c0.3-0.3,0.6-0.7,1-0.9c0.5-0.2,1-0.2,1.5-0.1
	c1.6,0.5,2.8,2.1,2.7,3.8c-0.1,2.1-2,3.7-4,4.7c-0.7,0.4-1.5,0.7-2.4,0.7c-2.6-0.1-4.2-3.3-6.8-3.7c-0.5,1.9,1,4,2.9,4.6
	c1.9,0.6,4,0,5.6-1.2c0.4-0.3,1-0.6,1.3-0.2c0.3,0.3,0,0.8-0.3,1.1c-2,1.8-5.1,1.7-7.6,0.8c-1.9-0.7-3.8-2.1-4-4.1
	c-2.3-0.1-4.2-1.7-5.9-3.3c-1.7-1.6-3.6-3.8-2.8-6c-1.1,3.2-1.4,6.6-0.8,9.9c2.2-0.9,3.6-3.3,3.5-5.6"/>
<path class="st0" d="M348.1,82.6c0-0.5-0.2-1-0.6-1.3"/>
<path class="st0" d="M341.4,67c0.9,2.9,1.7,5.8,3,8.6c1.7,3.7,4.1,7,5.6,10.7c1.2,3.1,1.7,6.4,2.2,9.7c0,0.2,0,0.5-0.2,0.6
	c-0.2,0.1-0.4-0.3-0.2-0.3"/>
<path class="st0" d="M355,102.4c-0.3,6.2,0.8,12.4,3.1,18.1c1.3,3.2,3,6.7,1.7,9.9c4.8,1,9.6-1.3,14.5-2c0.8-0.1,1.6-0.2,2.3,0
	c1.9,0.5,2.7,3.3,1.2,4.6s-4.3-0.5-3.6-2.3c0.5-1.3,2.3-2.4,1.6-3.6c3.6-1.1,7.2-2.1,10.8-3.2c0.9-0.3,2.1-0.5,2.7,0.2
	c0.3,0.3,0.4,0.7,0.5,1.1c0.8,2.5,1.3,5.1,1.7,7.7c0.3,2.2,0.5,4.5,0.6,6.7c0.3,4.8,0.7,9.5,1,14.3c0.2,3.1,0.4,6.3-0.3,9.3
	c-1.7,6.6-8.5,11.5-15.3,11c-0.5,0-1.1-0.1-1.5-0.4c-0.3-0.2-0.5-0.6-0.6-1c-0.6-1.8,1-3.9,2.9-3.8c1.9,0.1,3.3,2.3,2.6,4
	c-0.7,1.7-3.3,2.4-4.7,1.1c-1.4,2-3.9,3.3-6.3,3c-2.4-0.4-4.4-2.9-3.9-5.2c0.7-3,4.3-4,7.3-4.4c4.7-0.7,9.4-1.4,14-2.1
	c-2.4-1.7-5.8-1.8-8.3-0.3c0.4-3-2.7-5.6-5.7-5.3s-5.3,2.9-6,5.8c-0.5,2.2-0.3,4.5-1.2,6.5s-4,3.2-5.3,1.5
	c0.5-9.9,0.2-19.9-0.9-29.7c0,1.1,0.1,2.2,0.1,3.3c1.8-2.4,4.7-4,7.8-4.3c-0.5,6.4-0.9,12.7-1.4,19.1c-0.1-6.3,0.2-12.6,1.1-18.9
	c0.1-0.6,0.2-1.3,0.5-1.8c0.5-0.7,1.2-1,2-1.3c5.9-2.3,11.9-4.7,18.2-5.3c1.3,8.3,2.5,16.7,3.8,25c-2.3,1.5-4.9,2.7-7.6,3.5
	c-0.1-1.2-0.2-2.5,0.3-3.6c0.5-1.1,1.8-1.9,2.9-1.4c-0.3-0.5-0.5-0.9-0.8-1.4"/>
<path class="st0" d="M365.5,123.9c0.2-0.3,0.3-0.6,0.5-0.9c-0.1,0.3-0.2,0.6-0.2,0.9"/>
<path class="st0" d="M362.7,128.5c-0.3-1.7,0.3-3.6,1.6-4.8c1.3-1.2,3.1-1.8,4.9-1.5c2,0.4,3.6,1.8,5.1,3.2c0.6-0.4,0.4-1.3-0.1-1.7
	c-0.5-0.4-1.2-0.5-1.9-0.5c-1.4,0-2.8,0-4.1,0.4c-1.3,0.4-2.5,1.4-2.9,2.7c-0.3,0.8-0.1,1.8-0.5,2.6c-0.3,0.8-1.4,1.5-2.1,1
	c-0.1-1.1-0.3-2.2,0-3.2c0.2-1,1-2,2-2.3c0.7-0.2,1.5,0,2.2-0.2c0.7-0.2,1.3-1.1,0.8-1.7"/>
<path class="st0" d="M352.8,86.5c-0.9-1.2-0.3-3.2,1.1-3.7c0.6,0.7,0.7,1.8,0.2,2.6c-0.1-1.1,1.1-2,2.1-1.7c0.4,0.1,0.7,0.3,1.1,0.2
	c0.2-0.1,0.3-0.3,0.4-0.5c0.6-1.6,0.8-3.3,0.8-5.1c2.2,0,4.4,1.7,4.9,3.8c0,0.2,0.1,0.4-0.1,0.5c-0.2,0.1-0.2-0.3-0.1-0.3"/>
<path class="st0" d="M326.1,34.7c0-0.4,0-0.7,0.1-1.1c0.9,1.3,2.3,2.3,3.9,2.6c1.6,0.3,3.3-0.2,4.3-1.4s1.2-3.1,0.2-4.4
	c-0.1-0.1-0.2-0.3-0.4-0.3c-0.3-0.1-0.6,0.1-0.9,0.3c-2.1,1.5-3.9,3.3-5.4,5.4c-0.1,0.2-0.2,0.3-0.4,0.4c-0.2,0.1-0.4,0.1-0.6,0
	c-0.9-0.1-1.9-0.5-2.5-1.2c-0.6-0.7-0.9-1.8-0.4-2.6c0.6-0.9,1.9-1.2,2.1-2.3c0.1,0.1,0.2,0.2,0.3,0.3c0,0.1-0.2,0.2-0.3,0.1"/>
<path class="st0" d="M317.3,35.4c-1.9-0.7-3.9-1.6-5.1-3.3c-1.2-1.6-1.4-4.2,0.1-5.6c0.2-0.2,0.5-0.4,0.8-0.4c0.3,0,0.6,0.1,0.9,0.2
	c2.5,1.3,3.4,4.8,1.9,7.1c-1.1-1.1-1.2-3-0.2-4.2c0.9-1.2,2.8-1.6,4.2-0.9c0.6,0.3,1.1,0.9,1.8,1c0.9,0.2,1.8-0.4,2.7-0.8
	c5.8-3.1,13.3-1.4,19-4.7c-1.3-1.5-2.7-2.9-4.1-4.4c-0.3-0.3-0.6-0.6-0.9-0.7c-0.6-0.2-1.2,0.1-1.8,0.4c-6.5,3.3-14.7,1.9-21.1,5.5"
	/>
<path class="st0" d="M328.5,24.7c-0.6,0-1.2-0.1-1.8-0.3c-0.2-0.1-0.4-0.2-0.4-0.3c-0.2-0.4,0.4-0.7,0.8-0.8
	c1.1-0.2,2.2-0.3,3.3-0.1c-0.2,0.6-0.4,1.2-0.8,1.8C329.3,24.8,328.9,24.7,328.5,24.7"/>
<path class="st0" d="M321.4,8.2c4.6,3.5,9.1,6.9,13.7,10.4"/>
<path class="st0" d="M344.7,26.4c5.9,5.5,11,11.9,14.9,19c-5.8-5.5-9.6-13.1-16.2-17.7c0.6,0,1.2,0.5,1.4,1"/>
<path class="st0" d="M365.9,56.3c1.4,1.2,2.5,2.6,3.5,4.2c1.1,1.9,1.9,3.9,2.7,5.9c1.9,4.9,3.9,9.8,5.8,14.7
	c0.7-1.2,0.1-2.6-0.5-3.8c-1.3-2.5-2.5-5-3.8-7.6"/>
<path class="st0" d="M375.8,95.9c-0.1-0.4-0.5-0.6-0.8-0.6c0.1,2.2,1.4,4.4,3.3,5.5c-0.2-1.9-0.8-3.8-1.7-5.5
	c0.8,0.1,1.4,0.9,1.7,1.7c0.2,0.8,0.2,1.6,0.1,2.5"/>
<path class="st0" d="M381.5,124.1c-1-1.6-1.3-3.6-0.8-5.4c0.2-0.7,0.7-1.5,1.4-1.5c0.8,0,1.2,0.9,1.4,1.7c0.4,1.8,0.4,3.6-0.1,5.4
	c0.4-1.4,0.8-2.8,1.2-4.3c0.2,0.2,0.5,0.3,0.7,0.5"/>
<path class="st0" d="M379.3,94.4c1.3,0.1,2.7,0.4,3.5,1.4c0.4,0.5,0.5,1.2,0.6,1.9c1.3,6.7,2.6,13.4,3.9,20.1
	c-0.3-6-0.1-12.2-2.6-17.6c-0.8-1.7-1.9-3.3-3.2-4.7"/>
<path class="st0" d="M384.9,137.5c0.5,0.7,0.7,1.6,0.6,2.4c-1.2-0.6-1.8-2.1-1.5-3.3"/>
<path class="st0" d="M317.4,35.1c1.1,0.2,2,1.1,2.8,1.9c3.4,3.5,6.7,7,10.1,10.5c0.7,0.8,1.5,1.6,2.1,2.5c0.7,1,1.1,2.2,1.3,3.4
	c-5-5.9-9.9-11.8-14.9-17.7"/>
<path class="st0" d="M302.1,14.4c0.1,3,1.8,5.9,4.3,7.5c0.4,0.2,0.8,0.5,1.2,0.3c0.3-0.1,0.5-0.4,0.6-0.6c1.2-2.3-0.9-5.1-0.3-7.7
	c1.4,0.5,2.3,2.1,2.3,3.7s-0.8,3-1.8,4.1c-1.2-0.4-1.6-1.9-1.7-3.1c-0.1-1.3,0-2.6-0.8-3.7c-0.2-0.3-0.5-0.6-0.5-0.9
	c0-0.4,0.4-0.7,0.9-0.8c0.4,0,0.9,0.1,1.3,0.2c2.8,0.4,5.3-2.4,8.1-2c0.2,0,0.5,0.1,0.7,0.2c0.2,0.2,0.3,0.5,0.4,0.8
	c0.6,2.2,1.7,4.7,4,5.3c0.2,0,0.4,0.1,0.6-0.1c0.1-0.1,0.2-0.3,0.2-0.5c0.1-0.8,0-1.5-0.1-2.3c-0.1-0.3-0.1-0.6-0.4-0.8
	c-0.5-0.4-1.2,0-1.6,0.4c-0.5,0.4-1,0.9-1.6,0.8c-0.2-1.7,0.3-3.5,1.5-4.8c0.2-0.2,0.4-0.5,0.5-0.8c0.3-0.9-0.7-1.6-1.4-2.1
	s-1.5-1.6-0.8-2.2"/>
<path class="st0" d="M260.5,12c0.5,0.8,1.6,0.8,2.5,0.8c11.1-0.2,22.1-2.5,33.2-2.5c0.4,0,0.8,0,1.1,0.3c0.2,0.2,0.4,0.5,0.5,0.7
	c0.6,1.3,1,3.2-0.2,4c-0.9,0.7-2.3,0.2-2.9-0.7s-0.5-2.2,0-3.2c0.8,0.4,0,1.8,0.5,2.6c0.7,1.3,2.8-0.5,4.2,0c-0.3-0.2-0.7-0.3-1-0.5
	"/>
<path class="st0" d="M222.8,7c12.1-2.9,25.1,1,37.3-1.8c2.6-0.6,5.1-1.5,7.8-1.8c3.5-0.5,7,0,10.4,0.2c10.2,0.7,20.4-0.3,30.5-1.3"
	/>
<path class="st0" d="M81.2,15.4c2.8-2.2,6.7-2,10.3-1.9c18.9,0.7,37.6-2.9,56.5-2.6c4.7,0.1,9.4,0.4,14-0.1
	c4.5-0.5,8.9-1.7,13.3-1.9c2.4-0.1,4.8,0,7.2,0.1c11.4,0.4,22.9,0,34.2-1.3"/>
<path class="st0" d="M367.6,54.9c-0.7-2.6-0.9-5.3-0.6-7.9c4.5-1.3,9.2-1.7,13.9-2c4.5-0.4,9.1-0.7,13.6-1.1c0.4,0,0.9-0.1,1.2,0.2
	c0.4,0.3,0.4,0.8,0.5,1.3c0.1,1.4,0.2,2.8,0.3,4.3c-6.5-1.5-13.2-1.9-19.9-1.4c-0.8,0.1-1.6,0.1-2.3,0.5c-2.2,1-2.7,3.9-3.9,6.1
	c-0.6,1-1.5,2-2.7,2.1c-2,0.1-3.2-2.2-3.7-4.1c-0.7-2.9-1.1-5.9-1.2-8.9c2.8,0.9,5.8,1.1,8.7,0.4c0.2-4.9,0.2-9.7,0-14.6
	c4.4-0.3,7.7,4.3,12.1,4.9c0.5,0.1,1.1,0.1,1.4,0.4c0.5,0.4,0.6,1.2,0.6,1.9c0,2.2,0,4.4,0,6.6c1.7,0.5,3.4,0.1,5.1-0.1
	s3.7,0.2,4.7,1.5c1.3,1.7,0.5,4.3,1.7,6.2"/>
<path class="st0" d="M392.6,147.5c3.7,0.8,7.6-1.2,10-4c2.5-2.9,3.8-6.5,4.8-10.2c3.2-11.6,4.1-23.7,3.9-35.7
	c-0.1-4.6-0.3-9.2-1-13.7c-1.7-11.1-6.2-21.6-10.7-31.9"/>
<path class="st0" d="M379.9,50.1c0.9,1.3,2.3,2.2,3.8,2.6c1,1.7-0.7,4.4,0.9,5.6c0.4,0.3,1,0.4,1.4,0.7c1.2,0.8,1.1,2.6,1.3,4.1
	c0.2,1.5,1.8,3.1,2.9,2.1c-0.6,1.7-1.1,3.4-1.7,5.2c0.7,0.2,1.5,0.4,2.2,0.5c-0.5,2.1-0.9,4.3-1.4,6.4c1-0.7,2.3,0.7,2.4,2
	c0.1,1.3-0.4,2.6,0,3.7c0.3,0.6,0.8,1.2,0.8,1.9c0.1,1.2-1.3,2.5-0.6,3.5c0.3,0.4,0.9,0.6,1.2,0.9c1.2,1.4-1.8,4-0.4,5.3
	c0.3,0.3,0.8,0.3,1.2,0.6c1,0.8,0.3,2.4,0,3.6c-0.3,1.5,0.1,3,0.2,4.6c0.1,1.5-0.4,3.3-1.8,3.9c1.7,0.3,2.5,2.8,1.3,4
	c0.5,2-0.7,4.2-2.5,5c0.7-0.7,1.1-1.6,1.1-2.6"/>
<path class="st0" d="M391.2,54.9c1.1,1,2.6,1.6,4.1,1.6c-0.8,1.7-1.2,3.6-1.1,5.5c0.7,0.3,1.5,0.6,2.2,0.8c-1,1.3-1.1,3.3-0.2,4.7
	c0.3,0.5,0.6,0.9,0.8,1.4c0.1,0.4,0.1,0.9,0,1.4c-0.2,2.5-0.5,5.1-0.7,7.6c-0.1,0.6-0.1,1.2,0.2,1.7c0.2,0.4,0.6,0.7,0.9,1
	c1.4,1.7,0.2,4.2-1,6.1c1.1-0.5,2.2,1.1,2.1,2.3s-0.7,2.6-0.1,3.7c0.3,0.5,0.7,0.9,1.1,1.4c1.2,1.5,1,3.9-0.4,5.1
	c1.7-0.2,2,2.3,1.6,4c-0.4,1.7-0.8,3.4-1.2,5.1c-0.3,1.5-0.7,3-0.3,4.5"/>
<path class="st0" d="M405.8,112.4c0.5-0.7,0.9-1.4,1.4-2c-0.7-0.1-1.3-0.2-2-0.3c0.6-4.2,1.2-8.4,1.8-12.5c-0.9,0.1-1.9,0.2-2.8,0.3
	c1.2-1.2,2.4-2.5,2.6-4.1s-1.1-3.5-2.7-3.2c0.7-1.5,1.1-3.1,1.2-4.8c0.1-1.1-0.9-2.7-1.8-2c-0.3-4-0.6-8-0.9-12
	c-0.2-3.2-0.5-6.4-1.7-9.3c-0.1-0.2-0.2-0.5-0.5-0.6c-0.3-0.1-0.5,0.3-0.3,0.5"/>
<path class="st0" d="M358.4,19.9c14.8,10.8,30.9,19.9,47.9,27c1.2-3.2,1.9-6.7,2-10.1c-6.2-3.9-12.5-7.7-18.7-11.6
	c-3.5-2.2-7.1-4.4-10.6-6.5C373,15,367,11.3,360.5,8.9c-0.6,4.1-1.1,8.2-1.4,12.3c-0.7-4-0.1-8.2,1.6-11.9c1.2-0.4,2.7-0.4,3.9,0.2
	c0.1-1.2,0.3-2.5,0.4-3.7c1-0.1,2.1-0.2,3,0.3s1.5,1.7,1,2.5c5.3-0.1,10.6-0.2,15.9-0.3c-0.2-0.8,0.1-1.8,0.9-2.3
	c0,1.3,1.7,1.7,2.9,1.9c2.4,0.5,4.7,1.7,6.4,3.5c0.4,0.4,0.8,0.8,1.3,1c0.7,0.1,1.4-0.3,2.1-0.4c0.7,0,1.5,1,0.8,1.3
	c-1.8,0.9-4.1,0.8-5.7-0.4c1-0.7,2-1.4,3.2-1.4c1.2,0,2.4,1.2,2,2.3c2.5,1.1,5,2.2,7.6,3.3"/>
<path class="st0" d="M397.4,23.4c0,0.5-0.8,0.9-1.2,0.5c0.5-1.1,2-1.7,3.1-1.2c0.2,0.7,0.2,1.4-0.2,2c-1.5,0.4-3.3-0.2-4.2-1.5
	c-0.3-0.3,0.6-0.5,0.6-0.1s-0.4,0.7-0.8,0.8c-1.1,0.5-2.2,0.9-3.3,1.4c6.3,2.1,12.3,5.3,17.4,9.5c4.5-0.6,9.1-1.2,13.6-1.1
	c5,0.1,10.2,1,14.6-1.2c0.1-1,0.2-2,0.3-3c-1.5-0.2-2.9,0.6-4.3,0.8s-3.4-0.8-3-2.3c0.3-1.5,2.9-1.2,3.2,0.3
	c0.3,1.5-1.5,2.8-2.9,2.3c-0.6-0.2-1.1-0.6-1.8-0.7c-1.5-0.3-3.4,0.9-4.2-0.3c-0.3-0.4-0.2-0.9-0.2-1.4c0.7-8,1.4-16.1,2.1-24.1"/>
<path class="st0" d="M407.3,2.4c0.4,4.6,0.4,9.3,0,13.9c-0.2,2.1-0.4,4.3-1.2,6.2c-0.4,1-0.9,1.9-0.8,3c0.1,1.1,1,2,2,2.5
	s2.2,0.6,3.3,0.6c3.4,0.1,6.9-0.3,10.3-1.1"/>
<path class="st0" d="M413.8,7.8c0.1,5-0.1,10-0.6,14.9"/>
<path class="st0" d="M410.3,32.5c-0.3,0.3-0.9-0.1-1-0.6c-0.2-1.1,1.2-2.1,2.2-1.5s1,2.2,0.1,2.8c-0.9,0.7-2.3,0.3-2.8-0.7
	C409.3,32.4,409.8,32.4,410.3,32.5"/>
<path class="st0" d="M407,47.7c-0.3,0.5,0.1,1.2,0.6,1.4c0.5,0.3,1.1,0.2,1.7,0.2c5-0.3,9.9-0.6,14.9-0.9c1.3-0.1,2.7-0.2,3.9-0.6
	c0.9-0.3,1.8-0.8,2.7-1.1c2-0.6,4.1-0.4,6.1-0.3c0.3,0,0.7,0,0.9-0.2c0.2-0.2,0.3-0.5,0.4-0.8c1-3.8,1.5-7.7,1.3-11.6
	c-1,0.1-1.9,0.2-2.9,0.3c1.1,3.4,1.1,7.1,0,10.5c-1.6-0.8-3.4-1-5.1-0.7c0.4-2.3,0.8-4.7,1.2-7c0.1-0.3,0.1-0.7-0.1-1
	c-0.5-0.7-1.5,0.2-1.8,0.9c-1,2.4-1.1,5.1-0.3,7.5"/>
<path class="st0" d="M410.9,45c0.1-2.2,0.1-4.3,0.2-6.5c-0.7,1.4-1.1,3-1,4.6"/>
<path class="st0" d="M461,179.3c-2.3-6.9,0-14.5,2.4-21.4c1-2.9,2-5.8,3.7-8.3c2-3,4.9-5.3,7.8-7.6c3.8-3,7.6-6.1,11.4-9.1
	c0.6,3,0.9,6,0.8,9c0,0.6,0,1.2-0.3,1.8c-0.2,0.4-0.7,0.8-1.1,1c-4.5,3.4-10,5.8-13.3,10.3c-4.5,6.1-4.3,14.4-3.9,21.9
	c0.1,1.8,0.6,4,2.4,4.2c1.7,0.2,3.1-1.8,4.8-1.6c1.2,0.1,2,1.3,2.7,2.2c0.8,0.9,2,1.8,3.1,1.3c0.8-4.3,1.6-8.7,2.4-13
	c0.4-2.1,0.9-4.3,2.5-5.6c2.2,2.1,2.4,5.5,2.2,8.5c-0.2,4-0.6,8-1.3,12c-0.9,0.2-1.9-0.1-2.5-0.7"/>
<path class="st0" d="M105.8,12.5c-0.5,0.5-0.3,1.4,0.2,1.9c0.5,0.5,1.2,0.7,1.9,0.9c1.6,0.5,3.3,0.9,5,0.6c1.6-0.4,3.2-1.8,3-3.5
	c-1.7,0.4-2.2,2.6-2,4.3s0.9,3.5,0.4,5.1c-0.4-0.6-1.2-1.3-1.8-0.8c-0.4,0.3-0.5,1-1,0.9c-0.3-0.1-0.4-0.3-0.4-0.6
	c-0.6-1.9-0.8-3.9-0.8-6c0.8,2.2,1.2,4.6,1.1,7c-0.7,0.2-1.3,0.5-2,0.7c-0.1,1.6-0.1,3.1,0,4.7c0,0.3,0,0.7,0.2,0.9
	c0.2,0.3,0.5,0.4,0.8,0.5c0.9,0.3,1.9,0.5,2.8,0.4c1.5-0.2,2.8-1.2,3.3-2.6c0.5-1.4,0.2-3-0.8-4.1"/>
<path class="st0" d="M237.8,273.3c-1.5-2-3.1-4.3-3.1-6.8c0-0.3,0-0.5,0.2-0.7c0.2-0.2,0.4-0.3,0.7-0.3c2.4-0.4,5,1.2,5.8,3.5"/>
<path class="st0" d="M252.2,257.5c0.1,0.4,0.3,0.8,0.4,1.1c-1-0.3-1.6-1.4-2-2.4c-1.1-3.1-0.9-6.7,0.5-9.7c0.2-0.4,0.5-0.9,0.9-1.1
	c0.5-0.2,1.2,0,1.7,0.3c2.5,1.4,4.1,4.5,3.7,7.3c0-0.3-0.1-0.6-0.1-0.9"/>
<path class="st0" d="M273.6,248.5c-2.1-2-4-4.3-5.4-6.8c-1-1.8-1.9-3.8-1.6-5.8c0.3-2,2-4,4.1-3.8c1.9,0.2,3.2,1.9,4.2,3.5
	c1.4,2.1,2.8,4.2,4.2,6.3c0.1,0.1,0.1,0.3,0,0.3s-0.2-0.1-0.1-0.1"/>
<path class="st0" d="M290.3,254.9c-1.8,0.5-3.8-0.2-5.4-1.2c-2.6-1.6-4.6-4-5.8-6.9c-0.1-0.4-0.3-0.8-0.2-1.2c0.1-0.4,0.5-0.7,0.7-1
	c0.8-0.9,1.2-2.4,2.3-2.9c1-0.4,2.1,0.1,3,0.6c1.5,0.8,3.1,1.6,4.6,2.4"/>
<path class="st0" d="M298.3,243.3c-4.2-1.2-7.4-5.2-7.5-9.6c0-0.3,0-0.7,0.3-0.9c0.2-0.1,0.4-0.1,0.6-0.1c3.5,0.2,6.8,2.3,8.4,5.5"
	/>
<path class="st0" d="M304.9,234.1c-0.4-4-1.9-7.8-4.4-10.9c-1.2-1.6-2.9-3-4.9-3c-0.4,0-0.8,0.1-1,0.4c-0.2,0.2-0.2,0.5-0.2,0.8
	c0,3.5,2,6.6,3.8,9.5"/>
<path class="st0" d="M317.6,227.9c-0.7-2.7-0.8-5.5-0.1-8.2c0.7-2.7,2.4-5.1,4.8-6.5c0.3-0.2,0.6-0.3,0.9-0.2
	c0.2,0.1,0.4,0.3,0.5,0.6c0.8,1.9,0.3,4.1-0.3,6.1c-0.7,2.4-1.5,4.7-2.3,7"/>
<path class="st0" d="M322.7,262.9c-3.4-1.3-5.8-4.8-5.7-8.4c0-0.4,0-0.8,0.2-1.1c0.3-0.6,1-1,1.6-1.3c2.8-1,6.3,0.5,7.5,3.2"/>
<path class="st0" d="M349,257c-5.7-2.2-9.8-8-10.1-14.1c0-0.4,0-0.8,0.3-1c0.2-0.2,0.5-0.3,0.8-0.3c0.9-0.1,1.9-0.2,2.8-0.2
	c0.6,0,1.2,0,1.8,0.3c0.6,0.3,1.1,0.9,1.4,1.4c1.5,2.2,2.7,4.6,3.6,7.1"/>
<path class="st0" d="M350,227.1c0.3,0-0.1,0.4-0.4,0.2c-3-1.4-5.3-4.2-6-7.4c-0.2-0.6-0.2-1.3,0-1.9c0.4-0.9,1.5-1.4,2.5-1.4
	c1.8-0.1,3.6,0.7,4.8,1.9c1.3,1.2,2.2,2.9,2.7,4.6c0.1,0.2-0.1,0.4,0.1,0.6c0.1,0.2,0.3-0.2,0.1-0.1"/>
<path class="st0" d="M363.3,230.9c-0.6-0.1-0.8-0.8-1-1.4c-0.4-1.5-0.6-3.1-0.6-4.7c0-2.7,0.7-5.9,3.1-7.2c0.6-0.3,1.4-0.5,2-0.2
	c0.4,0.2,0.7,0.5,1,0.9c2.2,3,2.6,7.3,0.9,10.6"/>
<path class="st0" d="M372,251.8c0.1,0.2-0.1,0.5-0.3,0.5c-2-2-3.3-4.5-4-7.2c-0.4-1.6-0.5-3.4,0.1-5c0.6-1.6,2.1-2.9,3.7-2.9
	c2-0.1,3.6,1.5,4.7,3.2c1.5,2.4,2.2,5.3,2,8.2"/>
<path class="st0" d="M396.5,237.8c0-0.2,0.3,0.1,0.2,0.2c-0.1,0.1-0.4,0.1-0.5,0c-2-1-4-2-6-2.9c-1.1-0.5-2.2-1.1-3-2.1
	c-1.4-1.8-0.8-4.6,0.9-6c1.8-1.4,4.4-1.4,6.3-0.2s3.1,3.3,3.4,5.6"/>
<path class="st0" d="M371.1,204c0.3,0.1,0.1,0.6-0.1,0.7c-0.3,0.1-0.6,0-0.8-0.1c-3.3-1.3-6.9-3-7.9-6.4c-0.1-0.4-0.2-0.9,0.1-1.1
	c0.3-0.3,0.7-0.2,1.1,0c2.2,0.7,4.3,2,6,3.6"/>
<path class="st0" d="M380.6,206c-1.8-3.8-1.7-8.6,0.4-12.3c0.7-1.2,1.7-2.4,3.1-2.5c1.3-0.1,2.5,0.9,3.2,2c1.2,1.8,1.6,4.1,1.1,6.2"
	/>
<path class="st0" d="M341.8,203.7c-1.3-2.8-1.9-5.8-1.9-8.8c0-1.2,0.2-2.5,1.2-3.2c0.8-0.5,1.8-0.4,2.6,0c2.3,0.9,3.7,3.6,3.2,6"/>
<path class="st0" d="M327.4,190.7c0.1,0.4,0.3,0.9,0.4,1.3c-0.7-1.9-1.2-3.8-1.4-5.8c-0.1-1.1-0.1-2.2,0.3-3.2
	c0.4-1,1.3-1.8,2.4-1.9c1.8-0.1,3,1.8,3.4,3.5c0.4,1.5,0.6,3,0.5,4.6"/>
<path class="st0" d="M317.4,197.5c-0.3,0.2-0.7,0.3-1,0.5c-0.3-1.7-0.1-3.5,0.5-5.2c0.4-1.1,1.1-2.1,2.1-2.4c0.9-0.3,2,0.1,2.7,0.8
	c0.7,0.7,1,1.7,1.2,2.7c0.1,0.4-0.2,1-0.6,0.8"/>
<path class="st0" d="M307.3,200.7c-0.4,0.6-1.2,0-1.5-0.6c-1-1.8-1.2-4-0.6-6c0.2-0.7,0.6-1.5,1.2-2s1.5-0.7,2.2-0.3
	c0.4,0.2,0.7,0.6,1,1.1c0.9,1.5,1.2,3.4,1,5.1"/>
<path class="st0" d="M389.5,187.2c-1.1-2.1-1.4-4.7-0.8-7c0.3-1,1-2.1,2-2c0.5,0.1,0.9,0.4,1.2,0.7c1.3,1.3,2.1,3,2.4,4.8"/>
<path class="st0" d="M407,186.6c-1.5-2.2-2-5.1-1.2-7.7c0.4-1.4,1.5-2.9,3-2.7c1.3,0.2,2,1.6,2.3,2.9c0.4,1.4,0.8,2.9,1.1,4.4
	c0.1,0.3-0.2,0.8-0.4,0.6"/>
<path class="st0" d="M416.3,208.1c-2.2-2-3.3-5-3-8c0-0.2,0.1-0.5,0.2-0.7c0.2-0.3,0.5-0.4,0.9-0.4c1.3-0.2,2.5,0.6,3.3,1.6
	s1.2,2.2,1.6,3.4"/>
<path class="st0" d="M429.3,201.3c-0.5,0.3-1-0.3-1.2-0.8c-0.8-1.6-1.1-3.4-1-5.2c0.1-1.1,0.3-2.3,1-3.2c0.6-0.9,1.7-1.6,2.9-1.5
	c1.3,0.1,2.4,1.1,2.9,2.4s0.6,2.6,0.6,3.9c0,0.3,0,0.7-0.2,0.9s-0.7,0.2-0.8-0.1"/>
<path class="st0" d="M421.4,186.3c-0.2,0.2-0.5-0.2-0.5-0.5c-0.1-0.9-0.1-1.8,0.3-2.7c0.3-0.8,1.1-1.6,2-1.6c0.9,0,1.7,0.7,2.1,1.5
	c0.4,0.8,0.3,1.8,0.2,2.7c0,0.3-0.3,0.8-0.5,0.6"/>
<path class="st0" d="M427,231c-2.1-1.2-3.3-3.9-2.7-6.2c0.3-1.4,1.6-2.8,3-2.5c1.5,0.3,1.9,2.1,2.5,3.5c0.1,0.1,0.1,0.2,0.3,0.3
	c0.1,0,0.2-0.2,0.1-0.2"/>
<path class="st0" d="M436.4,247.2c0.1,0.4,0.2,0.7,0.3,1.1c-2.1-2.3-3.7-5.4-3.5-8.5c0.1-1.3,0.9-2.9,2.2-2.8c0.7,0,1.3,0.6,1.8,1.2
	c2.4,2.8,3.9,6.2,4.3,9.8"/>
<path class="st0" d="M446.4,233.6c-1.2,0.2-1.9-1.2-2.2-2.4c-0.2-1.1-0.4-2.3,0-3.5s1.3-2.1,2.5-2.2c1.4-0.1,2.6,1.2,3.1,2.5
	c0.6,1.4,0.6,3.1,0.2,4.5c-0.3-0.2-0.6-0.4-0.9-0.6"/>
<path class="st0" d="M454.6,217.3c-0.6-1.7-0.3-3.6,0.7-5c1.1-1.4,2.9-2.3,4.6-2.1c0.3,0,0.7,0.1,0.9,0.3c0.2,0.2,0.2,0.5,0.2,0.8
	c0,1,0.1,2.1-0.3,3c-0.4,1-1.2,1.8-2.2,1.8"/>
<path class="st0" d="M456.4,193.4c-0.5-2.4,1-5.1,3.3-5.9c0.7-0.2,1.5-0.3,1.9,0.3c0.2,0.3,0.2,0.6,0.3,0.9c0.1,1.6,0.2,3.1,0.1,4.7
	"/>
<path class="st0" d="M470.4,199.4c-0.6-0.7-0.3-1.8,0.4-2.4c0.7-0.6,1.6-0.8,2.5-1c0.6-0.1,1.3-0.2,1.8,0.1c0.5,0.3,0.7,0.8,0.9,1.3
	c0.7,2.1,0,4.6-1.8,6"/>
<path class="st0" d="M463.8,257c-1.9-2.2-4.5-3.7-6.8-5.5c-2.3-1.8-4.5-4-5.2-6.8c2.5,0.6,5.3-0.2,7.6,0.9c2.4,1.1,3.6,3.8,4.5,6.3"
	/>
<path class="st0" d="M473.9,249.9c-2.6-1.4-3.2-4.8-3.3-7.8c-0.1-1.3,0-2.8,1.1-3.4c1.2-0.7,2.7,0.3,3.6,1.3c1.7,2,2.6,4.7,2.5,7.4
	c0,0.2,0,0.4-0.2,0.5c-0.2,0.1-0.4-0.2-0.2-0.3"/>
<path class="st0" d="M409.4,258.8c-0.3,0.2-0.6-0.2-0.7-0.5c-0.3-1.5-0.5-3.3,0.7-4.2c1.2-0.8,3,0.1,3.6,1.5c0.6,1.4,0.3,2.9,0,4.4
	c-0.2-0.4-0.4-0.8-0.7-1.1"/>
<path class="st0" d="M321.9,209.6c-1.6-1.2-2.5-3.2-2.6-5.2c0-0.4,0-0.8,0.2-1.1c0.3-0.5,0.9-0.6,1.5-0.7c2.6-0.1,5.2,1.7,6,4.1"/>
<path class="st0" d="M299.5,211.2c-0.4-1.3-0.6-2.6-0.6-4c0-0.2,0-0.5,0.2-0.7c0.2-0.3,0.7-0.3,1-0.3c1.9,0.2,3.7,1.2,4.8,2.7"/>
<path class="st0" d="M354,183.4c0.1,0.3,0.1,0.7,0.2,1c-0.7-1.8-1.2-3.8-1.5-5.7c-0.1-0.4-0.1-0.8,0.1-1.1c0.3-0.5,1-0.7,1.6-0.7
	c2.7,0.2,4.8,3.2,4,5.8"/>
<path class="st0" d="M297.6,270.7c-1.1-1.1-2.2-2.3-2.5-3.8c-0.4-1.5,0.3-3.3,1.7-3.8c1.5-0.4,3,0.8,4,2.1c1,1.3,1.8,2.7,2.5,4.1"/>
<path class="st0" d="M270.3,267.2c-1.4-0.8-2.3-2.4-2.4-4c0-0.7,0.2-1.5,0.7-1.9c0.6-0.4,1.3-0.3,2-0.2c1.8,0.3,3.6,0.9,5.2,1.7"/>
<path class="st0" d="M192.9,205.7c-0.5,1.1-1,2.2-0.9,3.4c0.1,1.2,1.2,2.4,2.3,2.2c1.3-0.2,1.8-1.8,2.1-3.2"/>
<path class="st0" d="M203,189.1c-1.2,1.3-1.6,3.2-1.1,4.8c0.1,0.4,0.3,0.8,0.7,1.1c0.8,0.6,2,0.2,2.6-0.6c0.6-0.8,0.7-1.8,0.8-2.8"
	/>
<path class="st0" d="M187.6,187.1c-0.1,0.2-0.3,0.4-0.6,0.4c-1.2,0.4-2.7-0.7-2.6-2c0.1-1.3,1.8-2.2,2.9-1.4"/>
<path class="st0" d="M173.3,184c-1,0.5-2.2-0.8-1.7-1.9c0.4-1,1.9-1.3,2.9-0.8"/>
<path class="st0" d="M164.9,180c-1.4-0.5-2.3-2-2.1-3.4c0.7,0,1.4,0,2.2,0c0-0.3,0-0.5,0-0.8"/>
<path class="st0" d="M165.2,141.8c0.2,0,0.2,0.3,0.1,0.4c-0.2,0.1-0.4,0.1-0.6,0c-1.1-0.3-2.2-0.9-3-1.8c-0.2-0.3-0.5-0.6-0.3-1
	c0.1-0.2,0.3-0.3,0.5-0.4c1.4-0.6,3-0.8,4.4-0.4"/>
<path class="st0" d="M177.6,130.8c-1.4-0.9-2.3-2.4-2.3-4c0-0.2,0-0.5,0.2-0.7c0.2-0.2,0.4-0.2,0.6-0.2c1.5,0.1,2.9,0.6,4.1,1.4"/>
<path class="st0" d="M188.7,137.9c-0.8-1-1.2-2.2-1-3.4c0.2-1.2,1.2-2.3,2.5-2.3c1.2,0,2.3,1.4,1.8,2.5"/>
<path class="st0" d="M183.4,156.7c-0.1,0.2-0.4,0.2-0.6,0c-0.7-0.3-1.4-0.7-1.9-1.3s-0.7-1.4-0.3-2.1c0.4-0.7,1.4-0.9,1.9-0.2
	c0.3-0.4,0.4-1.1,0.1-1.6"/>
<path class="st0" d="M168.5,113.2c-1.3,0-2.4-1.6-1.8-2.8c0.6-1.2,2.5-1.4,3.3-0.3"/>
<path class="st0" d="M162.7,123c-0.5-0.7-1-1.4-0.9-2.3c0.1-0.8,1.2-1.5,1.8-0.9c0-0.2,0-0.4-0.1-0.6"/>
<path class="st0" d="M176.4,98.3c-0.3,0.3-0.8-0.1-1-0.5c-0.5-0.9-0.7-2-0.1-2.8s2.1-0.9,2.4,0.1"/>
<path class="st0" d="M183,80.5c-0.7-0.4-0.4-1.7,0.4-1.9c0.8-0.3,1.6,0.2,2.2,0.7s1.1,1.2,1.9,1.6"/>
<path class="st0" d="M190.1,61.8c-0.6-0.8-1.2-1.7-1.5-2.7c-0.2-1,0.1-2.2,0.9-2.8c0.9-0.5,2.3,0,2.4,1"/>
<path class="st0" d="M201.1,49.1c-0.3-0.7-0.7-1.3-0.7-2.1c0-0.7,0.6-1.5,1.3-1.5c0.4,0,0.7,0.2,1,0.4c0.8,0.7,1.4,1.6,1.6,2.7"/>
<path class="st0" d="M209.5,58.4c-0.3-0.9,0.3-2,1.3-2.2c0.9-0.2,1.9,0.4,2.1,1.3"/>
<path class="st0" d="M201.9,67.6c-0.5-0.9-0.7-1.9-0.6-2.9c0-0.2,0.1-0.5,0.3-0.7c0.3-0.3,0.9-0.2,1.2,0.1s0.4,0.8,0.5,1.2"/>
<path class="st0" d="M229.9,47.3c-0.8-0.7-1.1-1.9-0.9-3c0.3-1,1.1-1.9,2.1-2.2c0.5-0.2,1.2-0.2,1.6,0.1c0.5,0.3,0.8,0.9,0.5,1.5"/>
<path class="st0" d="M222,42.4c-1.1-0.8-1.2-2.6-0.2-3.5c1-0.9,2.8-0.5,3.4,0.7"/>
<path class="st0" d="M237.2,36.1c0.4-0.7,1.3-1.1,2.1-1c0.8,0.1,1.5,0.8,1.7,1.5"/>
<path class="st0" d="M180.2,71c-0.4-0.7-0.5-1.6-0.3-2.4c0-0.2,0.1-0.4,0.2-0.5c0.4-0.4,1.1,0.1,1.6,0.5s1.4,0.5,1.4-0.1"/>
<path class="st0" d="M220.6,94.5c-0.4-1.3-0.6-2.6-0.5-3.9c0.1-1.3,0.9-2.9,2.2-2.9c1.4,0,2.2,1.6,2.6,3"/>
<path class="st0" d="M207.8,96.2c-1.1-0.9-1.3-2.7-0.3-3.8s2.7-1.2,3.8-0.2"/>
<path class="st0" d="M221.6,78c-0.2-1.1-0.3-2.2,0-3.2s1.4-1.9,2.4-1.6c1.3,0.3,1.7,2,1.8,3.4"/>
<path class="st0" d="M238.6,80.4c0.2-0.8-0.1-1.7,0-2.5c0.1-0.8,0.7-1.8,1.5-1.5c0.8,0.2,0.9,1.3,0.9,2.1"/>
<path class="st0" d="M237.3,107.2c-1.1-0.9-0.8-2.9,0.5-3.5c1.3-0.5,2.9,0.7,2.8,2.1"/>
<path class="st0" d="M226.9,123.9c-0.7,0.9-0.2,2.4,0.9,2.7s2.3-0.8,2.1-1.9"/>
<path class="st0" d="M216,113.9c-1-0.1-1.9,1-1.7,2c0.2,1,1.2,1.7,2.2,1.6c1-0.1,1.9-0.8,2.3-1.7"/>
<path class="st0" d="M221.3,152c-1.1,0.8-2.8,0.1-3.1-1.1c-0.1-0.3-0.1-0.6,0-0.8c0.2-0.5,0.9-0.7,1.5-0.7c0.6,0,1.2,0.2,1.7,0.1"/>
<path class="st0" d="M238.7,149.7c-0.8-0.5-1.6-1.1-2.1-1.9c-0.7-1.3-0.2-3.1,1.1-3.7c1.3-0.6,3.2,0.4,3.2,1.8"/>
<path class="st0" d="M234.2,173.1c-1.5,0.1-2.9-1.3-2.9-2.9c0.1-1.5,1.6-2.8,3.1-2.6"/>
<path class="st0" d="M228.8,193.6c-0.9,0-1.7,0.8-2,1.6s-0.2,1.8-0.1,2.7c0,0.4,0.1,0.8,0.5,0.9c0.2,0.1,0.5-0.1,0.7-0.3
	c1.1-0.9,1.9-2,2.4-3.3"/>
<path class="st0" d="M238.4,191.1c-1.2,2-0.2,5,2,5.9c0.4-0.9,0.6-1.8,0.6-2.8"/>
<path class="st0" d="M262.8,183.6c-0.3,1.7,0.5,3.5,2,4.4c0.3,0.2,0.7,0.3,1,0.2c0.2-0.1,0.3-0.4,0.4-0.6c0.5-1.4,0.5-2.9,0.2-4.3"
	/>
<path class="st0" d="M267.9,172.8c0.7,1.5,1.8,2.8,3.2,3.7c0.2,0.1,0.4,0.2,0.6,0.2c0.3-0.1,0.4-0.3,0.5-0.6
	c0.2-0.6,0.3-1.3,0.2-1.9"/>
<path class="st0" d="M263.8,159.4c-0.6-0.4-1-1-1.1-1.7c-0.2-1.2,0.6-2.5,1.8-2.8c1.2-0.2,2.5,0.9,2.3,2.1c-0.2-0.2-0.5-0.3-0.7-0.5
	"/>
<path class="st0" d="M278.2,124.4c-0.2-0.8-0.3-1.5-0.3-2.3c0-0.6,0-1.3,0.5-1.7c0.7-0.8,2.2-0.2,2.6,0.7c0.5,0.9,0.3,2.1,0.1,3.1
	c-0.2-0.2-0.5-0.4-0.7-0.6"/>
<path class="st0" d="M266,127.7c-0.3-1-0.3-2.2,0-3.2c0.2-0.7,0.6-1.4,1.3-1.3c0.8,0,1.1,1,1.2,1.7c0,0.2,0.1,0.5-0.1,0.7
	c-0.1,0.2-0.6,0.1-0.5-0.1"/>
<path class="st0" d="M300.2,89.6c0.1-1,0.4-2,1.1-2.7c0.7-0.7,1.9-1,2.7-0.4c0.3,0.3,0.5,0.6,0.7,1c0.4,1.3-0.6,2.9-2,3.1"/>
<path class="st0" d="M305,59.7c0.1-0.8,0.2-1.6,0.7-2.2s1.4-1,2.1-0.5c0.6,0.4,0.8,1.2,0.9,1.9c0.1,0.7,0.2,1.5,0,2.2
	c-0.2,0.7-0.9,1.3-1.6,1.3"/>
<path class="st0" d="M316.9,68.4c0.5-1.5,2.7-2.1,3.9-1c1.2,1.1,0.8,3.3-0.7,4"/>
<path class="st0" d="M279.4,44.2c-0.6-0.4-0.1-1.5,0.5-1.9c0.7-0.5,1.6-0.9,2.5-0.8c0.9,0.1,1.7,0.7,1.9,1.6
	c0.2,0.9-0.5,1.9-1.4,1.8"/>
<path class="st0" d="M298.9,34.5c-0.2-1.3,1.3-2.5,2.5-2.1c1.2,0.4,1.5,2.3,0.5,3.2"/>
<path class="st0" d="M307.4,43.4c1.1,1.9,2.3,3.8,3.4,5.7c0.2,0.3,0.3,0.5,0.6,0.6c0.6,0.2,1.1-0.6,1.7-0.8c0.9-0.3,1.6,0.7,1.7,1.6
	c0.1,0.9,0,1.9,0.6,2.6c0.4,0.5,1.1,0.8,1.5,1.2c0.6,0.6,0.8,1.5,1.2,2.2c0.4,0.8,1.1,1.5,2,1.3c0.8-0.2,1.6-1.1,2.2-0.6
	c0.2,0.2,0.2,0.4,0.3,0.7c0.2,0.8,0.2,1.7,0.2,2.5c2.1,0.9,2.3,3.8,2.1,6.1c0.6,0,1.1,0.1,1.7,0.1c0.4,2,0.7,4.1,1.1,6.1"/>
<path class="st0" d="M331,91c0-0.8,0-1.6,0.5-2.2c0.4-0.6,1.4-0.9,2-0.4c0.3,0.2,0.4,0.6,0.5,0.9c0.4,1.5,0.4,3-0.2,4.4"/>
<path class="st0" d="M335,104.6c0.3-1.5,2.2-2.4,3.6-1.8c0.6,1.1,0.4,2.6-0.5,3.5c-0.4,0.4-1.4,0.5-1.3-0.1"/>
<path class="st0" d="M336.3,116.3c-0.6-1.3,0.6-2.7,1.8-3.4c0.8-0.4,1.7-0.7,2.5-0.2c0.5,0.4,0.8,1,0.9,1.7c0.1,0.6,0.3,1.2,0,1.7
	c-0.3,0.5-1.2,0.7-1.4,0.1"/>
<path class="st0" d="M340.4,122.8c0.3-0.9,1.5-1.4,2.4-1c0.9,0.4,1.2,1.7,0.6,2.5"/>
<path class="st0" d="M338.6,140.4c0.9-0.3,1.8-0.5,2.7-0.8c0.2-0.1,0.4-0.1,0.6,0c0.3,0.1,0.4,0.5,0.4,0.8c0.2,1.5-0.3,3-1.4,4.1"/>
<path class="st0" d="M341.3,148.3c1.2,0.6,1.5,2.3,0.8,3.5c-0.6,1.2-2,1.8-3.3,2"/>
<path class="st0" d="M329.9,162.1c-0.8-0.7-1.5-1.5-1.9-2.5c1.6-0.6,3.6,0.5,4.1,2.2C331.3,161.9,330.6,162,329.9,162.1"/>
<path class="st0" d="M308.9,170.8c-1.3-0.7-1.3-2.8-0.2-3.6c1.2-0.8,3.1-0.2,3.7,1.1c0.2,0.4-0.2,1-0.4,0.7"/>
<path class="st0" d="M305.1,157.9c-0.7-0.8-1-2-0.6-3c0.4-1,1.6-1.7,2.6-1.4s1.5,1.7,0.9,2.6"/>
<path class="st0" d="M296.5,175c-0.4,0.6,0.1,1.5,0.8,1.5c0.7,0.1,1.3-0.5,1.6-1.2c0.3-0.7,0.2-1.4,0.2-2.1"/>
<path class="st0" d="M284.7,187.5c0-0.2-0.2-0.3-0.4-0.2c-0.1,0.1-0.2,0.3-0.2,0.5c-0.1,1.1,0,2.1,0.4,3.1c0.1,0.3,0.2,0.5,0.4,0.7
	c0.6,0.5,1.6-0.2,1.7-1s0-1.6,0.3-2.4"/>
<path class="st0" d="M293.8,188.5c-0.2,1.3,0.6,2.8,1.8,3.4c0.6-0.9,0.8-2.1,0.5-3.1"/>
<path class="st0" d="M251.9,208.1c0,1.3,0,2.6,0,4c0,0.5,0,1,0.3,1.4c0.5,0.6,1.6,0.3,2-0.3c0.5-0.6,0.5-1.5,0.5-2.2"/>
<path class="st0" d="M260.6,203.2c-0.2,0.8,0.1,1.7,0.8,2.2c0.8-0.6,1.1-1.8,0.7-2.7"/>
<path class="st0" d="M220.8,215.3c-0.6,0.9-0.8,2-0.6,3.1c0.1,0.6,0.4,1.2,1,1.3c0.7,0.1,1.3-0.6,1.4-1.4c0.1-0.7-0.1-1.4,0-2.2"/>
<path class="st0" d="M174.7,202.9c-0.2-0.2-0.6-0.3-0.9-0.2c-0.2,1-0.3,1.9-0.2,2.9c1.4,0.2,2.8-0.6,3.4-1.8"/>
<path class="st0" d="M161.9,159.3c-0.8,0-1.4-0.7-1.5-1.4c0-0.8,0.7-1.5,1.4-1.5c0.6,0,1.1,0.3,1.7,0.3c0-0.3,0-0.7,0-1"/>
<path class="st0" d="M200,82.8c-0.2-0.8-0.7-1.5-0.8-2.3s0.5-1.8,1.3-1.6c0.8,0.2,1.3,1.5,1.9,1.1"/>
<path class="st0" d="M278,79c-0.5-1.5-0.8-3.1-0.8-4.7c0-0.3,0-0.7,0.3-0.9c0.4-0.3,0.9,0.1,1.2,0.4c0.7,0.8,1.2,1.7,1.5,2.7"/>
<path class="st0" d="M257.2,66.8c-0.9-0.6-1.1-2-0.5-3c0.6-0.9,1.9-1.3,3-0.9c1.1,0.4,1.8,1.3,2.1,2.4c-0.3-0.2-0.6-0.5-0.9-0.7"/>
<path class="st0" d="M291.4,110.2c-0.2-1-0.2-2.4,0.7-2.8c0.9-0.4,2,0.8,1.5,1.7"/>
<path class="st0" d="M151.4,88c-0.3-0.6,0.4-1.3,1-1.1c-0.2-0.3-0.3-0.5-0.5-0.8"/>
<path class="st0" d="M147.6,80.4c-0.6,0-1.1-0.7-0.8-1.3c0.3-0.5,1.2-0.5,1.5,0"/>
<path class="st0" d="M144.7,72.9c-0.3-0.3-0.1-0.9,0.3-1.1c0.4-0.2,0.9,0,1,0.4"/>
<path class="st0" d="M143.8,88.8c-0.9-0.2-1.1-1.8-0.2-2.1"/>
<path class="st0" d="M138.6,71.2c-0.3,0.1-0.5-0.3-0.6-0.6c-0.1-0.4-0.2-0.9,0-1.2s0.9-0.4,1-0.1"/>
<path class="st0" d="M134,68c-0.6,0-0.8-1-0.3-1.5c0.4-0.5,1.1-0.6,1.6-1"/>
<path class="st0" d="M137.9,57.7c-0.8-0.2-0.7-1.6,0.1-1.7c0.3,0,0.6,0,0.9,0c0.3-0.1,0.5-0.4,0.4-0.6"/>
<path class="st0" d="M142.1,46.4c0-0.4,0-0.7,0-1.1c0.5-0.2,1.2,0,1.6,0.3"/>
<path class="st0" d="M149.7,39.1c-0.2-0.6,0.2-1.2,0.8-1.4c0.6-0.1,1.2,0.3,1.4,0.8"/>
<path class="st0" d="M151.5,51.5c-0.5-0.6-0.1-1.7,0.6-1.8c0.7-0.2,1.5,0.6,1.4,1.4"/>
<path class="st0" d="M145.2,54.6c-0.2-0.5,0.2-1.2,0.7-1.3c0.6-0.1,1.1,0.5,1.1,1"/>
<path class="st0" d="M159,35.5c0-0.3,0.1-0.6,0.2-0.9c0.7,0.1,1.3,0.9,1.1,1.6c0-0.4,0-0.8,0-1.3"/>
<path class="st0" d="M157.8,28.4c0.4-0.7,1.5-0.8,2-0.2"/>
<path class="st0" d="M168.5,27.7c0-0.6,0.5-1.3,1.1-1.4c0.3,0.3,0.5,0.7,0.5,1.1"/>
<path class="st0" d="M173.9,32.6c0-0.6,0-1.1,0-1.7c0.9,0.1,1.5,1.1,1.3,1.9"/>
<path class="st0" d="M168.2,47.2c-0.4-0.2-0.4-0.9,0.1-1.2c0.4-0.2,1,0,1.2,0.4c0.3,0.4,0.3,0.9,0.3,1.4"/>
<path class="st0" d="M163.3,57.8c-0.4-0.4,0.4-1,0.9-0.7c0.4,0.3,0.5,0.9,0.4,1.5"/>
<path class="st0" d="M157.5,66.2c-0.5-0.5-0.3-1.5,0.3-1.8s1.4,0.6,1,1.2"/>
<path class="st0" d="M170.4,59c-0.6-0.2-0.8-1.1-0.3-1.5s1.3-0.2,1.5,0.4C171.7,58.5,171,59.1,170.4,59"/>
<path class="st0" d="M158,56.4c-0.5-0.4-0.6-1.3-0.1-1.7c0.5-0.5,1.3-0.4,1.7,0.2"/>
<path class="st0" d="M164.8,71c-0.6-0.2-1-1.1-0.5-1.6c0.5-0.5,1.5-0.1,1.4,0.6"/>
<path class="st0" d="M162.5,83.8c0.1-0.1,0.2,0.2,0.1,0.3s-0.3,0-0.4-0.1c-0.5-0.4-0.9-1-1.1-1.7c0.5-0.2,1.1-0.3,1.7-0.2"/>
<path class="st0" d="M160.4,91c-0.1-0.6,0.4-1.2,1-1.2"/>
<path class="st0" d="M157.5,80.8c-0.9-0.5-1.4-1.5-1.2-2.5c0.4-0.5,1.3-0.1,1.5,0.5c0.2,0.6,0,1.2-0.3,1.8"/>
<path class="st0" d="M157.5,102c-0.7-0.6-1.1-1.6-0.9-2.5c0.5-0.1,1,0.1,1.3,0.5"/>
<path class="st0" d="M189.4,41.4c-0.5-0.9-0.8-1.9-0.8-2.9c0.4-0.1,0.8,0.1,1,0.5c0-0.5,0-1,0.1-1.5"/>
<path class="st0" d="M191.6,28.4c-0.6-0.6-0.5-1.8,0.3-2.1c0.8-0.3,1.8,0.7,1.3,1.4"/>
<path class="st0" d="M182.4,23.9c-0.1-1.2,0.7-2.3,1.8-2.7c0.1,0.5,0.2,1.1,0.3,1.6"/>
<path class="st0" d="M200.3,20.1c-0.1-0.4,0.1-0.8,0.5-0.8s0.8,0.2,0.8,0.6"/>
<path class="st0" d="M210,20.9c0-0.3,0.1-0.7,0.1-1c0.9-0.1,1.8,0.5,2.1,1.3"/>
<path class="st0" d="M164.1,18.7c0-0.6,0-1.3,0.1-1.9c0.5,0.1,1,0.2,1.5,0.3c-0.2,0.7-0.7,1.4-1.3,1.9"/>
<path class="st0" d="M137,43.9c0.7-0.2-0.4-1.5,0.2-2c0.2-0.2,0.5-0.1,0.7-0.1c0.3,0,0.5-0.3,0.4-0.5"/>
<path class="st0" d="M142.7,35.3c-0.1-0.8,0-1.7,0.2-2.5c1.1,0.4,2,1.5,2.1,2.7c0-0.3-0.1-0.7-0.1-1"/>
<path class="st0" d="M150,33.4c-0.2-0.4,0.1-0.9,0.5-1.1c0.4-0.1,0.9,0.1,1.1,0.6"/>
<path class="st0" d="M139.9,25.8c0.1-0.5,0.3-1,0.7-1.1c0.4-0.2,1,0.3,0.8,0.7"/>
<path class="st0" d="M135,26.4c-0.4-0.7-0.8-1.6-0.5-2.4c0.3-0.8,1.7-1,1.9-0.1"/>
<path class="st0" d="M143.6,17.2c-0.3-0.3-0.3-0.9,0.1-1.2c0.3-0.3,0.9-0.2,1.1,0.2"/>
<path class="st0" d="M149.8,20.2c-0.5-0.7-0.6-1.7-0.1-2.4c0.6,0.1,1.2,0.4,1.7,0.8"/>
<path class="st0" d="M153.5,20.3c0.1,0,0.2,0,0.3,0"/>
<path class="st0" d="M11.2,123.9c0.7-0.5,1-1.3,1.7-1.7c0.8-0.4,2,0.1,2.2,1c0.2,0.9-0.5,1.9-1.4,2c0-0.3-0.1-0.5-0.1-0.8"/>
<path class="st0" d="M20.2,121.4c-0.3-0.8,0.2-1.7,1-2c0.7-0.3,1.6-0.2,2.3,0.2c0.5,0.3,0.9,0.7,1.1,1.2c0.1,0.5-0.1,1.2-0.6,1.4
	c-0.5,0.2-1.2-0.3-1.1-0.8"/>
<path class="st0" d="M13.6,107.3c0-1.3,1.1-2.4,2.4-2.5c1.3-0.1,2.5,0.8,2.9,2"/>
<path class="st0" d="M16.1,141.5c-0.3-2.1,1.6-4.2,3.7-4.1c0.2,0,0.5,0.1,0.6,0.2c0.2,0.1,0.2,0.4,0.3,0.6c0.3,1.4-0.4,2.9-1.5,3.7"
	/>
<path class="st0" d="M13.5,158.2c0.9-0.6,2.1-0.8,3.2-0.6c0.7,0.1,1.5,0.5,1.8,1.2s-0.3,1.7-1,1.5"/>
<path class="st0" d="M11.4,171.8c1.5-0.9,3.7-1.2,4.6,0.3c0.4,0.7,0.3,1.7-0.2,2.3s-1.5,0.8-2.3,0.5"/>
<path class="st0" d="M12.8,191.7c0.8-0.5,1.8-0.8,2.8-0.8c0.2,0,0.5,0,0.6,0.1c0.5,0.3,0.5,1,0.4,1.5c-0.2,1-0.8,1.9-1.7,2.5"/>
<path class="st0" d="M25.5,165.1c0.1-1.1,1.5-1.8,2.5-1.3c1,0.5,1.2,2,0.4,2.8"/>
<path class="st0" d="M22.5,217.3c0.2-1.1,1.8-1.4,2.7-0.8c0.9,0.7,1.2,1.9,1.3,3c0.1,0.9,0,1.8-0.5,2.5s-1.7,1-2.3,0.3"/>
<path class="st0" d="M11.5,224.3c-0.8-0.6-0.7-2,0-2.6c0.8-0.6,2-0.6,2.8,0c0.8,0.6,1.2,1.7,1.2,2.7c0,0.7-0.2,1.4-0.8,1.7
	c-0.6,0.3-1.5-0.3-1.3-0.9"/>
<path class="st0" d="M19.3,194.5c0.9-0.7,1.9-1.1,2.9-1.4c0.3-0.1,0.7-0.1,1,0c0.3,0.2,0.5,0.5,0.6,0.8c0.3,0.9,0.5,2,0,2.9
	s-1.8,1.2-2.5,0.5"/>
<path class="st0" d="M27.4,76c-0.3-0.8,0.9-1.5,1.6-1.1c0.7,0.4,0.8,1.5,0.3,2.2c-0.3,0.2-0.8-0.1-0.6-0.5"/>
<path class="st0" d="M22.1,97.2c1-0.8,2.2-1.5,3.4-1.8c0.6-0.2,1.2-0.3,1.7,0.1c0.7,0.4,0.7,1.4,0.4,2.2c-0.3,0.8-0.8,1.4-1,2.2"/>
<path class="st0" d="M29.1,109.7c-0.5-0.7,0-1.9,0.9-2.1c0.9-0.1,1.8,0.6,1.9,1.5s-0.4,1.8-1.1,2.3"/>
<path class="st0" d="M34,121.7c0-0.8,0.5-1.5,1.1-2.1c1-0.9,2.8-1.1,3.8-0.2c1,1,0.5,3.1-0.9,3.2"/>
<path class="st0" d="M41.4,124.6c-0.1-0.4-0.1-0.9,0.1-1.3c0.2-0.4,0.8-0.6,1.1-0.3c0.1,0.1,0.2,0.3,0.2,0.5
	c0.2,1.1,0.2,2.5-0.9,2.8C41.4,126,41.2,125.3,41.4,124.6"/>
<path class="st0" d="M13.7,93.6c-0.8-0.2-0.5-1.6,0.3-1.7c0.8-0.1,1.5,0.7,1.7,1.5c-0.1-0.5-0.1-0.9-0.2-1.4"/>
<path class="st0" d="M13.8,63.3c-0.1-1,1-1.8,1.9-1.5c0.9,0.3,1.3,1.6,0.7,2.4c-0.4-0.2-0.7-0.7-0.6-1.1"/>
<path class="st0" d="M14.1,53.3c-0.4-0.3-0.3-1,0.2-1.2c0.4-0.2,1,0.1,1.2,0.5s0.2,1,0,1.4c-0.1-0.4-0.2-0.7-0.3-1.1"/>
<path class="st0" d="M14.3,46.2c0.1-0.7,0.6-1.3,1.3-1.3c0.7-0.1,1.4,0.4,1.6,1"/>
<path class="st0" d="M23,50.6c0.5-0.4,1.3-0.4,1.7,0.1c0.4,0.4,0.5,1.2,0.1,1.7"/>
<path class="st0" d="M7.6,67.3c0.1-1.1,1.6-1.8,2.4-1.1"/>
<path class="st0" d="M14.6,36c0.4-0.7,1.2-1,1.9-0.7c0.2,0.3,0.2,0.8-0.1,1.1"/>
<path class="st0" d="M16.8,24.3c-0.5-0.6,0.3-1.6,1.1-1.5c0.8,0.2,1.2,1.1,1.1,1.9c0-0.4,0-0.7,0-1.1"/>
<path class="st0" d="M15.8,16.2c0.3-0.3,0.7-0.3,1,0c0.3,0.3,0.3,0.8,0,1"/>
<path class="st0" d="M22.4,34.9c0.3-0.6,1.2-0.8,1.8-0.6s1,1.1,0.7,1.7"/>
<path class="st0" d="M9.9,29c-0.7-0.4-0.8-1.4-0.2-1.9c0.6-0.5,1.6-0.1,1.8,0.6c0-0.5,0-1.1,0-1.6"/>
<path class="st0" d="M15.8,8.1c0.3-0.4,0.8-0.7,1.4-0.7"/>
<path class="st0" d="M464.9,124.1c-0.4-0.4-0.6-1-0.5-1.6c0.7-0.2,1.5,0,2.1,0.5"/>
<path class="st0" d="M464.7,113.1c-0.7,0.1-1-1.1-0.4-1.5s1.4-0.2,1.9,0.3"/>
<path class="st0" d="M461.9,105.4c-0.4-0.4-0.4-1.2,0-1.5c0.4-0.4,1.2-0.3,1.5,0.2"/>
<path class="st0" d="M457.2,109.8c-0.4-0.6-0.7-1.3-0.8-2c-0.1-0.7,0.1-1.5,0.7-1.9c0.6-0.4,1.6-0.1,1.8,0.6"/>
<path class="st0" d="M459.4,95.1c-0.4-0.7-0.8-1.5-0.6-2.3c0.2-0.8,1.6-1.1,1.8-0.3"/>
<path class="st0" d="M458.9,86.4c-0.5-0.7-0.7-1.7-0.5-2.5c1.2,0.2,2.3,0.4,3.5,0.6"/>
<path class="st0" d="M467.4,76.7c-0.7-0.3-1.1-1.2-0.8-1.9c0.3-0.7,1.1-1.1,1.8-0.9"/>
<path class="st0" d="M471.8,66.5c-0.2-0.7-0.4-1.5,0-2.2c0.4-0.6,1.6-0.7,1.7,0"/>
<path class="st0" d="M476.9,59.2c-0.4-0.3-0.3-1,0.1-1.3c0.4-0.3,1.1,0,1.2,0.5"/>
<path class="st0" d="M478.1,84.7c0.1-0.6,0.2-1.2,0.7-1.6c0.4-0.4,1.3-0.3,1.5,0.3"/>
<path class="st0" d="M472.4,96c-0.7-0.7-1.2-1.7-1.3-2.7c0-0.2,0-0.3,0.1-0.5c0.4-0.7,1.4,0.4,2.2,0.2"/>
<path class="st0" d="M472.5,83.6c-0.1-0.3-0.2-0.6-0.3-0.9c0.7-0.1,1.5-0.2,2.2-0.2"/>
<path class="st0" d="M482.3,72.5c-0.4-0.8-0.6-1.8-0.5-2.7c0.5-0.1,1.1,0.2,1.3,0.7c0.1,0.2,0.1,0.4,0.3,0.4c0.2,0,0.1-0.4,0-0.2"/>
<path class="st0" d="M484.7,65.7c0.4,0.1,0.7,0.2,1.1,0.3"/>
<path class="st0" d="M478.1,110.5c-0.4-0.6,0-1.6,0.7-1.8s1.5,0.6,1.4,1.3"/>
<path class="st0" d="M473.9,115.4c0.6-0.1,1.3-0.2,1.9-0.2"/>
<path class="st0" d="M483.4,110c0.2,0.2,0.5,0.4,0.7,0.5C483.8,110.4,483.6,110.2,483.4,110"/>
<path class="st0" d="M418.3,58.5c-0.6,0.8,0.1,2.1,1.1,2.1c1,0,1.6-1.3,1.1-2.1"/>
<path class="st0" d="M427.4,54.8c0,1.1,0.6,2.1,1.4,2.8c0.4-0.7,0.6-1.5,0.5-2.2"/>
<path class="st0" d="M437.9,54.3c0.1,1.3,0.8,2.5,1.8,3.2c0.3-0.1,0.5-0.5,0.4-0.8"/>
<path class="st0" d="M449.4,39.9c0,0.4,0.2,0.7,0.5,0.9c0.5,0.4,1.1,0.5,1.6,0.2c0.5-0.3,0.7-1.1,0.2-1.5"/>
<path class="st0" d="M450,28.5c0.5,0.1,1-0.3,1.1-0.8"/>
<path class="st0" d="M459.9,23.7c-0.5-0.3,0-1.3,0.6-1.1s0.8,1,0.6,1.5"/>
<path class="st0" d="M466.6,20.3c0.2-0.6,1-0.6,1.5-0.3s0.6,1,0.7,1.6c-0.4,0-0.7,0.1-1.1,0.1"/>
<path class="st0" d="M437.8,16.2c-0.6-0.5-0.4-1.7,0.4-2c0.7-0.3,1.7,0.4,1.6,1.2"/>
<path class="st0" d="M453.5,10.8c-0.2-0.5,0.3-1,0.8-0.9c0.5,0.1,0.7,0.7,0.4,1.1"/>
<path class="st0" d="M448.9,17.3c-0.2-0.7,0.9-1.3,1.4-0.8c-0.1,0.2-0.5,0.3-0.6,0"/>
<path class="st0" d="M446.7,6.2c0.4-0.4,1.2-0.4,1.6,0"/>
<path class="st0" d="M460.3,4.9c0.4-0.4,0.9-0.5,1.4-0.3c-0.4,0.3-0.9,0.6-1.5,0.6"/>
<path class="st0" d="M468.1,9.9c0.4-0.4,1.2,0.2,0.9,0.7C468.7,10.4,468.4,10.2,468.1,9.9"/>
<path class="st0" d="M473.9,15.5c0.8-0.5,1.9,0.4,1.7,1.3"/>
<path class="st0" d="M460.9,56c0.5,0.2,1.1,0.4,1.6,0.7c0-1.4,0-2.7,0-4.1"/>
<path class="st0" d="M467.3,46.4c0.3,0.1,0.6,0.2,0.9,0.3c0.2-0.3,0.3-0.6,0.3-1C468.1,45.9,467.7,46.1,467.3,46.4"/>
<path class="st0" d="M448.7,67.6c0.1,0.9,1.2,1.6,2.1,1.3c0-0.3,0-0.7,0-1"/>
<path class="st0" d="M433.8,72.7c-0.2,1,0.5,2.1,1.5,2.3c0.5-0.8,0.7-1.8,0.5-2.8"/>
<path class="st0" d="M423.7,71.2c-0.5,0.7-0.1,1.9,0.7,2.1c0.9,0.2,1.7-0.8,1.4-1.6"/>
<path class="st0" d="M441.5,82.6c0.7,0.8,1.7,1.4,2.8,1.5c0.3-0.7,0.4-1.4,0.2-2.1"/>
<path class="st0" d="M446.9,77.9c0.3,0.8,1.4,1.2,2.2,0.9c0.8-0.3,1.2-1.3,0.9-2.1"/>
<path class="st0" d="M461.1,67.3c1.1,0.3,2.2-1.2,1.5-2.1"/>
<path class="st0" d="M473.3,50.5c0.4,0.2,0.7-0.6,0.2-0.7"/>
<path class="st0" d="M408.9,63c0-0.3-0.2-0.6-0.5-0.8c-0.1,0.6-0.1,1.3,0.3,1.8c0.4,0.5,1.4,0.2,1.4-0.4"/>
<path class="st0" d="M413.6,71.1c0.3,0,0.5,0,0.8,0"/>
<path class="st0" d="M352.1,14.9c-0.3,0.2-0.4,0.7-0.2,0.9s0.7,0.3,1,0.1c-0.3-0.4-0.6-0.8-1.1-1"/>
<path class="st0" d="M354.4,11c-0.5-0.2-0.8-0.9-0.6-1.4s0.8-0.8,1.4-0.7"/>
<path class="st0" d="M355.4,26c-0.4-0.5-0.6-1.2-0.5-1.9"/>
<path class="st0" d="M340.7,8.9c0.1-0.5,0.9-0.7,1.1-0.2C341.5,8.9,341.1,9,340.7,8.9"/>
<path class="st0" d="M335,6.5c-0.2-0.3-0.3-0.5-0.5-0.8C334.9,5.6,335.2,6.1,335,6.5"/>
<path class="st0" d="M342.4,4.9c0.2-0.2,0.3-0.6,0.2-0.9c0,0.3,0,0.6,0,0.8"/>
<path class="st0" d="M260.1,275.3c-13.8,0-27.1-5.1-41.2-4.2c-5.7,0.4-10.3,2.5-15.9,2.2c-7.3-0.4-14.5-1.4-21.8-2.1
	c-7.8-0.8-15.7-1.5-23.6-1c-6.7,0.5-13.2,1.9-19.9,2.9c-8.3,1.3-16.7,1.9-25,1.8c-7-0.1-14.1-0.6-21.1-1.4
	c-6.7-0.7-13.4-1.7-20.2-1.9c-5.8-0.2-11.7,0.1-17.5,0.5c-16.8,1-33.5,1.9-50.3,2.9c1.9-8-1-16.7-1.9-24.7
	c-1.1-8.9-1.6-17.9-1.2-26.9c0.4-7.9,1.5-15.8,2.1-23.7c0.7-11.2,0.2-22.4-0.1-33.7C0.6,111.6,2.2,57,3.8,2.5C5.4,2.4,7,2.2,8.6,2
	c17-1.8,32.3-2.3,49.4-0.7c30.8,2.9,61.9-2.3,92.8,0.2c8.6,0.7,17.1,2,25.7,2.4c15.4,0.7,30.7-1.5,46.1-2c9.9-0.3,19.8,0.1,29.8,0.5
	c16.8,0.7,33.5,1.4,50.3,2.2C363.7,7.2,427,1.5,488.2,1.4c-0.6,76.3-1.2,152.6-1.9,228.9c-0.1,14.3-0.2,28.6,1,42.8
	c-61.6-0.9-123.2-0.1-184.8,2.5C288.4,276.1,274.2,276.8,260.1,275.3z"/>
<path class="st0" d="M4.8,294.3c-0.5-1.5-0.8-3.1-0.7-4.7c0-0.8,0.2-1.7,0.8-2.2c0.9-0.6,2.3,0.2,2.5,1.3c0.2,1.1-0.4,2.2-1.3,2.9
	c0.4-0.5,1.1-0.7,1.6-0.4c0.6,0.2,0.9,0.9,0.8,1.5c-0.1,0.7-0.9,1.2-1.6,1.5c-0.5,0.2-1,0.3-1.5,0.2c-0.5-0.1-0.9-0.6-0.9-1.1"/>
<path class="st0" d="M10.7,291.6c-0.4,0.9-0.2,2,0.3,2.8c0.2,0.4,0.7,0.7,1.1,0.5c0.4-0.1,0.6-0.6,0.6-1.1c0.2-1.3,0.5-2.5,0.7-3.8"
	/>
<path class="st0" d="M16.3,294.7c1-1.3,2-2.7,3-4"/>
<path class="st0" d="M21.1,290.3c0.1,0.7,0,1.4,0,2.1c0,0.7,0.2,1.5,0.8,1.8c0.8,0.5,2-0.1,2.4-1s0.3-1.9,0.2-2.9"/>
<path class="st0" d="M16.3,289.9c1.3,1.6,2.7,3.1,4,4.7c0.1,0.1,0.2,0.2,0.2,0.1c0.1,0,0-0.2-0.1-0.1"/>
<path class="st0" d="M27,293.9c0.4,0.5,0.9,0.8,1.4,1c0.4,0.1,0.8,0.1,1.1-0.1c0.6-0.5-0.1-1.4-0.8-1.8c-0.7-0.4-1.5-1-1.2-1.7
	c0.2-0.5,0.9-0.6,1.4-0.7c0.3,0,0.5,0,0.8-0.1"/>
<path class="st0" d="M34.7,289.4c0.3,0.7,0.2,1.4,0.1,2.1c-0.1,0.7-0.3,1.4-0.2,2.1c0.1,0.7,0.6,1.4,1.2,1.6
	c0.7,0.2,1.5-0.5,1.3-1.2"/>
<path class="st0" d="M38.4,289.6c0,1.5,0,2.9,0,4.4c-0.1-0.9-0.3-1.7,0-2.6s0.9-1.6,1.8-1.7"/>
<path class="st0" d="M41.6,294.7c0-1.4,0.2-2.8,0.5-4.2"/>
<path class="st0" d="M33.6,290.7c-0.2-0.2,0.1-0.6,0.4-0.7s0.6,0.1,0.9,0.2c0.3,0.1,0.7,0.1,0.9-0.2"/>
<line class="st0" x1="41.9" y1="287.9" x2="41.9" y2="287.9"/>
<path class="st0" d="M44.5,290.5c-0.4,1.4-0.4,2.9-0.2,4.4c-0.1-0.9-0.2-1.8-0.1-2.7c0.2-0.9,0.6-1.8,1.4-2.2
	c0.2-0.1,0.4-0.2,0.5-0.1c0.2,0.1,0.3,0.2,0.4,0.4c0.8,1.3,1.2,3,1,4.5c0-0.8-0.2-1.6-0.3-2.5c0-0.8,0.3-1.8,1.1-2.1
	c0.8-0.3,1.8,0.4,2.1,1.2s0.2,1.8,0.1,2.7"/>
<path class="st0" d="M53.9,291.4c-0.1,1-0.2,2-0.3,3c-0.2-1.3-0.2-2.6,0.2-3.9c0.2-0.6,0.6-1.2,1.2-1.2c0.4,0,0.7,0.3,0.9,0.6
	c0.8,1.1,1.2,2.5,1,3.9c-0.1-1.4-0.1-3,0.9-3.9c0.4-0.4,1.1-0.6,1.5-0.2c0.2,0.2,0.3,0.4,0.3,0.6c0.3,1,0.5,2,0.6,3
	c-0.1,0.2-0.4,0.1-0.4-0.1"/>
<path class="st0" d="M61.8,294.5c0.2-0.9,0.4-1.8,0.6-2.7"/>
<path class="st0" d="M61.8,288.3c-0.2-0.2,0.4-0.5,0.5-0.2"/>
<path class="st0" d="M64.7,289.8c0.1,1.4,0.2,2.8,0.1,4.1c0.1-0.9,0.2-1.8,0.5-2.7c0.1-0.4,0.3-0.8,0.6-1.1c0.7-0.6,1.9,0,2.3,0.8
	c0.4,0.9,0.2,1.8,0,2.7c0,0.2,0,0.4,0.1,0.5c0.2,0.1,0.1-0.4,0-0.2"/>
<path class="st0" d="M70,297.3c1.2,0.8,2.9-0.1,3.5-1.4c0.6-1.3,0.3-2.8-0.2-4.2c-0.5-0.7-1.8-0.7-2.3,0c-0.6,0.9,0.1,2.3,1.1,2.8
	c0.2-0.2,0.3-0.6,0.1-0.9"/>
<path class="st0" d="M78.7,290.3c0,1.7,0,3.4,0,5.2c0.2-0.8,0.1-1.6,0-2.4s-0.1-1.6,0.2-2.3c0.4-0.7,1.3-1.2,2-0.8
	c0.6,0.3,0.8,1,0.9,1.7c0.2,1.4,0.3,2.8,0.3,4.2c-0.2-1.9-0.2-4.2,1.2-5.5c0.4-0.4,1-0.6,1.5-0.3c0.2,0.1,0.3,0.4,0.4,0.6
	c0.5,1.4,0.6,2.9,0.4,4.4c-0.3,0.1-0.5-0.2-0.5-0.4"/>
<path class="st0" d="M87.8,290.3c-0.2-0.3,0.3-0.5,0.7-0.5c1.6,0.4,2.9,1.9,3.1,3.5c0,0.2,0,0.5-0.1,0.6c-0.1,0.2-0.3,0.2-0.4,0.3
	c-1.1,0.5-2.5,1-3.3,0c-0.4-0.5-0.4-1.3,0.1-1.8c0.5-0.5,1.3-0.5,1.8-0.1"/>
<path class="st0" d="M96.6,291.1c-1-1-2.4-2-3.6-1.3c-0.7,0.4-1,1.2-0.9,2c0.1,0.8,0.5,1.5,1,2.1c0.4,0.4,0.9,0.9,1.4,0.9
	c0.6,0,1.2-0.7,0.9-1.2"/>
<path class="st0" d="M98,287.6c0.3,2.6,0.4,5.1,0.3,7.7c0.3-0.9,0-1.9,0-2.9c0-1,0.6-2.1,1.6-2c0.9,0.1,1.3,1.2,1.4,2.1
	c0.1,0.7,0.2,1.5,0.3,2.2"/>
<path class="st0" d="M104.1,294.9c0-1.2,0-2.4,0-3.5"/>
<path class="st0" d="M104.1,288.5c0-0.1,0-0.1,0-0.2"/>
<path class="st0" d="M106.6,290.5c0.5,1.2,0.7,2.5,0.6,3.7c-0.2-0.9-0.3-1.9-0.1-2.8c0.1-0.4,0.2-0.8,0.6-1.1
	c0.7-0.5,1.7,0.3,1.9,1.2c0.2,0.9-0.1,1.8,0.1,2.7"/>
<path class="st0" d="M112,291.9c0.6,0.6,1.6,0.8,2.4,0.5c0.1-0.1,0.3-0.1,0.4-0.3c0.2-0.2,0.2-0.5,0.2-0.7c-0.1-1.1-1.7-1.7-2.6-1
	c-0.9,0.6-1.1,2-0.7,3c0.2,0.5,0.6,1,1.2,1.1c0.5,0.1,1.2-0.2,1.3-0.7"/>
<path class="st0" d="M120.8,295.3c-1.4-2.8-1.1-6.3,0.7-8.9c-0.3,0.3-0.6,0.6-0.9,0.9c-0.4,0.4-0.8,0.7-1,1.2
	c-0.2,0.5-0.2,1.1,0.2,1.5c0.4,0.4,1.1,0.2,1.3-0.3"/>
<path class="st0" d="M124.1,290.5c-1,0.5-1.5,1.7-1.1,2.8s1.5,1.7,2.5,1.6c0.5-0.1,1-0.3,1.2-0.7c0.4-0.7,0.1-1.7-0.6-2.3
	c-0.7-0.5-1.6-0.7-2.4-0.8"/>
<path class="st0" d="M128.8,289.9c0.2,1.9,0.3,3.7,0.5,5.6c0.2-0.8,0-1.7-0.1-2.6s0.2-1.9,1-2.2c0.1-0.1,0.3-0.1,0.4,0.1
	s-0.3,0.1-0.2,0"/>
<path class="st0" d="M137.4,287.8c-1.4,0.7-2.4,2-2.7,3.5s0.3,3.1,1.5,4c0.5,0.4,1.2,0.7,1.8,0.5c0.9-0.2,1.4-1.3,1.2-2.2
	s-0.8-1.7-1.5-2.3c-0.6-0.5-1.6-0.9-2-0.2"/>
<path class="st0" d="M140.8,294.3c0.6,0.3,1.2,0.7,1.8,0.8c0.7,0.1,1.4-0.1,1.8-0.7c0.4-0.8-0.1-1.8-0.7-2.4c-0.8-0.6-2-0.9-2.6-0.2
	c0.1-1.3,0.3-2.7,0.5-4c0.5,0.5,1.3,0.7,2,0.5"/>
<path class="st0" d="M151.8,291.5c0.4-0.6,0-1.4-0.7-1.6c-0.6-0.2-1.3,0.3-1.6,0.9c-0.3,0.6-0.1,1.3,0.2,1.9
	c0.2,0.3,0.5,0.6,0.9,0.7c0.4,0.1,0.8-0.1,0.9-0.5"/>
<path class="st0" d="M154.9,290.7c0.3,1.3,0.3,2.7,0,4c-0.2-1.5,0-3,0.5-4.4c0.1-0.3,0.3-0.7,0.7-0.7c0.3,0,0.5,0.1,0.7,0.3
	c1.1,1,1.7,2.6,1.4,4.1c0.2-0.7,0-1.4,0-2.1s0.4-1.5,1-1.6c0.9-0.1,1.4,1.1,1.6,2c0.1,0.9,0.3,1.8,0.4,2.7"/>
<path class="st0" d="M169.3,287.6c1.1,2.3,0.9,4.9,0.6,7.4c0,0.1,0,0.3-0.1,0.4c-0.1,0.2-0.4,0.2-0.6,0.2c-1.6-0.2-3-1.4-3.3-3
	c-0.1-0.2-0.1-0.5,0-0.7c0.1-0.3,0.4-0.4,0.7-0.5c0.9-0.4,1.8-0.5,2.7-0.3"/>
<path class="st0" d="M172.7,295.6c-0.1-1.4-0.1-2.8-0.1-4.2"/>
<path class="st0" d="M172.3,289.2c0-0.3,0-0.7,0-1C172.3,288.5,172.3,288.9,172.3,289.2"/>
<path class="st0" d="M174.9,290.8c0.2-0.4,0.9-0.6,1.3-0.4c0.5,0.2,0.8,0.6,1.1,1c0.4,0.7,0.7,1.7,0.4,2.5c-0.3,0.8-1.3,1.4-2.1,1.1
	c-0.6-0.2-0.9-1-0.7-1.6c0.3-0.6,1.2-0.8,1.8-0.6"/>
<path class="st0" d="M179.5,290.5c0.1,1.2,0.2,2.4,0.3,3.5c0.1-0.8-0.2-1.6-0.1-2.4c0.1-0.8,0.9-1.6,1.6-1.3
	c0.2,0.1,0.4,0.3,0.6,0.5c0.7,0.9,1,2,0.9,3.1c-0.3-1.2,0.2-2.6,1.2-3.2c0.2-0.2,0.5-0.3,0.8-0.2c0.2,0.1,0.3,0.3,0.4,0.5
	c0.8,1.4,1.2,3.1,1.1,4.7c-0.1-0.2-0.2-0.4-0.3-0.6"/>
<path class="st0" d="M188.9,291.7c0.5,0.2,1,0.3,1.5,0.2c0.5-0.1,1-0.5,1.1-1c0.1-0.7-0.8-1.2-1.5-1s-1.1,0.8-1.4,1.5
	c-0.4,1.1-0.2,2.4,0.7,3.1s2.5,0.2,2.6-0.9"/>
<path class="st0" d="M196.2,294.3c0.2,0,0.1,0.5-0.1,0.5c-0.2,0-0.4-0.2-0.6-0.4c-1-1.7-1.4-3.8-1-5.7c0.5,0.6,0.1,1.7-0.7,1.7
	c0.6,0,1.1,0,1.7,0"/>
<path class="st0" d="M198.5,292.4c0.7,0.4,1.8-0.1,1.9-1s-0.8-1.6-1.6-1.4c-1.1,0.3-1.4,1.7-1.2,2.9c0.1,0.8,0.5,1.7,1.2,2
	c0.8,0.3,1.8-0.5,1.4-1.2"/>
<path class="st0" d="M202.8,289.8c-0.2,1.4-0.1,2.9,0.2,4.3c-0.3-1-0.7-2-0.5-3c0.2-1,1.2-1.9,2.2-1.6"/>
<path class="st0" d="M347.7,172.5c-0.4-0.5-0.8-1.1-1.2-1.6c1.4-1.2,3-2.8,2.5-4.5c-0.2-0.8-0.8-1.4-1.2-2.1
	c-1.4-2.5-0.1-5.6,0.5-8.4c0.6-2.9,0.4-5.9,0.2-8.8c-0.4-5.5-0.8-11-2.2-16.3"/>
<path class="st0" d="M344.6,111.7c-0.4-5.5-1.1-11-2.2-16.3"/>
<path class="st0" d="M360,104.1c-0.5,0.5-0.8,1.3-0.6,2s1,1.2,1.6,1c0.7-0.2,1-1.2,0.5-1.7"/>
<path class="st0" d="M366.1,102.6c-0.4,1.3,1.3,2.8,2.5,2.2c0.1-0.6,0.3-1.2,0.4-1.8"/>
<path class="st0" d="M369.9,100.5c0.9,0,1.2-1.7,0.3-2"/>
<path class="st0" d="M256.1,37.3c0.1-0.4,0.6,0.3,0.2,0.4c-0.4,0.1-0.7-0.4-0.7-0.8c-0.1-1.2,1-2.3,2.2-2.3c1.2,0.1,2.2,1.3,2,2.5"
	/>
<path class="st0" d="M266.6,37c-0.1-1.5,1.5-2.9,3-2.5c1.5,0.4,2.1,2.5,1.1,3.7"/>
<path class="st0" d="M281.9,35.2c-0.8-0.3-0.6-1.6,0.1-1.9c0.7-0.3,1.7,0.1,2.1,0.8c0.5,0.7,0.6,1.5,0.8,2.3"/>
<path class="st0" d="M245.5,33.2c-0.1-2.1,1.5-4,3.5-4.5c2-0.5,4.3,0.6,5.1,2.5"/>
<path class="st0" d="M241.7,56.8c-1-1.1-1.1-3.1,0.1-3.9c1.2-0.9,3.3,0.6,2.6,1.9"/>
<path class="st0" d="M187.1,115.4c0.3,0.3-0.3,0.9-0.5,0.5c-1.4-0.1-2.6-1.5-2.4-2.8c0.2-1.4,1.7-2.4,3-2.1c0.9,0.2,2.1,0.6,2.4-0.2
	"/>
<path class="st0" d="M184.7,216c-0.3,1.4,0.4,3,1.6,3.7c1.3,0.7,3,0.5,4-0.6"/>
<path class="st0" d="M201.8,223.1c-1.1,1.2-0.6,3.4,0.9,4c1.7-0.5,2.8-2.3,2.7-4"/>
<path class="st0" d="M216.2,224.5c-0.1,1.7,0,3.5,1.1,4.7s3.7,1,4-0.6"/>
<path class="st0" d="M234.7,227.9c0,0.4-0.1,0.9-0.1,1.3c-0.1,1-0.2,2,0.2,2.8c0.5,1.2,2.1,1.8,3.3,1.4s2-1.9,1.6-3.2"/>
<path class="st0" d="M249.3,228c-0.4,1.7,0,3.8,1.5,4.6c1.5,0.8,3.9-0.9,3.1-2.4"/>
<path class="st0" d="M264.5,222.5c-0.4,1.4,0.5,3,1.9,3.3s2.8-1.6,2-2.7"/>
<path class="st0" d="M214.4,207.8c-1.3,0.3-2.9-0.3-3.3-1.5c-0.4-1.3,1.2-2.8,2.2-2"/>
<path class="st0" d="M210.3,172.7c0.4,0.2,0.5,0.8,0.1,1c-1.7-0.1-2.9-1.6-3.6-3.1c-0.4-0.9-0.7-2-0.2-2.8s1.8-1.3,2.4-0.5"/>
<path class="st0" d="M207.3,152.4c-0.9,0.4-1.8-1-1.3-1.9c0.5-0.9,1.6-1.2,2.6-1.3"/>
<path class="st0" d="M257.6,106.8c-0.6-1.2-0.6-2.9,0.6-3.7c1.1-0.8,3.1,0.4,2.5,1.7"/>
<path class="st0" d="M309.6,112.2c-0.5-1.2,1.7-2.1,2.6-1.1s0.6,2.6,0,3.7"/>
<path class="st0" d="M291.2,66.1c-0.5-0.8,0.3-1.9,1.3-1.9c0.9,0,1.7,0.8,2.2,1.6c0.2,0.4,0.4,0.8,0.3,1.3c-0.1,0.4-0.8,0.7-1,0.3"
	/>
<path class="st0" d="M270.3,60.3c-1-0.4-1-2.1,0-2.6s2.3,0,2.8,1"/>
<path class="st0" d="M257.2,53.8c-0.5-1.1-1-2.3-0.5-3.4c0.5-1.1,2.4-1.3,2.7-0.1"/>
<path class="st0" d="M257.2,90.6c-0.2-0.5-0.4-1.1-0.6-1.6c1-0.9,2.9-0.3,3.2,1"/>
</svg>
